$MeshFormat
2.2 0 8
$EndMeshFormat
$PhysicalNames
5
1 2 "bottom"
1 3 "top"
1 4 "left"
1 5 "right"
2 1 "S_inner"
$EndPhysicalNames
$Nodes
561
1 0 -0.1 0
2 1 -0.1 0
3 1 0.1 0
4 0 0.1 0
5 0.01999999999996226 -0.1 0
6 0.03999999999992165 -0.1 0
7 0.05999999999987805 -0.1 0
8 0.07999999999984476 -0.1 0
9 0.09999999999981413 -0.1 0
10 0.1199999999997825 -0.1 0
11 0.1399999999997321 -0.1 0
12 0.1599999999996737 -0.1 0
13 0.1799999999996153 -0.1 0
14 0.1999999999995569 -0.1 0
15 0.2199999999994985 -0.1 0
16 0.2399999999994402 -0.1 0
17 0.2599999999993817 -0.1 0
18 0.2799999999993234 -0.1 0
19 0.299999999999265 -0.1 0
20 0.3199999999992066 -0.1 0
21 0.3399999999991483 -0.1 0
22 0.3599999999990898 -0.1 0
23 0.3799999999990315 -0.1 0
24 0.3999999999989731 -0.1 0
25 0.4199999999989147 -0.1 0
26 0.4399999999988564 -0.1 0
27 0.4599999999987979 -0.1 0
28 0.4799999999987396 -0.1 0
29 0.4999999999986921 -0.1 0
30 0.5199999999987339 -0.1 0
31 0.5399999999987867 -0.1 0
32 0.5599999999988394 -0.1 0
33 0.5799999999988923 -0.1 0
34 0.5999999999989449 -0.1 0
35 0.6199999999989977 -0.1 0
36 0.6399999999990504 -0.1 0
37 0.6599999999991032 -0.1 0
38 0.6799999999991559 -0.1 0
39 0.6999999999992087 -0.1 0
40 0.7199999999992615 -0.1 0
41 0.7399999999993142 -0.1 0
42 0.759999999999367 -0.1 0
43 0.7799999999994197 -0.1 0
44 0.7999999999994724 -0.1 0
45 0.8199999999995252 -0.1 0
46 0.839999999999578 -0.1 0
47 0.8599999999996307 -0.1 0
48 0.8799999999996835 -0.1 0
49 0.8999999999997362 -0.1 0
50 0.9199999999997889 -0.1 0
51 0.9399999999998417 -0.1 0
52 0.9599999999998945 -0.1 0
53 0.9799999999999472 -0.1 0
54 1 -0.0800000000000439 0
55 1 -0.06000000000009214 0
56 1 -0.04000000000014908 0
57 1 -0.02000000000021147 0
58 1 -2.65745758731839e-13 0
59 1 0.01999999999978633 0
60 1 0.03999999999983783 0
61 1 0.05999999999989372 0
62 1 0.07999999999994525 0
63 0.9799999999999167 0.1 0
64 0.9599999999998334 0.1 0
65 0.9399999999997501 0.1 0
66 0.9199999999996669 0.1 0
67 0.8999999999995836 0.1 0
68 0.8799999999995082 0.1 0
69 0.8599999999995835 0.1 0
70 0.8399999999997224 0.1 0
71 0.8199999999998612 0.1 0
72 0.8 0.1 0
73 0.7800000000001388 0.1 0
74 0.7600000000002776 0.1 0
75 0.7400000000004163 0.1 0
76 0.7200000000005551 0.1 0
77 0.7000000000006938 0.1 0
78 0.6800000000008326 0.1 0
79 0.6600000000009714 0.1 0
80 0.64000000000111 0.1 0
81 0.6200000000012488 0.1 0
82 0.6000000000013874 0.1 0
83 0.5800000000015262 0.1 0
84 0.5600000000016649 0.1 0
85 0.5400000000018037 0.1 0
86 0.5200000000019424 0.1 0
87 0.5000000000020595 0.1 0
88 0.4800000000019978 0.1 0
89 0.4600000000019147 0.1 0
90 0.4400000000018314 0.1 0
91 0.4200000000017482 0.1 0
92 0.4000000000016649 0.1 0
93 0.3800000000015817 0.1 0
94 0.3600000000014983 0.1 0
95 0.3400000000014151 0.1 0
96 0.3200000000013319 0.1 0
97 0.3000000000012486 0.1 0
98 0.2800000000011654 0.1 0
99 0.2600000000010821 0.1 0
100 0.240000000000999 0.1 0
101 0.2200000000009157 0.1 0
102 0.2000000000008325 0.1 0
103 0.1800000000007492 0.1 0
104 0.1600000000006659 0.1 0
105 0.1400000000005828 0.1 0
106 0.1200000000004994 0.1 0
107 0.1000000000004162 0.1 0
108 0.08000000000033292 0.1 0
109 0.06000000000024974 0.1 0
110 0.04000000000016646 0.1 0
111 0.02000000000008317 0.1 0
112 0 0.0800000000000439 0
113 0 0.06000000000009214 0
114 0 0.04000000000014908 0
115 0 0.02000000000021147 0
116 0 2.65745758731839e-13 0
117 0 -0.01999999999978633 0
118 0 -0.03999999999983783 0
119 0 -0.05999999999989372 0
120 0 -0.07999999999994525 0
121 0.01999999999997435 -0.07999999999994722 0
122 0.01999999999998645 -0.0599999999998977 0
123 0.01999999999999854 -0.03999999999984408 0
124 0.02000000000001063 -0.01999999999979482 0
125 0.02000000000002271 2.551153732710532e-13 0
126 0.02000000000003481 0.02000000000020297 0
127 0.0200000000000469 0.04000000000014285 0
128 0.02000000000005899 0.06000000000008817 0
129 0.02000000000007108 0.08000000000004193 0
130 0.03999999999994615 -0.0799999999999492 0
131 0.03999999999997063 -0.05999999999990166 0
132 0.0399999999999951 -0.03999999999985028 0
133 0.04000000000001958 -0.01999999999980333 0
134 0.04000000000004406 2.444849878102673e-13 0
135 0.04000000000006854 0.02000000000019447 0
136 0.04000000000009302 0.04000000000013663 0
137 0.0400000000001175 0.06000000000008422 0
138 0.04000000000014198 0.08000000000003997 0
139 0.05999999999991522 -0.07999999999995117 0
140 0.0599999999999524 -0.05999999999990564 0
141 0.05999999999998956 -0.03999999999985651 0
142 0.06000000000002674 -0.01999999999981184 0
143 0.06000000000006389 2.338546023494814e-13 0
144 0.06000000000010107 0.02000000000018597 0
145 0.06000000000013823 0.04000000000013039 0
146 0.0600000000001754 0.06000000000008025 0
147 0.06000000000021258 0.08000000000003796 0
148 0.0799999999998936 -0.07999999999995315 0
149 0.07999999999994241 -0.0599999999999096 0
150 0.0799999999999912 -0.03999999999986277 0
151 0.08000000000004003 -0.01999999999982034 0
152 0.08000000000008885 2.232242168886955e-13 0
153 0.08000000000013767 0.02000000000017747 0
154 0.08000000000018646 0.04000000000012417 0
155 0.08000000000023529 0.06000000000007628 0
156 0.08000000000028411 0.08000000000003601 0
157 0.09999999999987434 -0.07999999999995511 0
158 0.09999999999993456 -0.05999999999991358 0
159 0.09999999999999476 -0.03999999999986898 0
160 0.100000000000055 -0.01999999999982884 0
161 0.1000000000001152 2.125938314279097e-13 0
162 0.1000000000001754 0.02000000000016897 0
163 0.1000000000002356 0.04000000000011796 0
164 0.1000000000002958 0.0600000000000723 0
165 0.100000000000356 0.08000000000003404 0
166 0.1199999999998542 -0.07999999999995709 0
167 0.1199999999999259 -0.05999999999991752 0
168 0.1199999999999976 -0.03999999999987519 0
169 0.1200000000000693 -0.01999999999983736 0
170 0.1200000000001409 2.019634459671238e-13 0
171 0.1200000000002126 0.02000000000016046 0
172 0.1200000000002843 0.04000000000011173 0
173 0.120000000000356 0.06000000000006833 0
174 0.1200000000004277 0.08000000000003206 0
175 0.1399999999998171 -0.07999999999995905 0
176 0.1399999999999022 -0.05999999999992151 0
177 0.1399999999999873 -0.03999999999988141 0
178 0.1400000000000723 -0.01999999999984585 0
179 0.1400000000001574 1.913330605063379e-13 0
180 0.1400000000002425 0.02000000000015195 0
181 0.1400000000003275 0.04000000000010551 0
182 0.1400000000004126 0.06000000000006438 0
183 0.1400000000004977 0.08000000000003007 0
184 0.1599999999997729 -0.07999999999996105 0
185 0.1599999999998721 -0.05999999999992547 0
186 0.1599999999999714 -0.03999999999988764 0
187 0.1600000000000706 -0.01999999999985434 0
188 0.1600000000001698 1.80702675045552e-13 0
189 0.160000000000269 0.02000000000014345 0
190 0.1600000000003683 0.04000000000009928 0
191 0.1600000000004675 0.06000000000006039 0
192 0.1600000000005667 0.08000000000002813 0
193 0.1799999999997287 -0.07999999999996302 0
194 0.1799999999998421 -0.05999999999992944 0
195 0.1799999999999554 -0.03999999999989387 0
196 0.1800000000000689 -0.01999999999986285 0
197 0.1800000000001822 1.70086167372574e-13 0
198 0.1800000000002957 0.02000000000013495 0
199 0.180000000000409 0.04000000000009304 0
200 0.1800000000005224 0.06000000000005642 0
201 0.1800000000006358 0.08000000000002613 0
202 0.1999999999996844 -0.07999999999996497 0
203 0.199999999999812 -0.05999999999993338 0
204 0.1999999999999396 -0.03999999999990012 0
205 0.2000000000000672 -0.01999999999987135 0
206 0.2000000000001947 1.594557819117881e-13 0
207 0.2000000000003223 0.02000000000012644 0
208 0.2000000000004498 0.04000000000008682 0
209 0.2000000000005774 0.06000000000005246 0
210 0.2000000000007049 0.08000000000002419 0
211 0.2199999999996403 -0.07999999999996693 0
212 0.219999999999782 -0.05999999999993737 0
213 0.2199999999999236 -0.03999999999990633 0
214 0.2200000000000654 -0.01999999999987986 0
215 0.2200000000002071 1.488184575570983e-13 0
216 0.2200000000003488 0.02000000000011794 0
217 0.2200000000004906 0.0400000000000806 0
218 0.2200000000006323 0.0600000000000485 0
219 0.220000000000774 0.08000000000002219 0
220 0.239999999999596 -0.07999999999996893 0
221 0.239999999999752 -0.05999999999994136 0
222 0.2399999999999078 -0.03999999999991255 0
223 0.2400000000000637 -0.01999999999988837 0
224 0.2400000000002195 1.381811332024085e-13 0
225 0.2400000000003754 0.02000000000010944 0
226 0.2400000000005313 0.04000000000007438 0
227 0.2400000000006872 0.06000000000004452 0
228 0.2400000000008431 0.08000000000002022 0
229 0.2599999999995518 -0.0799999999999709 0
230 0.2599999999997218 -0.05999999999994532 0
231 0.2599999999998919 -0.03999999999991877 0
232 0.2600000000000618 -0.01999999999989686 0
233 0.2600000000002319 1.275576866355266e-13 0
234 0.260000000000402 0.02000000000010094 0
235 0.260000000000572 0.04000000000006815 0
236 0.2600000000007421 0.06000000000004056 0
237 0.2600000000009121 0.08000000000001825 0
238 0.2799999999995075 -0.07999999999997287 0
239 0.2799999999996918 -0.05999999999994929 0
240 0.2799999999998761 -0.03999999999992498 0
241 0.2800000000000601 -0.01999999999990536 0
242 0.2800000000002443 1.169273011747407e-13 0
243 0.2800000000004286 0.02000000000009244 0
244 0.2800000000006128 0.04000000000006193 0
245 0.280000000000797 0.06000000000003659 0
246 0.2800000000009813 0.08000000000001625 0
247 0.2999999999994634 -0.07999999999997483 0
248 0.2999999999996618 -0.05999999999995326 0
249 0.29999999999986 -0.03999999999993122 0
250 0.3000000000000583 -0.01999999999991388 0
251 0.3000000000002568 1.062899768200509e-13 0
252 0.3000000000004551 0.02000000000008393 0
253 0.3000000000006535 0.0400000000000557 0
254 0.3000000000008519 0.06000000000003262 0
255 0.3000000000010502 0.08000000000001431 0
256 0.3199999999994192 -0.07999999999997681 0
257 0.3199999999996317 -0.05999999999995723 0
258 0.3199999999998442 -0.03999999999993745 0
259 0.3200000000000567 -0.01999999999992237 0
260 0.3200000000002692 9.565265246536114e-14 0
261 0.3200000000004818 0.02000000000007543 0
262 0.3200000000006943 0.04000000000004947 0
263 0.3200000000009068 0.06000000000002864 0
264 0.3200000000011193 0.08000000000001234 0
265 0.3399999999993749 -0.07999999999997878 0
266 0.3399999999996016 -0.0599999999999612 0
267 0.3399999999998283 -0.03999999999994366 0
268 0.340000000000055 -0.01999999999993088 0
269 0.3400000000002817 8.502920589847918e-14 0
270 0.3400000000005084 0.02000000000006692 0
271 0.340000000000735 0.04000000000004325 0
272 0.3400000000009617 0.06000000000002467 0
273 0.3400000000011884 0.08000000000001037 0
274 0.3599999999993307 -0.07999999999998075 0
275 0.3599999999995716 -0.05999999999996515 0
276 0.3599999999998124 -0.0399999999999499 0
277 0.3600000000000533 -0.01999999999993939 0
278 0.3600000000002941 7.441269822550112e-14 0
279 0.3600000000005349 0.02000000000005842 0
280 0.3600000000007758 0.04000000000003703 0
281 0.3600000000010166 0.0600000000000207 0
282 0.3600000000012574 0.08000000000000837 0
283 0.3799999999992865 -0.07999999999998275 0
284 0.3799999999995415 -0.05999999999996913 0
285 0.3799999999997966 -0.03999999999995613 0
286 0.3800000000000517 -0.01999999999994789 0
287 0.3800000000003066 6.377537387081134e-14 0
288 0.3800000000005617 0.02000000000004993 0
289 0.3800000000008166 0.0400000000000308 0
290 0.3800000000010718 0.06000000000001675 0
291 0.3800000000013267 0.08000000000000644 0
292 0.3999999999992423 -0.07999999999998472 0
293 0.3999999999995114 -0.05999999999997311 0
294 0.3999999999997806 -0.03999999999996233 0
295 0.4000000000000499 -0.01999999999995639 0
296 0.400000000000319 5.316233564478523e-14 0
297 0.4000000000005882 0.02000000000004142 0
298 0.4000000000008573 0.04000000000002457 0
299 0.4000000000011266 0.06000000000001277 0
300 0.4000000000013958 0.08000000000000443 0
301 0.419999999999198 -0.07999999999998669 0
302 0.4199999999994813 -0.05999999999997707 0
303 0.4199999999997648 -0.03999999999996855 0
304 0.4200000000000481 -0.01999999999996489 0
305 0.4200000000003314 4.25215418431435e-14 0
306 0.4200000000006148 0.02000000000003292 0
307 0.4200000000008982 0.04000000000001835 0
308 0.4200000000011815 0.06000000000000881 0
309 0.4200000000014649 0.08000000000000246 0
310 0.4399999999991538 -0.07999999999998864 0
311 0.4399999999994514 -0.05999999999998104 0
312 0.4399999999997488 -0.03999999999997478 0
313 0.4400000000000464 -0.0199999999999734 0
314 0.4400000000003438 3.188421748845371e-14 0
315 0.4400000000006414 0.02000000000002442 0
316 0.4400000000009389 0.04000000000001212 0
317 0.4400000000012363 0.06000000000000483 0
318 0.4400000000015339 0.08000000000000049 0
319 0.4599999999991096 -0.07999999999999063 0
320 0.4599999999994213 -0.05999999999998502 0
321 0.459999999999733 -0.03999999999998101 0
322 0.4600000000000447 -0.0199999999999819 0
323 0.4600000000003563 2.125036258071589e-14 0
324 0.460000000000668 0.02000000000001591 0
325 0.4600000000009796 0.04000000000000591 0
326 0.4600000000012914 0.06000000000000087 0
327 0.460000000001603 0.07999999999999852 0
328 0.4799999999990655 -0.0799999999999926 0
329 0.4799999999993912 -0.05999999999998898 0
330 0.479999999999717 -0.03999999999998724 0
331 0.4800000000000429 -0.0199999999999904 0
332 0.4800000000003687 1.062691601383392e-14 0
333 0.4800000000006946 0.02000000000000741 0
334 0.4800000000010203 0.03999999999999967 0
335 0.4800000000013462 0.0599999999999969 0
336 0.480000000001672 0.07999999999999655 0
337 0.4999999999990288 -0.07999999999999458 0
338 0.4999999999993655 -0.05999999999999295 0
339 0.4999999999997023 -0.03999999999999346 0
340 0.500000000000039 -0.01999999999999891 0
341 0.5000000000003758 -3.469446951953614e-18 0
342 0.5000000000007125 0.01999999999999891 0
343 0.5000000000010493 0.03999999999999345 0
344 0.500000000001386 0.05999999999999293 0
345 0.5000000000017226 0.07999999999999458 0
346 0.5199999999990548 -0.07999999999999655 0
347 0.5199999999993756 -0.05999999999999692 0
348 0.5199999999996965 -0.03999999999999969 0
349 0.5200000000000173 -0.02000000000000741 0
350 0.5200000000003382 -1.061997711993001e-14 0
351 0.520000000000659 0.0199999999999904 0
352 0.5200000000009797 0.03999999999998723 0
353 0.5200000000013008 0.05999999999998896 0
354 0.5200000000016214 0.0799999999999926 0
355 0.5399999999990882 -0.07999999999999852 0
356 0.5399999999993902 -0.06000000000000088 0
357 0.5399999999996917 -0.04000000000000593 0
358 0.5399999999999935 -0.02000000000001591 0
359 0.5400000000002952 -2.127464870937956e-14 0
360 0.5400000000005968 0.0199999999999819 0
361 0.5400000000008985 0.039999999999981 0
362 0.5400000000012003 0.059999999999985 0
363 0.5400000000015021 0.07999999999999063 0
364 0.5599999999991219 -0.08000000000000049 0
365 0.5599999999994045 -0.06000000000000487 0
366 0.5599999999996872 -0.04000000000001213 0
367 0.5599999999999696 -0.02000000000002441 0
368 0.5600000000002521 -3.189115638235762e-14 0
369 0.5600000000005347 0.0199999999999734 0
370 0.5600000000008172 0.03999999999997478 0
371 0.5600000000010998 0.05999999999998103 0
372 0.5600000000013823 0.07999999999998866 0
373 0.5799999999991559 -0.08000000000000246 0
374 0.5799999999994192 -0.06000000000000882 0
375 0.5799999999996823 -0.04000000000001838 0
376 0.5799999999999457 -0.02000000000003292 0
377 0.5800000000002092 -4.25215418431435e-14 0
378 0.5800000000004726 0.0199999999999649 0
379 0.5800000000007359 0.03999999999996856 0
380 0.5800000000009995 0.05999999999997706 0
381 0.5800000000012628 0.07999999999998667 0
382 0.5999999999991892 -0.08000000000000446 0
383 0.5999999999994334 -0.06000000000001279 0
384 0.5999999999996777 -0.04000000000002461 0
385 0.5999999999999219 -0.02000000000004142 0
386 0.6000000000001662 -5.314151896307351e-14 0
387 0.6000000000004104 0.01999999999995638 0
388 0.6000000000006547 0.03999999999996233 0
389 0.6000000000008989 0.05999999999997309 0
390 0.6000000000011432 0.07999999999998472 0
391 0.6199999999992226 -0.0800000000000064 0
392 0.6199999999994478 -0.06000000000001673 0
393 0.6199999999996729 -0.04000000000003081 0
394 0.6199999999998981 -0.02000000000004992 0
395 0.6200000000001232 -6.379619055252306e-14 0
396 0.6200000000003484 0.01999999999994789 0
397 0.6200000000005735 0.0399999999999561 0
398 0.6200000000007985 0.05999999999996912 0
399 0.6200000000010235 0.07999999999998272 0
400 0.6399999999992563 -0.0800000000000084 0
401 0.6399999999994626 -0.06000000000002072 0
402 0.6399999999996684 -0.04000000000003704 0
403 0.6399999999998742 -0.02000000000005842 0
404 0.6400000000000803 -7.441616767245307e-14 0
405 0.6400000000002863 0.01999999999993938 0
406 0.6400000000004922 0.03999999999994988 0
407 0.640000000000698 0.05999999999996515 0
408 0.6400000000009041 0.07999999999998078 0
409 0.6599999999992899 -0.08000000000001034 0
410 0.6599999999994767 -0.06000000000002471 0
411 0.6599999999996636 -0.04000000000004327 0
412 0.6599999999998504 -0.02000000000006691 0
413 0.6600000000000373 -8.503961423933504e-14 0
414 0.6600000000002241 0.01999999999993088 0
415 0.6600000000004108 0.03999999999994366 0
416 0.6600000000005979 0.05999999999996118 0
417 0.6600000000007845 0.07999999999997878 0
418 0.6799999999993236 -0.08000000000001234 0
419 0.6799999999994915 -0.06000000000002866 0
420 0.6799999999996591 -0.0400000000000495 0
421 0.6799999999998267 -0.02000000000007542 0
422 0.6799999999999944 -9.567693859402482e-14 0
423 0.6800000000001618 0.01999999999992237 0
424 0.6800000000003297 0.03999999999993743 0
425 0.6800000000004971 0.05999999999995721 0
426 0.680000000000665 0.07999999999997681 0
427 0.699999999999357 -0.08000000000001431 0
428 0.6999999999995056 -0.06000000000003261 0
429 0.6999999999996543 -0.0400000000000557 0
430 0.6999999999998027 -0.02000000000008392 0
431 0.6999999999999512 -1.062986504374308e-13 0
432 0.7000000000000998 0.01999999999991387 0
433 0.7000000000002483 0.0399999999999312 0
434 0.7000000000003969 0.05999999999995324 0
435 0.7000000000005454 0.07999999999997484 0
436 0.7199999999993907 -0.08000000000001628 0
437 0.7199999999995204 -0.0600000000000366 0
438 0.7199999999996496 -0.04000000000006192 0
439 0.7199999999997788 -0.02000000000009243 0
440 0.7199999999999083 -1.169307706216927e-13 0
441 0.7200000000000377 0.01999999999990537 0
442 0.720000000000167 0.03999999999992498 0
443 0.7200000000002964 0.0599999999999493 0
444 0.7200000000004259 0.07999999999997288 0
445 0.7399999999994243 -0.08000000000001825 0
446 0.7399999999995345 -0.06000000000004056 0
447 0.7399999999996451 -0.04000000000006816 0
448 0.7399999999997552 -0.02000000000010093 0
449 0.7399999999998653 -1.275524824650986e-13 0
450 0.7399999999999752 0.01999999999989687 0
451 0.7400000000000857 0.03999999999991875 0
452 0.7400000000001958 0.05999999999994531 0
453 0.7400000000003061 0.0799999999999709 0
454 0.759999999999458 -0.08000000000002022 0
455 0.7599999999995493 -0.06000000000004456 0
456 0.7599999999996403 -0.04000000000007439 0
457 0.7599999999997313 -0.02000000000010943 0
458 0.7599999999998224 -1.381898068197884e-13 0
459 0.7599999999999132 0.01999999999988837 0
460 0.7600000000000042 0.03999999999991252 0
461 0.7600000000000953 0.05999999999994135 0
462 0.7600000000001865 0.07999999999996893 0
463 0.7799999999994915 -0.08000000000002219 0
464 0.7799999999995634 -0.06000000000004849 0
465 0.7799999999996354 -0.0400000000000806 0
466 0.7799999999997073 -0.02000000000011793 0
467 0.7799999999997792 -1.488201922805743e-13 0
468 0.7799999999998511 0.01999999999987986 0
469 0.7799999999999231 0.0399999999999063 0
470 0.779999999999995 0.05999999999993737 0
471 0.780000000000067 0.07999999999996696 0
472 0.7999999999995251 -0.08000000000002416 0
473 0.7999999999995778 -0.06000000000005247 0
474 0.7999999999996306 -0.04000000000008683 0
475 0.7999999999996833 -0.02000000000012645 0
476 0.7999999999997361 -1.594488430178842e-13 0
477 0.799999999999789 0.01999999999987136 0
478 0.7999999999998416 0.03999999999990009 0
479 0.7999999999998944 0.05999999999993341 0
480 0.7999999999999473 0.07999999999996497 0
481 0.8199999999995589 -0.08000000000002613 0
482 0.8199999999995923 -0.06000000000005642 0
483 0.819999999999626 -0.04000000000009307 0
484 0.8199999999996596 -0.02000000000013495 0
485 0.8199999999996933 -1.700809632021461e-13 0
486 0.8199999999997271 0.01999999999986286 0
487 0.8199999999997604 0.03999999999989386 0
488 0.819999999999794 0.05999999999992944 0
489 0.8199999999998276 0.07999999999996302 0
490 0.8399999999995923 -0.0800000000000281 0
491 0.8399999999996068 -0.06000000000006041 0
492 0.8399999999996213 -0.04000000000009928 0
493 0.8399999999996357 -0.02000000000014346 0
494 0.8399999999996501 -1.807113486629319e-13 0
495 0.8399999999996646 0.01999999999985436 0
496 0.839999999999679 0.03999999999988762 0
497 0.8399999999996937 0.05999999999992547 0
498 0.8399999999997079 0.07999999999996103 0
499 0.859999999999626 -0.0800000000000301 0
500 0.8599999999996212 -0.06000000000006437 0
501 0.8599999999996166 -0.04000000000010551 0
502 0.8599999999996117 -0.02000000000015196 0
503 0.8599999999996072 -1.913417341237178e-13 0
504 0.8599999999996025 0.01999999999984586 0
505 0.8599999999995976 0.03999999999988141 0
506 0.8599999999995928 0.05999999999992151 0
507 0.8599999999995883 0.07999999999995906 0
508 0.8799999999996658 -0.08000000000003205 0
509 0.8799999999996486 -0.06000000000006834 0
510 0.8799999999996306 -0.04000000000011174 0
511 0.8799999999996133 -0.02000000000016045 0
512 0.8799999999995958 -2.019643133288618e-13 0
513 0.8799999999995782 0.01999999999983735 0
514 0.8799999999995609 0.0399999999998752 0
515 0.8799999999995431 0.05999999999991754 0
516 0.8799999999995258 0.07999999999995708 0
517 0.899999999999721 -0.08000000000003404 0
518 0.8999999999997056 -0.06000000000007229 0
519 0.8999999999996903 -0.04000000000011798 0
520 0.8999999999996753 -0.02000000000016895 0
521 0.8999999999996598 -2.125946987896477e-13 0
522 0.8999999999996446 0.01999999999982885 0
523 0.8999999999996292 0.03999999999986895 0
524 0.8999999999996141 0.05999999999991357 0
525 0.8999999999995988 0.07999999999995511 0
526 0.9199999999997766 -0.08000000000003597 0
527 0.9199999999997642 -0.0600000000000763 0
528 0.9199999999997522 -0.0400000000001242 0
529 0.9199999999997404 -0.02000000000017747 0
530 0.919999999999728 -2.232233495269575e-13 0
531 0.9199999999997157 0.01999999999982035 0
532 0.9199999999997033 0.03999999999986273 0
533 0.9199999999996912 0.0599999999999096 0
534 0.919999999999679 0.07999999999995314 0
535 0.9399999999998325 -0.08000000000003799 0
536 0.9399999999998233 -0.06000000000008023 0
537 0.9399999999998141 -0.0400000000001304 0
538 0.939999999999805 -0.02000000000018595 0
539 0.9399999999997958 -2.338550360303504e-13 0
540 0.939999999999787 0.01999999999981184 0
541 0.9399999999997775 0.03999999999985651 0
542 0.9399999999997685 0.05999999999990564 0
543 0.9399999999997595 0.07999999999995117 0
544 0.9599999999998884 -0.08000000000003996 0
545 0.9599999999998825 -0.06000000000008422 0
546 0.9599999999998761 -0.04000000000013666 0
547 0.9599999999998701 -0.02000000000019447 0
548 0.9599999999998639 -2.444854214911363e-13 0
549 0.9599999999998576 0.01999999999980334 0
550 0.9599999999998519 0.03999999999985029 0
551 0.9599999999998456 0.05999999999990167 0
552 0.9599999999998396 0.0799999999999492 0
553 0.9799999999999442 -0.08000000000004193 0
554 0.979999999999941 -0.06000000000008817 0
555 0.9799999999999381 -0.04000000000014286 0
556 0.9799999999999349 -0.02000000000020297 0
557 0.9799999999999319 -2.551155901114877e-13 0
558 0.9799999999999289 0.01999999999979485 0
559 0.9799999999999258 0.03999999999984404 0
560 0.979999999999923 0.05999999999989769 0
561 0.9799999999999199 0.07999999999994722 0
$EndNodes
$Elements
620
1 1 2 2 5 1 5
2 1 2 2 5 5 6
3 1 2 2 5 6 7
4 1 2 2 5 7 8
5 1 2 2 5 8 9
6 1 2 2 5 9 10
7 1 2 2 5 10 11
8 1 2 2 5 11 12
9 1 2 2 5 12 13
10 1 2 2 5 13 14
11 1 2 2 5 14 15
12 1 2 2 5 15 16
13 1 2 2 5 16 17
14 1 2 2 5 17 18
15 1 2 2 5 18 19
16 1 2 2 5 19 20
17 1 2 2 5 20 21
18 1 2 2 5 21 22
19 1 2 2 5 22 23
20 1 2 2 5 23 24
21 1 2 2 5 24 25
22 1 2 2 5 25 26
23 1 2 2 5 26 27
24 1 2 2 5 27 28
25 1 2 2 5 28 29
26 1 2 2 5 29 30
27 1 2 2 5 30 31
28 1 2 2 5 31 32
29 1 2 2 5 32 33
30 1 2 2 5 33 34
31 1 2 2 5 34 35
32 1 2 2 5 35 36
33 1 2 2 5 36 37
34 1 2 2 5 37 38
35 1 2 2 5 38 39
36 1 2 2 5 39 40
37 1 2 2 5 40 41
38 1 2 2 5 41 42
39 1 2 2 5 42 43
40 1 2 2 5 43 44
41 1 2 2 5 44 45
42 1 2 2 5 45 46
43 1 2 2 5 46 47
44 1 2 2 5 47 48
45 1 2 2 5 48 49
46 1 2 2 5 49 50
47 1 2 2 5 50 51
48 1 2 2 5 51 52
49 1 2 2 5 52 53
50 1 2 2 5 53 2
51 1 2 5 6 2 54
52 1 2 5 6 54 55
53 1 2 5 6 55 56
54 1 2 5 6 56 57
55 1 2 5 6 57 58
56 1 2 5 6 58 59
57 1 2 5 6 59 60
58 1 2 5 6 60 61
59 1 2 5 6 61 62
60 1 2 5 6 62 3
61 1 2 3 7 3 63
62 1 2 3 7 63 64
63 1 2 3 7 64 65
64 1 2 3 7 65 66
65 1 2 3 7 66 67
66 1 2 3 7 67 68
67 1 2 3 7 68 69
68 1 2 3 7 69 70
69 1 2 3 7 70 71
70 1 2 3 7 71 72
71 1 2 3 7 72 73
72 1 2 3 7 73 74
73 1 2 3 7 74 75
74 1 2 3 7 75 76
75 1 2 3 7 76 77
76 1 2 3 7 77 78
77 1 2 3 7 78 79
78 1 2 3 7 79 80
79 1 2 3 7 80 81
80 1 2 3 7 81 82
81 1 2 3 7 82 83
82 1 2 3 7 83 84
83 1 2 3 7 84 85
84 1 2 3 7 85 86
85 1 2 3 7 86 87
86 1 2 3 7 87 88
87 1 2 3 7 88 89
88 1 2 3 7 89 90
89 1 2 3 7 90 91
90 1 2 3 7 91 92
91 1 2 3 7 92 93
92 1 2 3 7 93 94
93 1 2 3 7 94 95
94 1 2 3 7 95 96
95 1 2 3 7 96 97
96 1 2 3 7 97 98
97 1 2 3 7 98 99
98 1 2 3 7 99 100
99 1 2 3 7 100 101
100 1 2 3 7 101 102
101 1 2 3 7 102 103
102 1 2 3 7 103 104
103 1 2 3 7 104 105
104 1 2 3 7 105 106
105 1 2 3 7 106 107
106 1 2 3 7 107 108
107 1 2 3 7 108 109
108 1 2 3 7 109 110
109 1 2 3 7 110 111
110 1 2 3 7 111 4
111 1 2 4 8 4 112
112 1 2 4 8 112 113
113 1 2 4 8 113 114
114 1 2 4 8 114 115
115 1 2 4 8 115 116
116 1 2 4 8 116 117
117 1 2 4 8 117 118
118 1 2 4 8 118 119
119 1 2 4 8 119 120
120 1 2 4 8 120 1
121 3 2 1 6 1 5 121 120
122 3 2 1 6 120 121 122 119
123 3 2 1 6 119 122 123 118
124 3 2 1 6 118 123 124 117
125 3 2 1 6 117 124 125 116
126 3 2 1 6 116 125 126 115
127 3 2 1 6 115 126 127 114
128 3 2 1 6 114 127 128 113
129 3 2 1 6 113 128 129 112
130 3 2 1 6 112 129 111 4
131 3 2 1 6 5 6 130 121
132 3 2 1 6 121 130 131 122
133 3 2 1 6 122 131 132 123
134 3 2 1 6 123 132 133 124
135 3 2 1 6 124 133 134 125
136 3 2 1 6 125 134 135 126
137 3 2 1 6 126 135 136 127
138 3 2 1 6 127 136 137 128
139 3 2 1 6 128 137 138 129
140 3 2 1 6 129 138 110 111
141 3 2 1 6 6 7 139 130
142 3 2 1 6 130 139 140 131
143 3 2 1 6 131 140 141 132
144 3 2 1 6 132 141 142 133
145 3 2 1 6 133 142 143 134
146 3 2 1 6 134 143 144 135
147 3 2 1 6 135 144 145 136
148 3 2 1 6 136 145 146 137
149 3 2 1 6 137 146 147 138
150 3 2 1 6 138 147 109 110
151 3 2 1 6 7 8 148 139
152 3 2 1 6 139 148 149 140
153 3 2 1 6 140 149 150 141
154 3 2 1 6 141 150 151 142
155 3 2 1 6 142 151 152 143
156 3 2 1 6 143 152 153 144
157 3 2 1 6 144 153 154 145
158 3 2 1 6 145 154 155 146
159 3 2 1 6 146 155 156 147
160 3 2 1 6 147 156 108 109
161 3 2 1 6 8 9 157 148
162 3 2 1 6 148 157 158 149
163 3 2 1 6 149 158 159 150
164 3 2 1 6 150 159 160 151
165 3 2 1 6 151 160 161 152
166 3 2 1 6 152 161 162 153
167 3 2 1 6 153 162 163 154
168 3 2 1 6 154 163 164 155
169 3 2 1 6 155 164 165 156
170 3 2 1 6 156 165 107 108
171 3 2 1 6 9 10 166 157
172 3 2 1 6 157 166 167 158
173 3 2 1 6 158 167 168 159
174 3 2 1 6 159 168 169 160
175 3 2 1 6 160 169 170 161
176 3 2 1 6 161 170 171 162
177 3 2 1 6 162 171 172 163
178 3 2 1 6 163 172 173 164
179 3 2 1 6 164 173 174 165
180 3 2 1 6 165 174 106 107
181 3 2 1 6 10 11 175 166
182 3 2 1 6 166 175 176 167
183 3 2 1 6 167 176 177 168
184 3 2 1 6 168 177 178 169
185 3 2 1 6 169 178 179 170
186 3 2 1 6 170 179 180 171
187 3 2 1 6 171 180 181 172
188 3 2 1 6 172 181 182 173
189 3 2 1 6 173 182 183 174
190 3 2 1 6 174 183 105 106
191 3 2 1 6 11 12 184 175
192 3 2 1 6 175 184 185 176
193 3 2 1 6 176 185 186 177
194 3 2 1 6 177 186 187 178
195 3 2 1 6 178 187 188 179
196 3 2 1 6 179 188 189 180
197 3 2 1 6 180 189 190 181
198 3 2 1 6 181 190 191 182
199 3 2 1 6 182 191 192 183
200 3 2 1 6 183 192 104 105
201 3 2 1 6 12 13 193 184
202 3 2 1 6 184 193 194 185
203 3 2 1 6 185 194 195 186
204 3 2 1 6 186 195 196 187
205 3 2 1 6 187 196 197 188
206 3 2 1 6 188 197 198 189
207 3 2 1 6 189 198 199 190
208 3 2 1 6 190 199 200 191
209 3 2 1 6 191 200 201 192
210 3 2 1 6 192 201 103 104
211 3 2 1 6 13 14 202 193
212 3 2 1 6 193 202 203 194
213 3 2 1 6 194 203 204 195
214 3 2 1 6 195 204 205 196
215 3 2 1 6 196 205 206 197
216 3 2 1 6 197 206 207 198
217 3 2 1 6 198 207 208 199
218 3 2 1 6 199 208 209 200
219 3 2 1 6 200 209 210 201
220 3 2 1 6 201 210 102 103
221 3 2 1 6 14 15 211 202
222 3 2 1 6 202 211 212 203
223 3 2 1 6 203 212 213 204
224 3 2 1 6 204 213 214 205
225 3 2 1 6 205 214 215 206
226 3 2 1 6 206 215 216 207
227 3 2 1 6 207 216 217 208
228 3 2 1 6 208 217 218 209
229 3 2 1 6 209 218 219 210
230 3 2 1 6 210 219 101 102
231 3 2 1 6 15 16 220 211
232 3 2 1 6 211 220 221 212
233 3 2 1 6 212 221 222 213
234 3 2 1 6 213 222 223 214
235 3 2 1 6 214 223 224 215
236 3 2 1 6 215 224 225 216
237 3 2 1 6 216 225 226 217
238 3 2 1 6 217 226 227 218
239 3 2 1 6 218 227 228 219
240 3 2 1 6 219 228 100 101
241 3 2 1 6 16 17 229 220
242 3 2 1 6 220 229 230 221
243 3 2 1 6 221 230 231 222
244 3 2 1 6 222 231 232 223
245 3 2 1 6 223 232 233 224
246 3 2 1 6 224 233 234 225
247 3 2 1 6 225 234 235 226
248 3 2 1 6 226 235 236 227
249 3 2 1 6 227 236 237 228
250 3 2 1 6 228 237 99 100
251 3 2 1 6 17 18 238 229
252 3 2 1 6 229 238 239 230
253 3 2 1 6 230 239 240 231
254 3 2 1 6 231 240 241 232
255 3 2 1 6 232 241 242 233
256 3 2 1 6 233 242 243 234
257 3 2 1 6 234 243 244 235
258 3 2 1 6 235 244 245 236
259 3 2 1 6 236 245 246 237
260 3 2 1 6 237 246 98 99
261 3 2 1 6 18 19 247 238
262 3 2 1 6 238 247 248 239
263 3 2 1 6 239 248 249 240
264 3 2 1 6 240 249 250 241
265 3 2 1 6 241 250 251 242
266 3 2 1 6 242 251 252 243
267 3 2 1 6 243 252 253 244
268 3 2 1 6 244 253 254 245
269 3 2 1 6 245 254 255 246
270 3 2 1 6 246 255 97 98
271 3 2 1 6 19 20 256 247
272 3 2 1 6 247 256 257 248
273 3 2 1 6 248 257 258 249
274 3 2 1 6 249 258 259 250
275 3 2 1 6 250 259 260 251
276 3 2 1 6 251 260 261 252
277 3 2 1 6 252 261 262 253
278 3 2 1 6 253 262 263 254
279 3 2 1 6 254 263 264 255
280 3 2 1 6 255 264 96 97
281 3 2 1 6 20 21 265 256
282 3 2 1 6 256 265 266 257
283 3 2 1 6 257 266 267 258
284 3 2 1 6 258 267 268 259
285 3 2 1 6 259 268 269 260
286 3 2 1 6 260 269 270 261
287 3 2 1 6 261 270 271 262
288 3 2 1 6 262 271 272 263
289 3 2 1 6 263 272 273 264
290 3 2 1 6 264 273 95 96
291 3 2 1 6 21 22 274 265
292 3 2 1 6 265 274 275 266
293 3 2 1 6 266 275 276 267
294 3 2 1 6 267 276 277 268
295 3 2 1 6 268 277 278 269
296 3 2 1 6 269 278 279 270
297 3 2 1 6 270 279 280 271
298 3 2 1 6 271 280 281 272
299 3 2 1 6 272 281 282 273
300 3 2 1 6 273 282 94 95
301 3 2 1 6 22 23 283 274
302 3 2 1 6 274 283 284 275
303 3 2 1 6 275 284 285 276
304 3 2 1 6 276 285 286 277
305 3 2 1 6 277 286 287 278
306 3 2 1 6 278 287 288 279
307 3 2 1 6 279 288 289 280
308 3 2 1 6 280 289 290 281
309 3 2 1 6 281 290 291 282
310 3 2 1 6 282 291 93 94
311 3 2 1 6 23 24 292 283
312 3 2 1 6 283 292 293 284
313 3 2 1 6 284 293 294 285
314 3 2 1 6 285 294 295 286
315 3 2 1 6 286 295 296 287
316 3 2 1 6 287 296 297 288
317 3 2 1 6 288 297 298 289
318 3 2 1 6 289 298 299 290
319 3 2 1 6 290 299 300 291
320 3 2 1 6 291 300 92 93
321 3 2 1 6 24 25 301 292
322 3 2 1 6 292 301 302 293
323 3 2 1 6 293 302 303 294
324 3 2 1 6 294 303 304 295
325 3 2 1 6 295 304 305 296
326 3 2 1 6 296 305 306 297
327 3 2 1 6 297 306 307 298
328 3 2 1 6 298 307 308 299
329 3 2 1 6 299 308 309 300
330 3 2 1 6 300 309 91 92
331 3 2 1 6 25 26 310 301
332 3 2 1 6 301 310 311 302
333 3 2 1 6 302 311 312 303
334 3 2 1 6 303 312 313 304
335 3 2 1 6 304 313 314 305
336 3 2 1 6 305 314 315 306
337 3 2 1 6 306 315 316 307
338 3 2 1 6 307 316 317 308
339 3 2 1 6 308 317 318 309
340 3 2 1 6 309 318 90 91
341 3 2 1 6 26 27 319 310
342 3 2 1 6 310 319 320 311
343 3 2 1 6 311 320 321 312
344 3 2 1 6 312 321 322 313
345 3 2 1 6 313 322 323 314
346 3 2 1 6 314 323 324 315
347 3 2 1 6 315 324 325 316
348 3 2 1 6 316 325 326 317
349 3 2 1 6 317 326 327 318
350 3 2 1 6 318 327 89 90
351 3 2 1 6 27 28 328 319
352 3 2 1 6 319 328 329 320
353 3 2 1 6 320 329 330 321
354 3 2 1 6 321 330 331 322
355 3 2 1 6 322 331 332 323
356 3 2 1 6 323 332 333 324
357 3 2 1 6 324 333 334 325
358 3 2 1 6 325 334 335 326
359 3 2 1 6 326 335 336 327
360 3 2 1 6 327 336 88 89
361 3 2 1 6 28 29 337 328
362 3 2 1 6 328 337 338 329
363 3 2 1 6 329 338 339 330
364 3 2 1 6 330 339 340 331
365 3 2 1 6 331 340 341 332
366 3 2 1 6 332 341 342 333
367 3 2 1 6 333 342 343 334
368 3 2 1 6 334 343 344 335
369 3 2 1 6 335 344 345 336
370 3 2 1 6 336 345 87 88
371 3 2 1 6 29 30 346 337
372 3 2 1 6 337 346 347 338
373 3 2 1 6 338 347 348 339
374 3 2 1 6 339 348 349 340
375 3 2 1 6 340 349 350 341
376 3 2 1 6 341 350 351 342
377 3 2 1 6 342 351 352 343
378 3 2 1 6 343 352 353 344
379 3 2 1 6 344 353 354 345
380 3 2 1 6 345 354 86 87
381 3 2 1 6 30 31 355 346
382 3 2 1 6 346 355 356 347
383 3 2 1 6 347 356 357 348
384 3 2 1 6 348 357 358 349
385 3 2 1 6 349 358 359 350
386 3 2 1 6 350 359 360 351
387 3 2 1 6 351 360 361 352
388 3 2 1 6 352 361 362 353
389 3 2 1 6 353 362 363 354
390 3 2 1 6 354 363 85 86
391 3 2 1 6 31 32 364 355
392 3 2 1 6 355 364 365 356
393 3 2 1 6 356 365 366 357
394 3 2 1 6 357 366 367 358
395 3 2 1 6 358 367 368 359
396 3 2 1 6 359 368 369 360
397 3 2 1 6 360 369 370 361
398 3 2 1 6 361 370 371 362
399 3 2 1 6 362 371 372 363
400 3 2 1 6 363 372 84 85
401 3 2 1 6 32 33 373 364
402 3 2 1 6 364 373 374 365
403 3 2 1 6 365 374 375 366
404 3 2 1 6 366 375 376 367
405 3 2 1 6 367 376 377 368
406 3 2 1 6 368 377 378 369
407 3 2 1 6 369 378 379 370
408 3 2 1 6 370 379 380 371
409 3 2 1 6 371 380 381 372
410 3 2 1 6 372 381 83 84
411 3 2 1 6 33 34 382 373
412 3 2 1 6 373 382 383 374
413 3 2 1 6 374 383 384 375
414 3 2 1 6 375 384 385 376
415 3 2 1 6 376 385 386 377
416 3 2 1 6 377 386 387 378
417 3 2 1 6 378 387 388 379
418 3 2 1 6 379 388 389 380
419 3 2 1 6 380 389 390 381
420 3 2 1 6 381 390 82 83
421 3 2 1 6 34 35 391 382
422 3 2 1 6 382 391 392 383
423 3 2 1 6 383 392 393 384
424 3 2 1 6 384 393 394 385
425 3 2 1 6 385 394 395 386
426 3 2 1 6 386 395 396 387
427 3 2 1 6 387 396 397 388
428 3 2 1 6 388 397 398 389
429 3 2 1 6 389 398 399 390
430 3 2 1 6 390 399 81 82
431 3 2 1 6 35 36 400 391
432 3 2 1 6 391 400 401 392
433 3 2 1 6 392 401 402 393
434 3 2 1 6 393 402 403 394
435 3 2 1 6 394 403 404 395
436 3 2 1 6 395 404 405 396
437 3 2 1 6 396 405 406 397
438 3 2 1 6 397 406 407 398
439 3 2 1 6 398 407 408 399
440 3 2 1 6 399 408 80 81
441 3 2 1 6 36 37 409 400
442 3 2 1 6 400 409 410 401
443 3 2 1 6 401 410 411 402
444 3 2 1 6 402 411 412 403
445 3 2 1 6 403 412 413 404
446 3 2 1 6 404 413 414 405
447 3 2 1 6 405 414 415 406
448 3 2 1 6 406 415 416 407
449 3 2 1 6 407 416 417 408
450 3 2 1 6 408 417 79 80
451 3 2 1 6 37 38 418 409
452 3 2 1 6 409 418 419 410
453 3 2 1 6 410 419 420 411
454 3 2 1 6 411 420 421 412
455 3 2 1 6 412 421 422 413
456 3 2 1 6 413 422 423 414
457 3 2 1 6 414 423 424 415
458 3 2 1 6 415 424 425 416
459 3 2 1 6 416 425 426 417
460 3 2 1 6 417 426 78 79
461 3 2 1 6 38 39 427 418
462 3 2 1 6 418 427 428 419
463 3 2 1 6 419 428 429 420
464 3 2 1 6 420 429 430 421
465 3 2 1 6 421 430 431 422
466 3 2 1 6 422 431 432 423
467 3 2 1 6 423 432 433 424
468 3 2 1 6 424 433 434 425
469 3 2 1 6 425 434 435 426
470 3 2 1 6 426 435 77 78
471 3 2 1 6 39 40 436 427
472 3 2 1 6 427 436 437 428
473 3 2 1 6 428 437 438 429
474 3 2 1 6 429 438 439 430
475 3 2 1 6 430 439 440 431
476 3 2 1 6 431 440 441 432
477 3 2 1 6 432 441 442 433
478 3 2 1 6 433 442 443 434
479 3 2 1 6 434 443 444 435
480 3 2 1 6 435 444 76 77
481 3 2 1 6 40 41 445 436
482 3 2 1 6 436 445 446 437
483 3 2 1 6 437 446 447 438
484 3 2 1 6 438 447 448 439
485 3 2 1 6 439 448 449 440
486 3 2 1 6 440 449 450 441
487 3 2 1 6 441 450 451 442
488 3 2 1 6 442 451 452 443
489 3 2 1 6 443 452 453 444
490 3 2 1 6 444 453 75 76
491 3 2 1 6 41 42 454 445
492 3 2 1 6 445 454 455 446
493 3 2 1 6 446 455 456 447
494 3 2 1 6 447 456 457 448
495 3 2 1 6 448 457 458 449
496 3 2 1 6 449 458 459 450
497 3 2 1 6 450 459 460 451
498 3 2 1 6 451 460 461 452
499 3 2 1 6 452 461 462 453
500 3 2 1 6 453 462 74 75
501 3 2 1 6 42 43 463 454
502 3 2 1 6 454 463 464 455
503 3 2 1 6 455 464 465 456
504 3 2 1 6 456 465 466 457
505 3 2 1 6 457 466 467 458
506 3 2 1 6 458 467 468 459
507 3 2 1 6 459 468 469 460
508 3 2 1 6 460 469 470 461
509 3 2 1 6 461 470 471 462
510 3 2 1 6 462 471 73 74
511 3 2 1 6 43 44 472 463
512 3 2 1 6 463 472 473 464
513 3 2 1 6 464 473 474 465
514 3 2 1 6 465 474 475 466
515 3 2 1 6 466 475 476 467
516 3 2 1 6 467 476 477 468
517 3 2 1 6 468 477 478 469
518 3 2 1 6 469 478 479 470
519 3 2 1 6 470 479 480 471
520 3 2 1 6 471 480 72 73
521 3 2 1 6 44 45 481 472
522 3 2 1 6 472 481 482 473
523 3 2 1 6 473 482 483 474
524 3 2 1 6 474 483 484 475
525 3 2 1 6 475 484 485 476
526 3 2 1 6 476 485 486 477
527 3 2 1 6 477 486 487 478
528 3 2 1 6 478 487 488 479
529 3 2 1 6 479 488 489 480
530 3 2 1 6 480 489 71 72
531 3 2 1 6 45 46 490 481
532 3 2 1 6 481 490 491 482
533 3 2 1 6 482 491 492 483
534 3 2 1 6 483 492 493 484
535 3 2 1 6 484 493 494 485
536 3 2 1 6 485 494 495 486
537 3 2 1 6 486 495 496 487
538 3 2 1 6 487 496 497 488
539 3 2 1 6 488 497 498 489
540 3 2 1 6 489 498 70 71
541 3 2 1 6 46 47 499 490
542 3 2 1 6 490 499 500 491
543 3 2 1 6 491 500 501 492
544 3 2 1 6 492 501 502 493
545 3 2 1 6 493 502 503 494
546 3 2 1 6 494 503 504 495
547 3 2 1 6 495 504 505 496
548 3 2 1 6 496 505 506 497
549 3 2 1 6 497 506 507 498
550 3 2 1 6 498 507 69 70
551 3 2 1 6 47 48 508 499
552 3 2 1 6 499 508 509 500
553 3 2 1 6 500 509 510 501
554 3 2 1 6 501 510 511 502
555 3 2 1 6 502 511 512 503
556 3 2 1 6 503 512 513 504
557 3 2 1 6 504 513 514 505
558 3 2 1 6 505 514 515 506
559 3 2 1 6 506 515 516 507
560 3 2 1 6 507 516 68 69
561 3 2 1 6 48 49 517 508
562 3 2 1 6 508 517 518 509
563 3 2 1 6 509 518 519 510
564 3 2 1 6 510 519 520 511
565 3 2 1 6 511 520 521 512
566 3 2 1 6 512 521 522 513
567 3 2 1 6 513 522 523 514
568 3 2 1 6 514 523 524 515
569 3 2 1 6 515 524 525 516
570 3 2 1 6 516 525 67 68
571 3 2 1 6 49 50 526 517
572 3 2 1 6 517 526 527 518
573 3 2 1 6 518 527 528 519
574 3 2 1 6 519 528 529 520
575 3 2 1 6 520 529 530 521
576 3 2 1 6 521 530 531 522
577 3 2 1 6 522 531 532 523
578 3 2 1 6 523 532 533 524
579 3 2 1 6 524 533 534 525
580 3 2 1 6 525 534 66 67
581 3 2 1 6 50 51 535 526
582 3 2 1 6 526 535 536 527
583 3 2 1 6 527 536 537 528
584 3 2 1 6 528 537 538 529
585 3 2 1 6 529 538 539 530
586 3 2 1 6 530 539 540 531
587 3 2 1 6 531 540 541 532
588 3 2 1 6 532 541 542 533
589 3 2 1 6 533 542 543 534
590 3 2 1 6 534 543 65 66
591 3 2 1 6 51 52 544 535
592 3 2 1 6 535 544 545 536
593 3 2 1 6 536 545 546 537
594 3 2 1 6 537 546 547 538
595 3 2 1 6 538 547 548 539
596 3 2 1 6 539 548 549 540
597 3 2 1 6 540 549 550 541
598 3 2 1 6 541 550 551 542
599 3 2 1 6 542 551 552 543
600 3 2 1 6 543 552 64 65
601 3 2 1 6 52 53 553 544
602 3 2 1 6 544 553 554 545
603 3 2 1 6 545 554 555 546
604 3 2 1 6 546 555 556 547
605 3 2 1 6 547 556 557 548
606 3 2 1 6 548 557 558 549
607 3 2 1 6 549 558 559 550
608 3 2 1 6 550 559 560 551
609 3 2 1 6 551 560 561 552
610 3 2 1 6 552 561 63 64
611 3 2 1 6 53 2 54 553
612 3 2 1 6 553 54 55 554
613 3 2 1 6 554 55 56 555
614 3 2 1 6 555 56 57 556
615 3 2 1 6 556 57 58 557
616 3 2 1 6 557 58 59 558
617 3 2 1 6 558 59 60 559
618 3 2 1 6 559 60 61 560
619 3 2 1 6 560 61 62 561
620 3 2 1 6 561 62 3 63
$EndElements
