[Info]
Version 1
Dimension 2
NumNodes 36
Num3DElements 0
Num2DElements 24
Num1DElements 0
NumNodeBC 12
NumSaveNodes 0
NumSaveElements 0
NumElemType0 0
NumElemType1 0
NumElemType2 0
NumElemType3 0
NumElemType4 0
NumElemType5 0
NumElemType6 24
NumElemType7 0
NumElemType8 0
NumElemType9 0
NumElemType10 0
NumElemType11 0
NumBaseElemType0 0
NumBaseElemType1 0
NumBaseElemType2 0
NumBaseElemType3 0
NumBaseElemType4 0
NumBaseElemType5 0
NumBaseElemType6 24
NumBaseElemType7 0
NumBaseElemType8 0
NumBaseElemType9 0
NumBaseElemType10 0
NumBaseElemType11 0
NumBaseElemType12 0
NumBaseElemType13 0
NumBaseElemType14 0
NumBaseElemType15 0

[Nodes]
#NodeNr x-coord y-coord z-coord
       1  0.0000000000000e+00  0.0000000000000e+00  0.0000000000000e+00
       2  1.0000000000000e-02  0.0000000000000e+00  0.0000000000000e+00
       3  1.2500000000000e-03  0.0000000000000e+00  0.0000000000000e+00
       4  2.5000000000000e-03  0.0000000000000e+00  0.0000000000000e+00
       5  3.7500000000000e-03  0.0000000000000e+00  0.0000000000000e+00
       6  5.0000000000000e-03  0.0000000000000e+00  0.0000000000000e+00
       7  6.2500000000000e-03  0.0000000000000e+00  0.0000000000000e+00
       8  7.5000000000000e-03  0.0000000000000e+00  0.0000000000000e+00
       9  8.7500000000000e-03  0.0000000000000e+00  0.0000000000000e+00
      10  1.0000000000000e-02  1.0000000000000e-03  0.0000000000000e+00
      11  1.0000000000000e-02  3.3333333333330e-04  0.0000000000000e+00
      12  1.0000000000000e-02  6.6666666666670e-04  0.0000000000000e+00
      13  0.0000000000000e+00  1.0000000000000e-03  0.0000000000000e+00
      14  8.7500000000000e-03  1.0000000000000e-03  0.0000000000000e+00
      15  7.5000000000000e-03  1.0000000000000e-03  0.0000000000000e+00
      16  6.2500000000000e-03  1.0000000000000e-03  0.0000000000000e+00
      17  5.0000000000000e-03  1.0000000000000e-03  0.0000000000000e+00
      18  3.7500000000000e-03  1.0000000000000e-03  0.0000000000000e+00
      19  2.5000000000000e-03  1.0000000000000e-03  0.0000000000000e+00
      20  1.2500000000000e-03  1.0000000000000e-03  0.0000000000000e+00
      21  0.0000000000000e+00  6.6666666666670e-04  0.0000000000000e+00
      22  0.0000000000000e+00  3.3333333333330e-04  0.0000000000000e+00
      23  1.2500000000000e-03  3.3333333333330e-04  0.0000000000000e+00
      24  1.2500000000000e-03  6.6666666666670e-04  0.0000000000000e+00
      25  2.5000000000000e-03  3.3333333333330e-04  0.0000000000000e+00
      26  2.5000000000000e-03  6.6666666666670e-04  0.0000000000000e+00
      27  3.7500000000000e-03  3.3333333333330e-04  0.0000000000000e+00
      28  3.7500000000000e-03  6.6666666666670e-04  0.0000000000000e+00
      29  5.0000000000000e-03  3.3333333333330e-04  0.0000000000000e+00
      30  5.0000000000000e-03  6.6666666666670e-04  0.0000000000000e+00
      31  6.2500000000000e-03  3.3333333333330e-04  0.0000000000000e+00
      32  6.2500000000000e-03  6.6666666666670e-04  0.0000000000000e+00
      33  7.5000000000000e-03  3.3333333333330e-04  0.0000000000000e+00
      34  7.5000000000000e-03  6.6666666666670e-04  0.0000000000000e+00
      35  8.7500000000000e-03  3.3333333333330e-04  0.0000000000000e+00
      36  8.7500000000000e-03  6.6666666666670e-04  0.0000000000000e+00

[3D Elements]
#ElemNr  ElemType  NrOfNodes  Level
#Node1 Node2 ... NodeNrOfNodes

[2D Elements]
#ElemNr  ElemType  NrOfNodes  Level
#Node1 Node2 ... NodeNrOfNodes
1 6 4 cantilev
1 3 23 22
2 6 4 cantilev
3 4 25 23
3 6 4 cantilev
4 5 27 25
4 6 4 cantilev
5 6 29 27
5 6 4 cantilev
6 7 31 29
6 6 4 cantilev
7 8 33 31
7 6 4 cantilev
8 9 35 33
8 6 4 cantilev
9 2 11 35
9 6 4 cantilev
22 23 24 21
10 6 4 cantilev
23 25 26 24
11 6 4 cantilev
25 27 28 26
12 6 4 cantilev
27 29 30 28
13 6 4 cantilev
29 31 32 30
14 6 4 cantilev
31 33 34 32
15 6 4 cantilev
33 35 36 34
16 6 4 cantilev
35 11 12 36
17 6 4 cantilev
21 24 20 13
18 6 4 cantilev
24 26 19 20
19 6 4 cantilev
26 28 18 19
20 6 4 cantilev
28 30 17 18
21 6 4 cantilev
30 32 16 17
22 6 4 cantilev
32 34 15 16
23 6 4 cantilev
34 36 14 15
24 6 4 cantilev
36 12 10 14

[1D Elements]
#ElemNr  ElemType  NrOfNodes  Level
#Node1 Node2 ... NodeNrOfNodes

[Node BC]
#NodeNr Level
       1 ux-dof
      13 ux-dof
      21 ux-dof
      22 ux-dof
       1 uy-dof
      13 uy-dof
      21 uy-dof
      22 uy-dof
      10 uy-load
      11 uy-load
      12 uy-load
       2 uy-load

[Save Nodes]
#NodeNr Level

[Save Elements]
#ElemNr Level

