[Info]
Version 1
Dimension 2
NumNodes 783
Num3DElements 0
Num2DElements 728
Num1DElements 108
NumNodeBC 0
NumSaveNodes 0
NumSaveElements 12
Num 2d-line      : 108
Num 2d-line,quad : 0
Num 3d-line      : 0
Num 3d-line,quad : 0
Num triangle     : 0
Num triangle,quad: 0
Num quadr        : 728
Num quadr,quad   : 0
Num tetra        : 0
Num tetra,quad   : 0
Num brick        : 0
Num brick,quad   : 0
Num pyramid      : 0
Num pyramid,quad : 0
Num wedge        : 0
Num wedge,quad   : 0

[Nodes]
#NodeNr x-coord y-coord z-coord
       1  0.0000000000000e+00  0.0000000000000e+00  0.0000000000000e+00
       2  5.0000000000000e-04  0.0000000000000e+00  0.0000000000000e+00
       3  5.0000000000000e-04  5.0000000000000e-04  0.0000000000000e+00
       4  0.0000000000000e+00  5.0000000000000e-04  0.0000000000000e+00
       5  4.5000000000000e-03  0.0000000000000e+00  0.0000000000000e+00
       6  1.0000000000000e-03  0.0000000000000e+00  0.0000000000000e+00
       7  1.5000000000000e-03  0.0000000000000e+00  0.0000000000000e+00
       8  2.0000000000000e-03  0.0000000000000e+00  0.0000000000000e+00
       9  2.5000000000000e-03  0.0000000000000e+00  0.0000000000000e+00
      10  3.0000000000000e-03  0.0000000000000e+00  0.0000000000000e+00
      11  3.5000000000000e-03  0.0000000000000e+00  0.0000000000000e+00
      12  4.0000000000000e-03  0.0000000000000e+00  0.0000000000000e+00
      13  4.5000000000000e-03  5.0000000000000e-04  0.0000000000000e+00
      14  1.0000000000000e-03  5.0000000000000e-04  0.0000000000000e+00
      15  1.5000000000000e-03  5.0000000000000e-04  0.0000000000000e+00
      16  2.0000000000000e-03  5.0000000000000e-04  0.0000000000000e+00
      17  2.5000000000000e-03  5.0000000000000e-04  0.0000000000000e+00
      18  3.0000000000000e-03  5.0000000000000e-04  0.0000000000000e+00
      19  3.5000000000000e-03  5.0000000000000e-04  0.0000000000000e+00
      20  4.0000000000000e-03  5.0000000000000e-04  0.0000000000000e+00
      21  5.0000000000000e-04  1.0000000000000e-03  0.0000000000000e+00
      22  0.0000000000000e+00  1.0000000000000e-03  0.0000000000000e+00
      23  5.0000000000000e-04  4.0000000000000e-03  0.0000000000000e+00
      24  5.0000000000000e-04  1.5000000000000e-03  0.0000000000000e+00
      25  5.0000000000000e-04  2.0000000000000e-03  0.0000000000000e+00
      26  5.0000000000000e-04  2.5000000000000e-03  0.0000000000000e+00
      27  5.0000000000000e-04  3.0000000000000e-03  0.0000000000000e+00
      28  5.0000000000000e-04  3.5000000000000e-03  0.0000000000000e+00
      29  0.0000000000000e+00  4.0000000000000e-03  0.0000000000000e+00
      30  0.0000000000000e+00  1.5000000000000e-03  0.0000000000000e+00
      31  0.0000000000000e+00  2.0000000000000e-03  0.0000000000000e+00
      32  0.0000000000000e+00  2.5000000000000e-03  0.0000000000000e+00
      33  0.0000000000000e+00  3.0000000000000e-03  0.0000000000000e+00
      34  0.0000000000000e+00  3.5000000000000e-03  0.0000000000000e+00
      35  5.0000000000000e-03  0.0000000000000e+00  0.0000000000000e+00
      36  5.0000000000000e-03  5.0000000000000e-04  0.0000000000000e+00
      37  1.3000000000000e-02  0.0000000000000e+00  0.0000000000000e+00
      38  5.5000000000000e-03  0.0000000000000e+00  0.0000000000000e+00
      39  6.0000000000000e-03  0.0000000000000e+00  0.0000000000000e+00
      40  6.5000000000000e-03  0.0000000000000e+00  0.0000000000000e+00
      41  7.0000000000000e-03  0.0000000000000e+00  0.0000000000000e+00
      42  7.5000000000000e-03  0.0000000000000e+00  0.0000000000000e+00
      43  8.0000000000000e-03  0.0000000000000e+00  0.0000000000000e+00
      44  8.5000000000000e-03  0.0000000000000e+00  0.0000000000000e+00
      45  9.0000000000000e-03  0.0000000000000e+00  0.0000000000000e+00
      46  9.5000000000000e-03  0.0000000000000e+00  0.0000000000000e+00
      47  1.0000000000000e-02  0.0000000000000e+00  0.0000000000000e+00
      48  1.0500000000000e-02  0.0000000000000e+00  0.0000000000000e+00
      49  1.1000000000000e-02  0.0000000000000e+00  0.0000000000000e+00
      50  1.1500000000000e-02  0.0000000000000e+00  0.0000000000000e+00
      51  1.2000000000000e-02  0.0000000000000e+00  0.0000000000000e+00
      52  1.2500000000000e-02  0.0000000000000e+00  0.0000000000000e+00
      53  1.3000000000000e-02  5.0000000000000e-04  0.0000000000000e+00
      54  5.5000000000000e-03  5.0000000000000e-04  0.0000000000000e+00
      55  6.0000000000000e-03  5.0000000000000e-04  0.0000000000000e+00
      56  6.5000000000000e-03  5.0000000000000e-04  0.0000000000000e+00
      57  7.0000000000000e-03  5.0000000000000e-04  0.0000000000000e+00
      58  7.5000000000000e-03  5.0000000000000e-04  0.0000000000000e+00
      59  8.0000000000000e-03  5.0000000000000e-04  0.0000000000000e+00
      60  8.5000000000000e-03  5.0000000000000e-04  0.0000000000000e+00
      61  9.0000000000000e-03  5.0000000000000e-04  0.0000000000000e+00
      62  9.5000000000000e-03  5.0000000000000e-04  0.0000000000000e+00
      63  1.0000000000000e-02  5.0000000000000e-04  0.0000000000000e+00
      64  1.0500000000000e-02  5.0000000000000e-04  0.0000000000000e+00
      65  1.1000000000000e-02  5.0000000000000e-04  0.0000000000000e+00
      66  1.1500000000000e-02  5.0000000000000e-04  0.0000000000000e+00
      67  1.2000000000000e-02  5.0000000000000e-04  0.0000000000000e+00
      68  1.2500000000000e-02  5.0000000000000e-04  0.0000000000000e+00
      69  5.0000000000000e-04  5.0000000000000e-03  0.0000000000000e+00
      70  5.0000000000000e-04  4.5000000000000e-03  0.0000000000000e+00
      71  0.0000000000000e+00  5.0000000000000e-03  0.0000000000000e+00
      72  0.0000000000000e+00  4.5000000000000e-03  0.0000000000000e+00
      73  3.0000000000000e-03  1.0000000000000e-03  0.0000000000000e+00
      74  1.0000000000000e-03  1.0000000000000e-03  0.0000000000000e+00
      75  1.5000000000000e-03  1.0000000000000e-03  0.0000000000000e+00
      76  2.0000000000000e-03  1.0000000000000e-03  0.0000000000000e+00
      77  2.5000000000000e-03  1.0000000000000e-03  0.0000000000000e+00
      78  3.0000000000000e-03  4.0000000000000e-03  0.0000000000000e+00
      79  3.0000000000000e-03  1.5000000000000e-03  0.0000000000000e+00
      80  3.0000000000000e-03  2.0000000000000e-03  0.0000000000000e+00
      81  3.0000000000000e-03  2.5000000000000e-03  0.0000000000000e+00
      82  3.0000000000000e-03  3.0000000000000e-03  0.0000000000000e+00
      83  3.0000000000000e-03  3.5000000000000e-03  0.0000000000000e+00
      84  1.0000000000000e-03  4.0000000000000e-03  0.0000000000000e+00
      85  1.5000000000000e-03  4.0000000000000e-03  0.0000000000000e+00
      86  2.0000000000000e-03  4.0000000000000e-03  0.0000000000000e+00
      87  2.5000000000000e-03  4.0000000000000e-03  0.0000000000000e+00
      88  1.0000000000000e-03  1.5000000000000e-03  0.0000000000000e+00
      89  1.0000000000000e-03  2.0000000000000e-03  0.0000000000000e+00
      90  1.0000000000000e-03  2.5000000000000e-03  0.0000000000000e+00
      91  1.0000000000000e-03  3.0000000000000e-03  0.0000000000000e+00
      92  1.0000000000000e-03  3.5000000000000e-03  0.0000000000000e+00
      93  1.5000000000000e-03  1.5000000000000e-03  0.0000000000000e+00
      94  1.5000000000000e-03  2.0000000000000e-03  0.0000000000000e+00
      95  1.5000000000000e-03  2.5000000000000e-03  0.0000000000000e+00
      96  1.5000000000000e-03  3.0000000000000e-03  0.0000000000000e+00
      97  1.5000000000000e-03  3.5000000000000e-03  0.0000000000000e+00
      98  2.0000000000000e-03  1.5000000000000e-03  0.0000000000000e+00
      99  2.0000000000000e-03  2.0000000000000e-03  0.0000000000000e+00
     100  2.0000000000000e-03  2.5000000000000e-03  0.0000000000000e+00
     101  2.0000000000000e-03  3.0000000000000e-03  0.0000000000000e+00
     102  2.0000000000000e-03  3.5000000000000e-03  0.0000000000000e+00
     103  2.5000000000000e-03  1.5000000000000e-03  0.0000000000000e+00
     104  2.5000000000000e-03  2.0000000000000e-03  0.0000000000000e+00
     105  2.5000000000000e-03  2.5000000000000e-03  0.0000000000000e+00
     106  2.5000000000000e-03  3.0000000000000e-03  0.0000000000000e+00
     107  2.5000000000000e-03  3.5000000000000e-03  0.0000000000000e+00
     108  5.0000000000000e-04  9.0000000000000e-03  0.0000000000000e+00
     109  5.0000000000000e-04  5.5000000000000e-03  0.0000000000000e+00
     110  5.0000000000000e-04  6.0000000000000e-03  0.0000000000000e+00
     111  5.0000000000000e-04  6.5000000000000e-03  0.0000000000000e+00
     112  5.0000000000000e-04  7.0000000000000e-03  0.0000000000000e+00
     113  5.0000000000000e-04  7.5000000000000e-03  0.0000000000000e+00
     114  5.0000000000000e-04  8.0000000000000e-03  0.0000000000000e+00
     115  5.0000000000000e-04  8.5000000000000e-03  0.0000000000000e+00
     116  0.0000000000000e+00  9.0000000000000e-03  0.0000000000000e+00
     117  0.0000000000000e+00  5.5000000000000e-03  0.0000000000000e+00
     118  0.0000000000000e+00  6.0000000000000e-03  0.0000000000000e+00
     119  0.0000000000000e+00  6.5000000000000e-03  0.0000000000000e+00
     120  0.0000000000000e+00  7.0000000000000e-03  0.0000000000000e+00
     121  0.0000000000000e+00  7.5000000000000e-03  0.0000000000000e+00
     122  0.0000000000000e+00  8.0000000000000e-03  0.0000000000000e+00
     123  0.0000000000000e+00  8.5000000000000e-03  0.0000000000000e+00
     124  5.0000000000000e-04  1.4000000000000e-02  0.0000000000000e+00
     125  5.0000000000000e-04  9.5000000000000e-03  0.0000000000000e+00
     126  5.0000000000000e-04  1.0000000000000e-02  0.0000000000000e+00
     127  5.0000000000000e-04  1.0500000000000e-02  0.0000000000000e+00
     128  5.0000000000000e-04  1.1000000000000e-02  0.0000000000000e+00
     129  5.0000000000000e-04  1.1500000000000e-02  0.0000000000000e+00
     130  5.0000000000000e-04  1.2000000000000e-02  0.0000000000000e+00
     131  5.0000000000000e-04  1.2500000000000e-02  0.0000000000000e+00
     132  5.0000000000000e-04  1.3000000000000e-02  0.0000000000000e+00
     133  5.0000000000000e-04  1.3500000000000e-02  0.0000000000000e+00
     134  0.0000000000000e+00  1.4000000000000e-02  0.0000000000000e+00
     135  0.0000000000000e+00  9.5000000000000e-03  0.0000000000000e+00
     136  0.0000000000000e+00  1.0000000000000e-02  0.0000000000000e+00
     137  0.0000000000000e+00  1.0500000000000e-02  0.0000000000000e+00
     138  0.0000000000000e+00  1.1000000000000e-02  0.0000000000000e+00
     139  0.0000000000000e+00  1.1500000000000e-02  0.0000000000000e+00
     140  0.0000000000000e+00  1.2000000000000e-02  0.0000000000000e+00
     141  0.0000000000000e+00  1.2500000000000e-02  0.0000000000000e+00
     142  0.0000000000000e+00  1.3000000000000e-02  0.0000000000000e+00
     143  0.0000000000000e+00  1.3500000000000e-02  0.0000000000000e+00
     144  4.0000000000000e-03  5.0000000000000e-03  0.0000000000000e+00
     145  8.0000000000000e-03  5.0000000000000e-03  0.0000000000000e+00
     146  4.5000000000000e-03  5.0000000000000e-03  0.0000000000000e+00
     147  5.0000000000000e-03  5.0000000000000e-03  0.0000000000000e+00
     148  5.5000000000000e-03  5.0000000000000e-03  0.0000000000000e+00
     149  6.0000000000000e-03  5.0000000000000e-03  0.0000000000000e+00
     150  6.5000000000000e-03  5.0000000000000e-03  0.0000000000000e+00
     151  7.0000000000000e-03  5.0000000000000e-03  0.0000000000000e+00
     152  7.5000000000000e-03  5.0000000000000e-03  0.0000000000000e+00
     153  8.0000000000000e-03  9.0000000000000e-03  0.0000000000000e+00
     154  8.0000000000000e-03  5.5000000000000e-03  0.0000000000000e+00
     155  8.0000000000000e-03  6.0000000000000e-03  0.0000000000000e+00
     156  8.0000000000000e-03  6.5000000000000e-03  0.0000000000000e+00
     157  8.0000000000000e-03  7.0000000000000e-03  0.0000000000000e+00
     158  8.0000000000000e-03  7.5000000000000e-03  0.0000000000000e+00
     159  8.0000000000000e-03  8.0000000000000e-03  0.0000000000000e+00
     160  8.0000000000000e-03  8.5000000000000e-03  0.0000000000000e+00
     161  4.0000000000000e-03  9.0000000000000e-03  0.0000000000000e+00
     162  4.5000000000000e-03  9.0000000000000e-03  0.0000000000000e+00
     163  5.0000000000000e-03  9.0000000000000e-03  0.0000000000000e+00
     164  5.5000000000000e-03  9.0000000000000e-03  0.0000000000000e+00
     165  6.0000000000000e-03  9.0000000000000e-03  0.0000000000000e+00
     166  6.5000000000000e-03  9.0000000000000e-03  0.0000000000000e+00
     167  7.0000000000000e-03  9.0000000000000e-03  0.0000000000000e+00
     168  7.5000000000000e-03  9.0000000000000e-03  0.0000000000000e+00
     169  4.0000000000000e-03  5.5000000000000e-03  0.0000000000000e+00
     170  4.0000000000000e-03  6.0000000000000e-03  0.0000000000000e+00
     171  4.0000000000000e-03  6.5000000000000e-03  0.0000000000000e+00
     172  4.0000000000000e-03  7.0000000000000e-03  0.0000000000000e+00
     173  4.0000000000000e-03  7.5000000000000e-03  0.0000000000000e+00
     174  4.0000000000000e-03  8.0000000000000e-03  0.0000000000000e+00
     175  4.0000000000000e-03  8.5000000000000e-03  0.0000000000000e+00
     176  4.5000000000000e-03  5.5000000000000e-03  0.0000000000000e+00
     177  4.5000000000000e-03  6.0000000000000e-03  0.0000000000000e+00
     178  4.5000000000000e-03  6.5000000000000e-03  0.0000000000000e+00
     179  4.5000000000000e-03  7.0000000000000e-03  0.0000000000000e+00
     180  4.5000000000000e-03  7.5000000000000e-03  0.0000000000000e+00
     181  4.5000000000000e-03  8.0000000000000e-03  0.0000000000000e+00
     182  4.5000000000000e-03  8.5000000000000e-03  0.0000000000000e+00
     183  5.0000000000000e-03  5.5000000000000e-03  0.0000000000000e+00
     184  5.0000000000000e-03  6.0000000000000e-03  0.0000000000000e+00
     185  5.0000000000000e-03  6.5000000000000e-03  0.0000000000000e+00
     186  5.0000000000000e-03  7.0000000000000e-03  0.0000000000000e+00
     187  5.0000000000000e-03  7.5000000000000e-03  0.0000000000000e+00
     188  5.0000000000000e-03  8.0000000000000e-03  0.0000000000000e+00
     189  5.0000000000000e-03  8.5000000000000e-03  0.0000000000000e+00
     190  5.5000000000000e-03  5.5000000000000e-03  0.0000000000000e+00
     191  5.5000000000000e-03  6.0000000000000e-03  0.0000000000000e+00
     192  5.5000000000000e-03  6.5000000000000e-03  0.0000000000000e+00
     193  5.5000000000000e-03  7.0000000000000e-03  0.0000000000000e+00
     194  5.5000000000000e-03  7.5000000000000e-03  0.0000000000000e+00
     195  5.5000000000000e-03  8.0000000000000e-03  0.0000000000000e+00
     196  5.5000000000000e-03  8.5000000000000e-03  0.0000000000000e+00
     197  6.0000000000000e-03  5.5000000000000e-03  0.0000000000000e+00
     198  6.0000000000000e-03  6.0000000000000e-03  0.0000000000000e+00
     199  6.0000000000000e-03  6.5000000000000e-03  0.0000000000000e+00
     200  6.0000000000000e-03  7.0000000000000e-03  0.0000000000000e+00
     201  6.0000000000000e-03  7.5000000000000e-03  0.0000000000000e+00
     202  6.0000000000000e-03  8.0000000000000e-03  0.0000000000000e+00
     203  6.0000000000000e-03  8.5000000000000e-03  0.0000000000000e+00
     204  6.5000000000000e-03  5.5000000000000e-03  0.0000000000000e+00
     205  6.5000000000000e-03  6.0000000000000e-03  0.0000000000000e+00
     206  6.5000000000000e-03  6.5000000000000e-03  0.0000000000000e+00
     207  6.5000000000000e-03  7.0000000000000e-03  0.0000000000000e+00
     208  6.5000000000000e-03  7.5000000000000e-03  0.0000000000000e+00
     209  6.5000000000000e-03  8.0000000000000e-03  0.0000000000000e+00
     210  6.5000000000000e-03  8.5000000000000e-03  0.0000000000000e+00
     211  7.0000000000000e-03  5.5000000000000e-03  0.0000000000000e+00
     212  7.0000000000000e-03  6.0000000000000e-03  0.0000000000000e+00
     213  7.0000000000000e-03  6.5000000000000e-03  0.0000000000000e+00
     214  7.0000000000000e-03  7.0000000000000e-03  0.0000000000000e+00
     215  7.0000000000000e-03  7.5000000000000e-03  0.0000000000000e+00
     216  7.0000000000000e-03  8.0000000000000e-03  0.0000000000000e+00
     217  7.0000000000000e-03  8.5000000000000e-03  0.0000000000000e+00
     218  7.5000000000000e-03  5.5000000000000e-03  0.0000000000000e+00
     219  7.5000000000000e-03  6.0000000000000e-03  0.0000000000000e+00
     220  7.5000000000000e-03  6.5000000000000e-03  0.0000000000000e+00
     221  7.5000000000000e-03  7.0000000000000e-03  0.0000000000000e+00
     222  7.5000000000000e-03  7.5000000000000e-03  0.0000000000000e+00
     223  7.5000000000000e-03  8.0000000000000e-03  0.0000000000000e+00
     224  7.5000000000000e-03  8.5000000000000e-03  0.0000000000000e+00
     225  1.3000000000000e-02  5.0000000000000e-03  0.0000000000000e+00
     226  8.5000000000000e-03  5.0000000000000e-03  0.0000000000000e+00
     227  9.0000000000000e-03  5.0000000000000e-03  0.0000000000000e+00
     228  9.5000000000000e-03  5.0000000000000e-03  0.0000000000000e+00
     229  1.0000000000000e-02  5.0000000000000e-03  0.0000000000000e+00
     230  1.0500000000000e-02  5.0000000000000e-03  0.0000000000000e+00
     231  1.1000000000000e-02  5.0000000000000e-03  0.0000000000000e+00
     232  1.1500000000000e-02  5.0000000000000e-03  0.0000000000000e+00
     233  1.2000000000000e-02  5.0000000000000e-03  0.0000000000000e+00
     234  1.2500000000000e-02  5.0000000000000e-03  0.0000000000000e+00
     235  1.3000000000000e-02  9.0000000000000e-03  0.0000000000000e+00
     236  1.3000000000000e-02  5.5000000000000e-03  0.0000000000000e+00
     237  1.3000000000000e-02  6.0000000000000e-03  0.0000000000000e+00
     238  1.3000000000000e-02  6.5000000000000e-03  0.0000000000000e+00
     239  1.3000000000000e-02  7.0000000000000e-03  0.0000000000000e+00
     240  1.3000000000000e-02  7.5000000000000e-03  0.0000000000000e+00
     241  1.3000000000000e-02  8.0000000000000e-03  0.0000000000000e+00
     242  1.3000000000000e-02  8.5000000000000e-03  0.0000000000000e+00
     243  8.5000000000000e-03  9.0000000000000e-03  0.0000000000000e+00
     244  9.0000000000000e-03  9.0000000000000e-03  0.0000000000000e+00
     245  9.5000000000000e-03  9.0000000000000e-03  0.0000000000000e+00
     246  1.0000000000000e-02  9.0000000000000e-03  0.0000000000000e+00
     247  1.0500000000000e-02  9.0000000000000e-03  0.0000000000000e+00
     248  1.1000000000000e-02  9.0000000000000e-03  0.0000000000000e+00
     249  1.1500000000000e-02  9.0000000000000e-03  0.0000000000000e+00
     250  1.2000000000000e-02  9.0000000000000e-03  0.0000000000000e+00
     251  1.2500000000000e-02  9.0000000000000e-03  0.0000000000000e+00
     252  8.5000000000000e-03  5.5000000000000e-03  0.0000000000000e+00
     253  8.5000000000000e-03  6.0000000000000e-03  0.0000000000000e+00
     254  8.5000000000000e-03  6.5000000000000e-03  0.0000000000000e+00
     255  8.5000000000000e-03  7.0000000000000e-03  0.0000000000000e+00
     256  8.5000000000000e-03  7.5000000000000e-03  0.0000000000000e+00
     257  8.5000000000000e-03  8.0000000000000e-03  0.0000000000000e+00
     258  8.5000000000000e-03  8.5000000000000e-03  0.0000000000000e+00
     259  9.0000000000000e-03  5.5000000000000e-03  0.0000000000000e+00
     260  9.0000000000000e-03  6.0000000000000e-03  0.0000000000000e+00
     261  9.0000000000000e-03  6.5000000000000e-03  0.0000000000000e+00
     262  9.0000000000000e-03  7.0000000000000e-03  0.0000000000000e+00
     263  9.0000000000000e-03  7.5000000000000e-03  0.0000000000000e+00
     264  9.0000000000000e-03  8.0000000000000e-03  0.0000000000000e+00
     265  9.0000000000000e-03  8.5000000000000e-03  0.0000000000000e+00
     266  9.5000000000000e-03  5.5000000000000e-03  0.0000000000000e+00
     267  9.5000000000000e-03  6.0000000000000e-03  0.0000000000000e+00
     268  9.5000000000000e-03  6.5000000000000e-03  0.0000000000000e+00
     269  9.5000000000000e-03  7.0000000000000e-03  0.0000000000000e+00
     270  9.5000000000000e-03  7.5000000000000e-03  0.0000000000000e+00
     271  9.5000000000000e-03  8.0000000000000e-03  0.0000000000000e+00
     272  9.5000000000000e-03  8.5000000000000e-03  0.0000000000000e+00
     273  1.0000000000000e-02  5.5000000000000e-03  0.0000000000000e+00
     274  1.0000000000000e-02  6.0000000000000e-03  0.0000000000000e+00
     275  1.0000000000000e-02  6.5000000000000e-03  0.0000000000000e+00
     276  1.0000000000000e-02  7.0000000000000e-03  0.0000000000000e+00
     277  1.0000000000000e-02  7.5000000000000e-03  0.0000000000000e+00
     278  1.0000000000000e-02  8.0000000000000e-03  0.0000000000000e+00
     279  1.0000000000000e-02  8.5000000000000e-03  0.0000000000000e+00
     280  1.0500000000000e-02  5.5000000000000e-03  0.0000000000000e+00
     281  1.0500000000000e-02  6.0000000000000e-03  0.0000000000000e+00
     282  1.0500000000000e-02  6.5000000000000e-03  0.0000000000000e+00
     283  1.0500000000000e-02  7.0000000000000e-03  0.0000000000000e+00
     284  1.0500000000000e-02  7.5000000000000e-03  0.0000000000000e+00
     285  1.0500000000000e-02  8.0000000000000e-03  0.0000000000000e+00
     286  1.0500000000000e-02  8.5000000000000e-03  0.0000000000000e+00
     287  1.1000000000000e-02  5.5000000000000e-03  0.0000000000000e+00
     288  1.1000000000000e-02  6.0000000000000e-03  0.0000000000000e+00
     289  1.1000000000000e-02  6.5000000000000e-03  0.0000000000000e+00
     290  1.1000000000000e-02  7.0000000000000e-03  0.0000000000000e+00
     291  1.1000000000000e-02  7.5000000000000e-03  0.0000000000000e+00
     292  1.1000000000000e-02  8.0000000000000e-03  0.0000000000000e+00
     293  1.1000000000000e-02  8.5000000000000e-03  0.0000000000000e+00
     294  1.1500000000000e-02  5.5000000000000e-03  0.0000000000000e+00
     295  1.1500000000000e-02  6.0000000000000e-03  0.0000000000000e+00
     296  1.1500000000000e-02  6.5000000000000e-03  0.0000000000000e+00
     297  1.1500000000000e-02  7.0000000000000e-03  0.0000000000000e+00
     298  1.1500000000000e-02  7.5000000000000e-03  0.0000000000000e+00
     299  1.1500000000000e-02  8.0000000000000e-03  0.0000000000000e+00
     300  1.1500000000000e-02  8.5000000000000e-03  0.0000000000000e+00
     301  1.2000000000000e-02  5.5000000000000e-03  0.0000000000000e+00
     302  1.2000000000000e-02  6.0000000000000e-03  0.0000000000000e+00
     303  1.2000000000000e-02  6.5000000000000e-03  0.0000000000000e+00
     304  1.2000000000000e-02  7.0000000000000e-03  0.0000000000000e+00
     305  1.2000000000000e-02  7.5000000000000e-03  0.0000000000000e+00
     306  1.2000000000000e-02  8.0000000000000e-03  0.0000000000000e+00
     307  1.2000000000000e-02  8.5000000000000e-03  0.0000000000000e+00
     308  1.2500000000000e-02  5.5000000000000e-03  0.0000000000000e+00
     309  1.2500000000000e-02  6.0000000000000e-03  0.0000000000000e+00
     310  1.2500000000000e-02  6.5000000000000e-03  0.0000000000000e+00
     311  1.2500000000000e-02  7.0000000000000e-03  0.0000000000000e+00
     312  1.2500000000000e-02  7.5000000000000e-03  0.0000000000000e+00
     313  1.2500000000000e-02  8.0000000000000e-03  0.0000000000000e+00
     314  1.2500000000000e-02  8.5000000000000e-03  0.0000000000000e+00
     315  1.3000000000000e-02  4.0000000000000e-03  0.0000000000000e+00
     316  8.0000000000000e-03  4.0000000000000e-03  0.0000000000000e+00
     317  1.2500000000000e-02  4.0000000000000e-03  0.0000000000000e+00
     318  1.2000000000000e-02  4.0000000000000e-03  0.0000000000000e+00
     319  1.1500000000000e-02  4.0000000000000e-03  0.0000000000000e+00
     320  1.1000000000000e-02  4.0000000000000e-03  0.0000000000000e+00
     321  1.0500000000000e-02  4.0000000000000e-03  0.0000000000000e+00
     322  1.0000000000000e-02  4.0000000000000e-03  0.0000000000000e+00
     323  9.5000000000000e-03  4.0000000000000e-03  0.0000000000000e+00
     324  9.0000000000000e-03  4.0000000000000e-03  0.0000000000000e+00
     325  8.5000000000000e-03  4.0000000000000e-03  0.0000000000000e+00
     326  1.3000000000000e-02  4.5000000000000e-03  0.0000000000000e+00
     327  8.0000000000000e-03  4.5000000000000e-03  0.0000000000000e+00
     328  8.5000000000000e-03  4.5000000000000e-03  0.0000000000000e+00
     329  9.0000000000000e-03  4.5000000000000e-03  0.0000000000000e+00
     330  9.5000000000000e-03  4.5000000000000e-03  0.0000000000000e+00
     331  1.0000000000000e-02  4.5000000000000e-03  0.0000000000000e+00
     332  1.0500000000000e-02  4.5000000000000e-03  0.0000000000000e+00
     333  1.1000000000000e-02  4.5000000000000e-03  0.0000000000000e+00
     334  1.1500000000000e-02  4.5000000000000e-03  0.0000000000000e+00
     335  1.2000000000000e-02  4.5000000000000e-03  0.0000000000000e+00
     336  1.2500000000000e-02  4.5000000000000e-03  0.0000000000000e+00
     337  8.0000000000000e-03  1.0000000000000e-03  0.0000000000000e+00
     338  1.3000000000000e-02  1.0000000000000e-03  0.0000000000000e+00
     339  8.5000000000000e-03  1.0000000000000e-03  0.0000000000000e+00
     340  9.0000000000000e-03  1.0000000000000e-03  0.0000000000000e+00
     341  9.5000000000000e-03  1.0000000000000e-03  0.0000000000000e+00
     342  1.0000000000000e-02  1.0000000000000e-03  0.0000000000000e+00
     343  1.0500000000000e-02  1.0000000000000e-03  0.0000000000000e+00
     344  1.1000000000000e-02  1.0000000000000e-03  0.0000000000000e+00
     345  1.1500000000000e-02  1.0000000000000e-03  0.0000000000000e+00
     346  1.2000000000000e-02  1.0000000000000e-03  0.0000000000000e+00
     347  1.2500000000000e-02  1.0000000000000e-03  0.0000000000000e+00
     348  1.3000000000000e-02  1.5000000000000e-03  0.0000000000000e+00
     349  1.3000000000000e-02  2.0000000000000e-03  0.0000000000000e+00
     350  1.3000000000000e-02  2.5000000000000e-03  0.0000000000000e+00
     351  1.3000000000000e-02  3.0000000000000e-03  0.0000000000000e+00
     352  1.3000000000000e-02  3.5000000000000e-03  0.0000000000000e+00
     353  8.0000000000000e-03  1.5000000000000e-03  0.0000000000000e+00
     354  8.0000000000000e-03  2.0000000000000e-03  0.0000000000000e+00
     355  8.0000000000000e-03  2.5000000000000e-03  0.0000000000000e+00
     356  8.0000000000000e-03  3.0000000000000e-03  0.0000000000000e+00
     357  8.0000000000000e-03  3.5000000000000e-03  0.0000000000000e+00
     358  8.5000000000000e-03  1.5000000000000e-03  0.0000000000000e+00
     359  8.5000000000000e-03  2.0000000000000e-03  0.0000000000000e+00
     360  8.5000000000000e-03  2.5000000000000e-03  0.0000000000000e+00
     361  8.5000000000000e-03  3.0000000000000e-03  0.0000000000000e+00
     362  8.5000000000000e-03  3.5000000000000e-03  0.0000000000000e+00
     363  9.0000000000000e-03  1.5000000000000e-03  0.0000000000000e+00
     364  9.0000000000000e-03  2.0000000000000e-03  0.0000000000000e+00
     365  9.0000000000000e-03  2.5000000000000e-03  0.0000000000000e+00
     366  9.0000000000000e-03  3.0000000000000e-03  0.0000000000000e+00
     367  9.0000000000000e-03  3.5000000000000e-03  0.0000000000000e+00
     368  9.5000000000000e-03  1.5000000000000e-03  0.0000000000000e+00
     369  9.5000000000000e-03  2.0000000000000e-03  0.0000000000000e+00
     370  9.5000000000000e-03  2.5000000000000e-03  0.0000000000000e+00
     371  9.5000000000000e-03  3.0000000000000e-03  0.0000000000000e+00
     372  9.5000000000000e-03  3.5000000000000e-03  0.0000000000000e+00
     373  1.0000000000000e-02  1.5000000000000e-03  0.0000000000000e+00
     374  1.0000000000000e-02  2.0000000000000e-03  0.0000000000000e+00
     375  1.0000000000000e-02  2.5000000000000e-03  0.0000000000000e+00
     376  1.0000000000000e-02  3.0000000000000e-03  0.0000000000000e+00
     377  1.0000000000000e-02  3.5000000000000e-03  0.0000000000000e+00
     378  1.0500000000000e-02  1.5000000000000e-03  0.0000000000000e+00
     379  1.0500000000000e-02  2.0000000000000e-03  0.0000000000000e+00
     380  1.0500000000000e-02  2.5000000000000e-03  0.0000000000000e+00
     381  1.0500000000000e-02  3.0000000000000e-03  0.0000000000000e+00
     382  1.0500000000000e-02  3.5000000000000e-03  0.0000000000000e+00
     383  1.1000000000000e-02  1.5000000000000e-03  0.0000000000000e+00
     384  1.1000000000000e-02  2.0000000000000e-03  0.0000000000000e+00
     385  1.1000000000000e-02  2.5000000000000e-03  0.0000000000000e+00
     386  1.1000000000000e-02  3.0000000000000e-03  0.0000000000000e+00
     387  1.1000000000000e-02  3.5000000000000e-03  0.0000000000000e+00
     388  1.1500000000000e-02  1.5000000000000e-03  0.0000000000000e+00
     389  1.1500000000000e-02  2.0000000000000e-03  0.0000000000000e+00
     390  1.1500000000000e-02  2.5000000000000e-03  0.0000000000000e+00
     391  1.1500000000000e-02  3.0000000000000e-03  0.0000000000000e+00
     392  1.1500000000000e-02  3.5000000000000e-03  0.0000000000000e+00
     393  1.2000000000000e-02  1.5000000000000e-03  0.0000000000000e+00
     394  1.2000000000000e-02  2.0000000000000e-03  0.0000000000000e+00
     395  1.2000000000000e-02  2.5000000000000e-03  0.0000000000000e+00
     396  1.2000000000000e-02  3.0000000000000e-03  0.0000000000000e+00
     397  1.2000000000000e-02  3.5000000000000e-03  0.0000000000000e+00
     398  1.2500000000000e-02  1.5000000000000e-03  0.0000000000000e+00
     399  1.2500000000000e-02  2.0000000000000e-03  0.0000000000000e+00
     400  1.2500000000000e-02  2.5000000000000e-03  0.0000000000000e+00
     401  1.2500000000000e-02  3.0000000000000e-03  0.0000000000000e+00
     402  1.2500000000000e-02  3.5000000000000e-03  0.0000000000000e+00
     403  1.3000000000000e-02  1.4000000000000e-02  0.0000000000000e+00
     404  1.3000000000000e-02  9.5000000000000e-03  0.0000000000000e+00
     405  1.3000000000000e-02  1.0000000000000e-02  0.0000000000000e+00
     406  1.3000000000000e-02  1.0500000000000e-02  0.0000000000000e+00
     407  1.3000000000000e-02  1.1000000000000e-02  0.0000000000000e+00
     408  1.3000000000000e-02  1.1500000000000e-02  0.0000000000000e+00
     409  1.3000000000000e-02  1.2000000000000e-02  0.0000000000000e+00
     410  1.3000000000000e-02  1.2500000000000e-02  0.0000000000000e+00
     411  1.3000000000000e-02  1.3000000000000e-02  0.0000000000000e+00
     412  1.3000000000000e-02  1.3500000000000e-02  0.0000000000000e+00
     413  8.0000000000000e-03  1.4000000000000e-02  0.0000000000000e+00
     414  1.2500000000000e-02  1.4000000000000e-02  0.0000000000000e+00
     415  1.2000000000000e-02  1.4000000000000e-02  0.0000000000000e+00
     416  1.1500000000000e-02  1.4000000000000e-02  0.0000000000000e+00
     417  1.1000000000000e-02  1.4000000000000e-02  0.0000000000000e+00
     418  1.0500000000000e-02  1.4000000000000e-02  0.0000000000000e+00
     419  1.0000000000000e-02  1.4000000000000e-02  0.0000000000000e+00
     420  9.5000000000000e-03  1.4000000000000e-02  0.0000000000000e+00
     421  9.0000000000000e-03  1.4000000000000e-02  0.0000000000000e+00
     422  8.5000000000000e-03  1.4000000000000e-02  0.0000000000000e+00
     423  8.0000000000000e-03  9.5000000000000e-03  0.0000000000000e+00
     424  8.0000000000000e-03  1.0000000000000e-02  0.0000000000000e+00
     425  8.0000000000000e-03  1.0500000000000e-02  0.0000000000000e+00
     426  8.0000000000000e-03  1.1000000000000e-02  0.0000000000000e+00
     427  8.0000000000000e-03  1.1500000000000e-02  0.0000000000000e+00
     428  8.0000000000000e-03  1.2000000000000e-02  0.0000000000000e+00
     429  8.0000000000000e-03  1.2500000000000e-02  0.0000000000000e+00
     430  8.0000000000000e-03  1.3000000000000e-02  0.0000000000000e+00
     431  8.0000000000000e-03  1.3500000000000e-02  0.0000000000000e+00
     432  8.5000000000000e-03  9.5000000000000e-03  0.0000000000000e+00
     433  8.5000000000000e-03  1.0000000000000e-02  0.0000000000000e+00
     434  8.5000000000000e-03  1.0500000000000e-02  0.0000000000000e+00
     435  8.5000000000000e-03  1.1000000000000e-02  0.0000000000000e+00
     436  8.5000000000000e-03  1.1500000000000e-02  0.0000000000000e+00
     437  8.5000000000000e-03  1.2000000000000e-02  0.0000000000000e+00
     438  8.5000000000000e-03  1.2500000000000e-02  0.0000000000000e+00
     439  8.5000000000000e-03  1.3000000000000e-02  0.0000000000000e+00
     440  8.5000000000000e-03  1.3500000000000e-02  0.0000000000000e+00
     441  9.0000000000000e-03  9.5000000000000e-03  0.0000000000000e+00
     442  9.0000000000000e-03  1.0000000000000e-02  0.0000000000000e+00
     443  9.0000000000000e-03  1.0500000000000e-02  0.0000000000000e+00
     444  9.0000000000000e-03  1.1000000000000e-02  0.0000000000000e+00
     445  9.0000000000000e-03  1.1500000000000e-02  0.0000000000000e+00
     446  9.0000000000000e-03  1.2000000000000e-02  0.0000000000000e+00
     447  9.0000000000000e-03  1.2500000000000e-02  0.0000000000000e+00
     448  9.0000000000000e-03  1.3000000000000e-02  0.0000000000000e+00
     449  9.0000000000000e-03  1.3500000000000e-02  0.0000000000000e+00
     450  9.5000000000000e-03  9.5000000000000e-03  0.0000000000000e+00
     451  9.5000000000000e-03  1.0000000000000e-02  0.0000000000000e+00
     452  9.5000000000000e-03  1.0500000000000e-02  0.0000000000000e+00
     453  9.5000000000000e-03  1.1000000000000e-02  0.0000000000000e+00
     454  9.5000000000000e-03  1.1500000000000e-02  0.0000000000000e+00
     455  9.5000000000000e-03  1.2000000000000e-02  0.0000000000000e+00
     456  9.5000000000000e-03  1.2500000000000e-02  0.0000000000000e+00
     457  9.5000000000000e-03  1.3000000000000e-02  0.0000000000000e+00
     458  9.5000000000000e-03  1.3500000000000e-02  0.0000000000000e+00
     459  1.0000000000000e-02  9.5000000000000e-03  0.0000000000000e+00
     460  1.0000000000000e-02  1.0000000000000e-02  0.0000000000000e+00
     461  1.0000000000000e-02  1.0500000000000e-02  0.0000000000000e+00
     462  1.0000000000000e-02  1.1000000000000e-02  0.0000000000000e+00
     463  1.0000000000000e-02  1.1500000000000e-02  0.0000000000000e+00
     464  1.0000000000000e-02  1.2000000000000e-02  0.0000000000000e+00
     465  1.0000000000000e-02  1.2500000000000e-02  0.0000000000000e+00
     466  1.0000000000000e-02  1.3000000000000e-02  0.0000000000000e+00
     467  1.0000000000000e-02  1.3500000000000e-02  0.0000000000000e+00
     468  1.0500000000000e-02  9.5000000000000e-03  0.0000000000000e+00
     469  1.0500000000000e-02  1.0000000000000e-02  0.0000000000000e+00
     470  1.0500000000000e-02  1.0500000000000e-02  0.0000000000000e+00
     471  1.0500000000000e-02  1.1000000000000e-02  0.0000000000000e+00
     472  1.0500000000000e-02  1.1500000000000e-02  0.0000000000000e+00
     473  1.0500000000000e-02  1.2000000000000e-02  0.0000000000000e+00
     474  1.0500000000000e-02  1.2500000000000e-02  0.0000000000000e+00
     475  1.0500000000000e-02  1.3000000000000e-02  0.0000000000000e+00
     476  1.0500000000000e-02  1.3500000000000e-02  0.0000000000000e+00
     477  1.1000000000000e-02  9.5000000000000e-03  0.0000000000000e+00
     478  1.1000000000000e-02  1.0000000000000e-02  0.0000000000000e+00
     479  1.1000000000000e-02  1.0500000000000e-02  0.0000000000000e+00
     480  1.1000000000000e-02  1.1000000000000e-02  0.0000000000000e+00
     481  1.1000000000000e-02  1.1500000000000e-02  0.0000000000000e+00
     482  1.1000000000000e-02  1.2000000000000e-02  0.0000000000000e+00
     483  1.1000000000000e-02  1.2500000000000e-02  0.0000000000000e+00
     484  1.1000000000000e-02  1.3000000000000e-02  0.0000000000000e+00
     485  1.1000000000000e-02  1.3500000000000e-02  0.0000000000000e+00
     486  1.1500000000000e-02  9.5000000000000e-03  0.0000000000000e+00
     487  1.1500000000000e-02  1.0000000000000e-02  0.0000000000000e+00
     488  1.1500000000000e-02  1.0500000000000e-02  0.0000000000000e+00
     489  1.1500000000000e-02  1.1000000000000e-02  0.0000000000000e+00
     490  1.1500000000000e-02  1.1500000000000e-02  0.0000000000000e+00
     491  1.1500000000000e-02  1.2000000000000e-02  0.0000000000000e+00
     492  1.1500000000000e-02  1.2500000000000e-02  0.0000000000000e+00
     493  1.1500000000000e-02  1.3000000000000e-02  0.0000000000000e+00
     494  1.1500000000000e-02  1.3500000000000e-02  0.0000000000000e+00
     495  1.2000000000000e-02  9.5000000000000e-03  0.0000000000000e+00
     496  1.2000000000000e-02  1.0000000000000e-02  0.0000000000000e+00
     497  1.2000000000000e-02  1.0500000000000e-02  0.0000000000000e+00
     498  1.2000000000000e-02  1.1000000000000e-02  0.0000000000000e+00
     499  1.2000000000000e-02  1.1500000000000e-02  0.0000000000000e+00
     500  1.2000000000000e-02  1.2000000000000e-02  0.0000000000000e+00
     501  1.2000000000000e-02  1.2500000000000e-02  0.0000000000000e+00
     502  1.2000000000000e-02  1.3000000000000e-02  0.0000000000000e+00
     503  1.2000000000000e-02  1.3500000000000e-02  0.0000000000000e+00
     504  1.2500000000000e-02  9.5000000000000e-03  0.0000000000000e+00
     505  1.2500000000000e-02  1.0000000000000e-02  0.0000000000000e+00
     506  1.2500000000000e-02  1.0500000000000e-02  0.0000000000000e+00
     507  1.2500000000000e-02  1.1000000000000e-02  0.0000000000000e+00
     508  1.2500000000000e-02  1.1500000000000e-02  0.0000000000000e+00
     509  1.2500000000000e-02  1.2000000000000e-02  0.0000000000000e+00
     510  1.2500000000000e-02  1.2500000000000e-02  0.0000000000000e+00
     511  1.2500000000000e-02  1.3000000000000e-02  0.0000000000000e+00
     512  1.2500000000000e-02  1.3500000000000e-02  0.0000000000000e+00
     513  5.0000000000000e-03  1.0000000000000e-03  0.0000000000000e+00
     514  4.5000000000000e-03  1.0000000000000e-03  0.0000000000000e+00
     515  3.0000000000000e-03  5.0000000000000e-03  0.0000000000000e+00
     516  3.0000000000000e-03  4.5000000000000e-03  0.0000000000000e+00
     517  1.0000000000000e-03  5.0000000000000e-03  0.0000000000000e+00
     518  1.5000000000000e-03  5.0000000000000e-03  0.0000000000000e+00
     519  2.0000000000000e-03  5.0000000000000e-03  0.0000000000000e+00
     520  2.5000000000000e-03  5.0000000000000e-03  0.0000000000000e+00
     521  1.0000000000000e-03  4.5000000000000e-03  0.0000000000000e+00
     522  1.5000000000000e-03  4.5000000000000e-03  0.0000000000000e+00
     523  2.0000000000000e-03  4.5000000000000e-03  0.0000000000000e+00
     524  2.5000000000000e-03  4.5000000000000e-03  0.0000000000000e+00
     525  4.0000000000000e-03  1.0000000000000e-03  0.0000000000000e+00
     526  3.5000000000000e-03  1.0000000000000e-03  0.0000000000000e+00
     527  4.0000000000000e-03  1.5000000000000e-03  0.0000000000000e+00
     528  4.0000000000000e-03  2.0000000000000e-03  0.0000000000000e+00
     529  4.0000000000000e-03  2.5000000000000e-03  0.0000000000000e+00
     530  4.0000000000000e-03  3.0000000000000e-03  0.0000000000000e+00
     531  4.0000000000000e-03  3.5000000000000e-03  0.0000000000000e+00
     532  4.0000000000000e-03  4.0000000000000e-03  0.0000000000000e+00
     533  4.0000000000000e-03  4.5000000000000e-03  0.0000000000000e+00
     534  3.5000000000000e-03  5.0000000000000e-03  0.0000000000000e+00
     535  3.5000000125590e-03  1.5006898539740e-03  0.0000000000000e+00
     536  3.5000090232930e-03  2.4988617009770e-03  0.0000000000000e+00
     537  3.5000013017290e-03  2.9988041971960e-03  0.0000000000000e+00
     538  3.5000161117000e-03  3.4963550878070e-03  0.0000000000000e+00
     539  3.5000125621880e-03  3.9927329632150e-03  0.0000000000000e+00
     540  3.5000092157860e-03  4.4945184320570e-03  0.0000000000000e+00
     541  3.5000421030920e-03  2.0027594158950e-03  0.0000000000000e+00
     542  5.5000000000000e-03  1.0000000000000e-03  0.0000000000000e+00
     543  6.0000000000000e-03  1.0000000000000e-03  0.0000000000000e+00
     544  6.5000000000000e-03  1.0000000000000e-03  0.0000000000000e+00
     545  7.0000000000000e-03  1.0000000000000e-03  0.0000000000000e+00
     546  7.5000000000000e-03  1.0000000000000e-03  0.0000000000000e+00
     547  1.0000000000000e-03  9.0000000000000e-03  0.0000000000000e+00
     548  1.5000000000000e-03  9.0000000000000e-03  0.0000000000000e+00
     549  2.0000000000000e-03  9.0000000000000e-03  0.0000000000000e+00
     550  2.5000000000000e-03  9.0000000000000e-03  0.0000000000000e+00
     551  3.0000000000000e-03  9.0000000000000e-03  0.0000000000000e+00
     552  3.5000000000000e-03  9.0000000000000e-03  0.0000000000000e+00
     553  1.9980451758680e-03  6.9858758232410e-03  0.0000000000000e+00
     554  2.4969131454920e-03  6.9937718985930e-03  0.0000000000000e+00
     555  1.9968070492660e-03  6.4892161866210e-03  0.0000000000000e+00
     556  2.4963902415020e-03  6.4932038736590e-03  0.0000000000000e+00
     557  1.9998879964800e-03  7.4851609129760e-03  0.0000000000000e+00
     558  2.4935232835980e-03  7.4980579436340e-03  0.0000000000000e+00
     559  1.4969673811850e-03  6.4892811959770e-03  0.0000000000000e+00
     560  1.5004958893240e-03  6.9842239371210e-03  0.0000000000000e+00
     561  1.5023169833950e-03  7.4827529532360e-03  0.0000000000000e+00
     562  2.9964318354960e-03  6.5012660724110e-03  0.0000000000000e+00
     563  2.9948769920050e-03  7.0042665850930e-03  0.0000000000000e+00
     564  2.9914715789270e-03  7.5022036583560e-03  0.0000000000000e+00
     565  1.4945744607030e-03  5.9912374686090e-03  0.0000000000000e+00
     566  1.9980768851600e-03  5.9947776692270e-03  0.0000000000000e+00
     567  2.4994222830620e-03  5.9975108811270e-03  0.0000000000000e+00
     568  2.9960613994430e-03  6.0033767431340e-03  0.0000000000000e+00
     569  1.5027656315370e-03  7.9872632695760e-03  0.0000000000000e+00
     570  2.4921672684940e-03  7.9979336686460e-03  0.0000000000000e+00
     571  2.9938937300010e-03  8.0013125815210e-03  0.0000000000000e+00
     572  9.9954804246160e-04  5.4970853530520e-03  0.0000000000000e+00
     573  9.9560417355740e-04  5.9941295572570e-03  0.0000000000000e+00
     574  9.9674406568510e-04  6.4904871852630e-03  0.0000000000000e+00
     575  9.9964856466170e-04  6.9905411228120e-03  0.0000000000000e+00
     576  1.0011765908810e-03  7.4919982108240e-03  0.0000000000000e+00
     577  1.0046921007430e-03  7.9911320751790e-03  0.0000000000000e+00
     578  3.4945409078100e-03  5.5049207590790e-03  0.0000000000000e+00
     579  3.4961903270820e-03  6.0045868429550e-03  0.0000000000000e+00
     580  3.4910283894210e-03  6.5075900246200e-03  0.0000000000000e+00
     581  3.4894095753420e-03  7.0074258632500e-03  0.0000000000000e+00
     582  3.4937655615080e-03  7.5069249063010e-03  0.0000000000000e+00
     583  3.4951133261320e-03  7.9991594656190e-03  0.0000000000000e+00
     584  1.5030979000220e-03  5.4976841026910e-03  0.0000000000000e+00
     585  1.9997957580880e-03  5.5011552791570e-03  0.0000000000000e+00
     586  2.4992369471510e-03  5.4995801140650e-03  0.0000000000000e+00
     587  2.9967519208020e-03  5.5032997844250e-03  0.0000000000000e+00
     588  1.0025070715010e-03  8.4947973056570e-03  0.0000000000000e+00
     589  1.5034569155170e-03  8.4950590484240e-03  0.0000000000000e+00
     590  1.9980005646830e-03  8.4995537125780e-03  0.0000000000000e+00
     591  2.4964265043320e-03  8.5016059824630e-03  0.0000000000000e+00
     592  2.9966815111920e-03  8.4997811664290e-03  0.0000000000000e+00
     593  3.4969938041910e-03  8.5022590602170e-03  0.0000000000000e+00
     594  1.9991071973850e-03  7.9901940443630e-03  0.0000000000000e+00
     595  7.5000000000000e-03  1.4000000000000e-02  0.0000000000000e+00
     596  7.0000000000000e-03  1.4000000000000e-02  0.0000000000000e+00
     597  6.5000000000000e-03  1.4000000000000e-02  0.0000000000000e+00
     598  6.0000000000000e-03  1.4000000000000e-02  0.0000000000000e+00
     599  5.5000000000000e-03  1.4000000000000e-02  0.0000000000000e+00
     600  5.0000000000000e-03  1.4000000000000e-02  0.0000000000000e+00
     601  4.5000000000000e-03  1.4000000000000e-02  0.0000000000000e+00
     602  4.0000000000000e-03  1.4000000000000e-02  0.0000000000000e+00
     603  3.5000000000000e-03  1.4000000000000e-02  0.0000000000000e+00
     604  3.0000000000000e-03  1.4000000000000e-02  0.0000000000000e+00
     605  2.5000000000000e-03  1.4000000000000e-02  0.0000000000000e+00
     606  2.0000000000000e-03  1.4000000000000e-02  0.0000000000000e+00
     607  1.5000000000000e-03  1.4000000000000e-02  0.0000000000000e+00
     608  1.0000000000000e-03  1.4000000000000e-02  0.0000000000000e+00
     609  5.0383970085710e-03  1.1506203686110e-02  0.0000000000000e+00
     610  5.5283265041960e-03  1.1513113845270e-02  0.0000000000000e+00
     611  3.5345149917180e-03  1.1486109241370e-02  0.0000000000000e+00
     612  4.5363936346250e-03  1.1498982339710e-02  0.0000000000000e+00
     613  3.0342569325420e-03  1.1483346745800e-02  0.0000000000000e+00
     614  2.0334492943960e-03  1.0985864611020e-02  0.0000000000000e+00
     615  2.0289729958150e-03  1.1479384317730e-02  0.0000000000000e+00
     616  2.0225098019870e-03  1.1971863600240e-02  0.0000000000000e+00
     617  4.5495284284330e-03  1.0513991143040e-02  0.0000000000000e+00
     618  5.0474749920660e-03  1.0516262964420e-02  0.0000000000000e+00
     619  5.5422174088420e-03  1.0520489530490e-02  0.0000000000000e+00
     620  6.0308490276540e-03  1.0519707604050e-02  0.0000000000000e+00
     621  6.5235418158400e-03  1.0520040463750e-02  0.0000000000000e+00
     622  6.5213950998610e-03  1.1022578919990e-02  0.0000000000000e+00
     623  6.5130782894800e-03  1.1520547105890e-02  0.0000000000000e+00
     624  6.5022622188640e-03  1.2013360689680e-02  0.0000000000000e+00
     625  2.0347687417250e-03  1.0492218884300e-02  0.0000000000000e+00
     626  2.5400466104200e-03  1.0495867420620e-02  0.0000000000000e+00
     627  3.0430988843540e-03  1.0499302985940e-02  0.0000000000000e+00
     628  3.5502307568790e-03  1.0508654759010e-02  0.0000000000000e+00
     629  4.0562902282740e-03  1.0514874657480e-02  0.0000000000000e+00
     630  6.4933521031650e-03  1.2504322672850e-02  0.0000000000000e+00
     631  5.9954910642240e-03  1.2502304781590e-02  0.0000000000000e+00
     632  5.4949822081930e-03  1.2496803602140e-02  0.0000000000000e+00
     633  4.9986140846030e-03  1.2494110111470e-02  0.0000000000000e+00
     634  4.4993334880180e-03  1.2483754453770e-02  0.0000000000000e+00
     635  4.0025451726020e-03  1.2481890937280e-02  0.0000000000000e+00
     636  3.5012103662190e-03  1.2478911167580e-02  0.0000000000000e+00
     637  3.0002263541460e-03  1.2471524804840e-02  0.0000000000000e+00
     638  2.5052073050180e-03  1.2474512148390e-02  0.0000000000000e+00
     639  2.0115354515810e-03  1.2474879935670e-02  0.0000000000000e+00
     640  1.5273942849230e-03  1.0490931275030e-02  0.0000000000000e+00
     641  1.5270793935350e-03  1.0984881319070e-02  0.0000000000000e+00
     642  1.5241861011540e-03  1.1479252081800e-02  0.0000000000000e+00
     643  1.5128810547970e-03  1.1976279482740e-02  0.0000000000000e+00
     644  1.5117258384780e-03  1.2477393524580e-02  0.0000000000000e+00
     645  4.5446528135270e-03  1.0018243115550e-02  0.0000000000000e+00
     646  5.0385742119520e-03  1.0017731167950e-02  0.0000000000000e+00
     647  5.5325783240810e-03  1.0018448613970e-02  0.0000000000000e+00
     648  6.0263595812810e-03  1.0020290146130e-02  0.0000000000000e+00
     649  6.5186621762580e-03  1.0017698410370e-02  0.0000000000000e+00
     650  7.0107459821050e-03  1.0014512754240e-02  0.0000000000000e+00
     651  7.0153160253260e-03  1.0521841978800e-02  0.0000000000000e+00
     652  7.0138508438620e-03  1.1024715059290e-02  0.0000000000000e+00
     653  7.0066317487410e-03  1.1519234359020e-02  0.0000000000000e+00
     654  7.0007013814090e-03  1.2012036287840e-02  0.0000000000000e+00
     655  6.9927837233270e-03  1.2503113954510e-02  0.0000000000000e+00
     656  1.5198634329300e-03  9.9963604921050e-03  0.0000000000000e+00
     657  2.0265725034880e-03  9.9966459723460e-03  0.0000000000000e+00
     658  2.5342767251680e-03  1.0001975004960e-02  0.0000000000000e+00
     659  3.0364246173550e-03  1.0005270928140e-02  0.0000000000000e+00
     660  3.5406882073400e-03  1.0009837625890e-02  0.0000000000000e+00
     661  4.0438598001570e-03  1.0014341900420e-02  0.0000000000000e+00
     662  6.9940356811620e-03  1.2994981050400e-02  0.0000000000000e+00
     663  6.4907666039990e-03  1.2993808108050e-02  0.0000000000000e+00
     664  5.9878525523650e-03  1.2992578576100e-02  0.0000000000000e+00
     665  5.4889076233290e-03  1.2992439317860e-02  0.0000000000000e+00
     666  4.9913395178670e-03  1.2990590224290e-02  0.0000000000000e+00
     667  4.4908811955740e-03  1.2987092267790e-02  0.0000000000000e+00
     668  3.9949251895210e-03  1.2986577701780e-02  0.0000000000000e+00
     669  3.4946895461420e-03  1.2983353847260e-02  0.0000000000000e+00
     670  2.9955909821870e-03  1.2985201289000e-02  0.0000000000000e+00
     671  2.5046220261670e-03  1.2982569594100e-02  0.0000000000000e+00
     672  2.0074357768270e-03  1.2982179352730e-02  0.0000000000000e+00
     673  1.5100527512170e-03  1.2984027643330e-02  0.0000000000000e+00
     674  1.0117346026280e-03  9.9959899769430e-03  0.0000000000000e+00
     675  1.0148440757330e-03  1.0497868019570e-02  0.0000000000000e+00
     676  1.0166886592380e-03  1.0989940862770e-02  0.0000000000000e+00
     677  1.0102092865570e-03  1.1486366265360e-02  0.0000000000000e+00
     678  1.0097838361740e-03  1.1986317872300e-02  0.0000000000000e+00
     679  1.0064282713770e-03  1.2487172474430e-02  0.0000000000000e+00
     680  1.0141061056930e-03  1.2985774815030e-02  0.0000000000000e+00
     681  1.0097890639890e-03  1.3491185033020e-02  0.0000000000000e+00
     682  4.0249213772860e-03  9.5128759867980e-03  0.0000000000000e+00
     683  4.5253245982490e-03  9.5137077550700e-03  0.0000000000000e+00
     684  5.0217162268660e-03  9.5113679512080e-03  0.0000000000000e+00
     685  5.5187356295590e-03  9.5128821632540e-03  0.0000000000000e+00
     686  6.0132504083230e-03  9.5097908771590e-03  0.0000000000000e+00
     687  6.5097651313750e-03  9.5104135400500e-03  0.0000000000000e+00
     688  7.0054300745000e-03  9.5087850112730e-03  0.0000000000000e+00
     689  7.5044725649530e-03  1.0007870182460e-02  0.0000000000000e+00
     690  7.5070964585430e-03  1.0514097555810e-02  0.0000000000000e+00
     691  7.5072511396880e-03  1.1019012940770e-02  0.0000000000000e+00
     692  7.5026106428090e-03  1.1513317197280e-02  0.0000000000000e+00
     693  7.4959970612900e-03  1.2007726758370e-02  0.0000000000000e+00
     694  7.4977706840770e-03  1.2502322230960e-02  0.0000000000000e+00
     695  7.4979153663680e-03  1.2998029622270e-02  0.0000000000000e+00
     696  7.5014514237940e-03  1.3498784186640e-02  0.0000000000000e+00
     697  1.0058993897320e-03  9.4994059278730e-03  0.0000000000000e+00
     698  1.5141607976730e-03  9.4981343058590e-03  0.0000000000000e+00
     699  2.0178309080880e-03  9.4992907965720e-03  0.0000000000000e+00
     700  2.5230275655920e-03  9.5033212787140e-03  0.0000000000000e+00
     701  3.0235904934520e-03  9.5059680172130e-03  0.0000000000000e+00
     702  3.5253247536370e-03  9.5104408832870e-03  0.0000000000000e+00
     703  6.9961718151670e-03  1.3490661703020e-02  0.0000000000000e+00
     704  6.4941655778050e-03  1.3488133985520e-02  0.0000000000000e+00
     705  5.9927214622770e-03  1.3486488846400e-02  0.0000000000000e+00
     706  5.4908299742520e-03  1.3489331334340e-02  0.0000000000000e+00
     707  4.9921608941920e-03  1.3492748391690e-02  0.0000000000000e+00
     708  4.4935150872440e-03  1.3491409057870e-02  0.0000000000000e+00
     709  3.9953489910490e-03  1.3491655145210e-02  0.0000000000000e+00
     710  3.4971151435850e-03  1.3492434773840e-02  0.0000000000000e+00
     711  2.9987638001930e-03  1.3492259342560e-02  0.0000000000000e+00
     712  2.5008366844520e-03  1.3487840745350e-02  0.0000000000000e+00
     713  2.0043337801130e-03  1.3489599921420e-02  0.0000000000000e+00
     714  1.5099192331180e-03  1.3490017411290e-02  0.0000000000000e+00
     715  7.5018047264110e-03  9.5045504565370e-03  0.0000000000000e+00
     716  2.5223517199740e-03  1.1973637202960e-02  0.0000000000000e+00
     717  3.0177611058550e-03  1.1975372539140e-02  0.0000000000000e+00
     718  3.5172214595320e-03  1.1980645923460e-02  0.0000000000000e+00
     719  4.0178331204030e-03  1.1979650221110e-02  0.0000000000000e+00
     720  4.5179218343940e-03  1.1987768755200e-02  0.0000000000000e+00
     721  5.0155804211900e-03  1.1998215574640e-02  0.0000000000000e+00
     722  5.5090923709830e-03  1.2005083541600e-02  0.0000000000000e+00
     723  6.0045090184020e-03  1.2012231313430e-02  0.0000000000000e+00
     724  4.5489058202000e-03  1.1007242305330e-02  0.0000000000000e+00
     725  4.0500658479540e-03  1.1002949533810e-02  0.0000000000000e+00
     726  3.5447356745680e-03  1.0996544557540e-02  0.0000000000000e+00
     727  3.0395964907020e-03  1.0991608209510e-02  0.0000000000000e+00
     728  2.5376419402360e-03  1.0987653206900e-02  0.0000000000000e+00
     729  6.0212589374240e-03  1.1519644382770e-02  0.0000000000000e+00
     730  6.0318397853620e-03  1.1021522413590e-02  0.0000000000000e+00
     731  5.5398211464490e-03  1.1017597710870e-02  0.0000000000000e+00
     732  5.0515451395170e-03  1.1015626473700e-02  0.0000000000000e+00
     733  2.5305442101410e-03  1.1479935218830e-02  0.0000000000000e+00
     734  4.0381919018570e-03  1.1489693334940e-02  0.0000000000000e+00
     735  6.0083399544610e-03  2.9934013210110e-03  0.0000000000000e+00
     736  5.5155755420550e-03  2.4875618233280e-03  0.0000000000000e+00
     737  5.5176598411170e-03  2.9845828107110e-03  0.0000000000000e+00
     738  5.5156336500540e-03  3.4880046259190e-03  0.0000000000000e+00
     739  6.0036453057290e-03  3.4962002223430e-03  0.0000000000000e+00
     740  6.4976310604790e-03  2.5032504628570e-03  0.0000000000000e+00
     741  6.4934951516290e-03  3.0026782911170e-03  0.0000000000000e+00
     742  6.4920492664400e-03  3.5018381987500e-03  0.0000000000000e+00
     743  6.0093891874450e-03  2.4929736619430e-03  0.0000000000000e+00
     744  5.0128742586260e-03  2.4896644144550e-03  0.0000000000000e+00
     745  5.0147804063270e-03  2.9865441414660e-03  0.0000000000000e+00
     746  5.0142508022210e-03  3.4857857614340e-03  0.0000000000000e+00
     747  5.0091225900930e-03  3.9900007727710e-03  0.0000000000000e+00
     748  5.5090719685480e-03  3.9926990308960e-03  0.0000000000000e+00
     749  6.0008178576530e-03  3.9998246527260e-03  0.0000000000000e+00
     750  6.4891331699390e-03  3.9960974976130e-03  0.0000000000000e+00
     751  6.9944605962750e-03  2.5050467079200e-03  0.0000000000000e+00
     752  6.9928983627500e-03  3.0029005273480e-03  0.0000000000000e+00
     753  6.9883409970730e-03  3.4997284679430e-03  0.0000000000000e+00
     754  6.9927236218160e-03  3.9989581963410e-03  0.0000000000000e+00
     755  5.0123025479790e-03  1.9919145351300e-03  0.0000000000000e+00
     756  5.5099957383450e-03  1.9924842116360e-03  0.0000000000000e+00
     757  6.0076353461870e-03  1.9955960173900e-03  0.0000000000000e+00
     758  6.5024974673530e-03  2.0015154981900e-03  0.0000000000000e+00
     759  6.9969103025680e-03  2.0060784275030e-03  0.0000000000000e+00
     760  4.5054056844380e-03  1.9963926280060e-03  0.0000000000000e+00
     761  4.5093098736780e-03  2.4938687486800e-03  0.0000000000000e+00
     762  4.5068413981930e-03  2.9934169851990e-03  0.0000000000000e+00
     763  4.5072676606320e-03  3.4917060677550e-03  0.0000000000000e+00
     764  4.5053688755090e-03  3.9929990314390e-03  0.0000000000000e+00
     765  4.5049604246340e-03  4.4926649434500e-03  0.0000000000000e+00
     766  5.0067166751380e-03  4.4931769894090e-03  0.0000000000000e+00
     767  5.5018269068850e-03  4.4954683235230e-03  0.0000000000000e+00
     768  5.9992357472340e-03  4.5020964923470e-03  0.0000000000000e+00
     769  6.4944744820350e-03  4.4999598017900e-03  0.0000000000000e+00
     770  6.9924680597920e-03  4.4962766609530e-03  0.0000000000000e+00
     771  7.4949279874770e-03  4.4980506175090e-03  0.0000000000000e+00
     772  7.4967464972780e-03  1.5048830268610e-03  0.0000000000000e+00
     773  7.4981387534280e-03  2.0037245129950e-03  0.0000000000000e+00
     774  7.4938082789950e-03  2.5054158080180e-03  0.0000000000000e+00
     775  7.4964088481520e-03  3.0024316914530e-03  0.0000000000000e+00
     776  7.4936947641330e-03  3.5004280332330e-03  0.0000000000000e+00
     777  5.0082321061820e-03  1.4945821177140e-03  0.0000000000000e+00
     778  5.5082045325210e-03  1.4961559266940e-03  0.0000000000000e+00
     779  6.0095117480990e-03  1.4976373576250e-03  0.0000000000000e+00
     780  6.5031506637990e-03  1.5030675430470e-03  0.0000000000000e+00
     781  6.9982201925800e-03  1.5023059793800e-03  0.0000000000000e+00
     782  4.5030923703540e-03  1.4984154246190e-03  0.0000000000000e+00
     783  7.4943140848200e-03  3.9979131139470e-03  0.0000000000000e+00

[3D Elements]
#ElemNr  ElemType  NrOfNodes  Level
#Node1 Node2 ... NodeNrOfNodes

[2D Elements]
#ElemNr  ElemType  NrOfNodes  Level
#Node1 Node2 ... NodeNrOfNodes
1 6 4 stripe
1 2 3 4
2 6 4 stripe
2 6 14 3
3 6 4 stripe
6 7 15 14
4 6 4 stripe
7 8 16 15
5 6 4 stripe
8 9 17 16
6 6 4 stripe
9 10 18 17
7 6 4 stripe
10 11 19 18
8 6 4 stripe
11 12 20 19
9 6 4 stripe
12 5 13 20
10 6 4 stripe
4 3 21 22
17 6 4 stripe
5 35 36 13
408 6 4 stripe
13 36 513 514
657 6 4 stripe
525 526 19 20
658 6 4 stripe
20 13 514 525
659 6 4 stripe
526 73 18 19
660 6 4 stripe
73 77 17 18
661 6 4 stripe
77 76 16 17
662 6 4 stripe
76 75 15 16
663 6 4 stripe
75 74 14 15
664 6 4 stripe
74 21 3 14
11 6 4 coil
22 21 24 30
12 6 4 coil
30 24 25 31
13 6 4 coil
31 25 26 32
14 6 4 coil
32 26 27 33
15 6 4 coil
33 27 28 34
16 6 4 coil
34 28 23 29
36 6 4 coil
21 74 88 24
37 6 4 coil
74 75 93 88
38 6 4 coil
75 76 98 93
39 6 4 coil
76 77 103 98
40 6 4 coil
77 73 79 103
41 6 4 coil
24 88 89 25
42 6 4 coil
88 93 94 89
43 6 4 coil
93 98 99 94
44 6 4 coil
98 103 104 99
45 6 4 coil
103 79 80 104
46 6 4 coil
25 89 90 26
47 6 4 coil
89 94 95 90
48 6 4 coil
94 99 100 95
49 6 4 coil
99 104 105 100
50 6 4 coil
104 80 81 105
51 6 4 coil
26 90 91 27
52 6 4 coil
90 95 96 91
53 6 4 coil
95 100 101 96
54 6 4 coil
100 105 106 101
55 6 4 coil
105 81 82 106
56 6 4 coil
27 91 92 28
57 6 4 coil
91 96 97 92
58 6 4 coil
96 101 102 97
59 6 4 coil
101 106 107 102
60 6 4 coil
106 82 83 107
61 6 4 coil
28 92 84 23
62 6 4 coil
92 97 85 84
63 6 4 coil
97 102 86 85
64 6 4 coil
102 107 87 86
65 6 4 coil
107 83 78 87
66 6 4 yoke
71 69 109 117
67 6 4 yoke
117 109 110 118
68 6 4 yoke
118 110 111 119
69 6 4 yoke
119 111 112 120
70 6 4 yoke
120 112 113 121
71 6 4 yoke
121 113 114 122
72 6 4 yoke
122 114 115 123
73 6 4 yoke
123 115 108 116
84 6 4 yoke
144 146 176 169
85 6 4 yoke
146 147 183 176
86 6 4 yoke
147 148 190 183
87 6 4 yoke
148 149 197 190
88 6 4 yoke
149 150 204 197
89 6 4 yoke
150 151 211 204
90 6 4 yoke
151 152 218 211
91 6 4 yoke
152 145 154 218
92 6 4 yoke
169 176 177 170
93 6 4 yoke
176 183 184 177
94 6 4 yoke
183 190 191 184
95 6 4 yoke
190 197 198 191
96 6 4 yoke
197 204 205 198
97 6 4 yoke
204 211 212 205
98 6 4 yoke
211 218 219 212
99 6 4 yoke
218 154 155 219
100 6 4 yoke
170 177 178 171
101 6 4 yoke
177 184 185 178
102 6 4 yoke
184 191 192 185
103 6 4 yoke
191 198 199 192
104 6 4 yoke
198 205 206 199
105 6 4 yoke
205 212 213 206
106 6 4 yoke
212 219 220 213
107 6 4 yoke
219 155 156 220
108 6 4 yoke
171 178 179 172
109 6 4 yoke
178 185 186 179
110 6 4 yoke
185 192 193 186
111 6 4 yoke
192 199 200 193
112 6 4 yoke
199 206 207 200
113 6 4 yoke
206 213 214 207
114 6 4 yoke
213 220 221 214
115 6 4 yoke
220 156 157 221
116 6 4 yoke
172 179 180 173
117 6 4 yoke
179 186 187 180
118 6 4 yoke
186 193 194 187
119 6 4 yoke
193 200 201 194
120 6 4 yoke
200 207 208 201
121 6 4 yoke
207 214 215 208
122 6 4 yoke
214 221 222 215
123 6 4 yoke
221 157 158 222
124 6 4 yoke
173 180 181 174
125 6 4 yoke
180 187 188 181
126 6 4 yoke
187 194 195 188
127 6 4 yoke
194 201 202 195
128 6 4 yoke
201 208 209 202
129 6 4 yoke
208 215 216 209
130 6 4 yoke
215 222 223 216
131 6 4 yoke
222 158 159 223
132 6 4 yoke
174 181 182 175
133 6 4 yoke
181 188 189 182
134 6 4 yoke
188 195 196 189
135 6 4 yoke
195 202 203 196
136 6 4 yoke
202 209 210 203
137 6 4 yoke
209 216 217 210
138 6 4 yoke
216 223 224 217
139 6 4 yoke
223 159 160 224
140 6 4 yoke
175 182 162 161
141 6 4 yoke
182 189 163 162
142 6 4 yoke
189 196 164 163
143 6 4 yoke
196 203 165 164
144 6 4 yoke
203 210 166 165
145 6 4 yoke
210 217 167 166
146 6 4 yoke
217 224 168 167
147 6 4 yoke
224 160 153 168
451 6 4 yoke
555 566 567 556
452 6 4 yoke
556 554 553 555
453 6 4 yoke
555 559 565 566
454 6 4 yoke
553 560 559 555
455 6 4 yoke
554 558 557 553
456 6 4 yoke
557 561 560 553
457 6 4 yoke
557 594 569 561
458 6 4 yoke
558 570 594 557
459 6 4 yoke
558 564 571 570
460 6 4 yoke
554 563 564 558
461 6 4 yoke
556 562 563 554
462 6 4 yoke
567 568 562 556
463 6 4 yoke
559 574 573 565
464 6 4 yoke
560 575 574 559
465 6 4 yoke
561 576 575 560
466 6 4 yoke
569 577 576 561
467 6 4 yoke
569 589 588 577
468 6 4 yoke
594 590 589 569
469 6 4 yoke
570 591 590 594
470 6 4 yoke
571 592 591 570
471 6 4 yoke
571 583 593 592
472 6 4 yoke
564 582 583 571
473 6 4 yoke
563 581 582 564
474 6 4 yoke
562 580 581 563
475 6 4 yoke
568 579 580 562
476 6 4 yoke
568 587 578 579
477 6 4 yoke
567 586 587 568
478 6 4 yoke
566 585 586 567
479 6 4 yoke
565 584 585 566
480 6 4 yoke
573 572 584 565
481 6 4 yoke
590 549 548 589
482 6 4 yoke
589 548 547 588
483 6 4 yoke
591 550 549 590
484 6 4 yoke
592 551 550 591
485 6 4 yoke
593 552 551 592
486 6 4 yoke
593 175 161 552
487 6 4 yoke
583 174 175 593
488 6 4 yoke
582 173 174 583
489 6 4 yoke
581 172 173 582
490 6 4 yoke
580 171 172 581
491 6 4 yoke
579 170 171 580
492 6 4 yoke
578 169 170 579
493 6 4 yoke
578 534 144 169
494 6 4 yoke
587 515 534 578
495 6 4 yoke
586 520 515 587
496 6 4 yoke
585 519 520 586
497 6 4 yoke
584 518 519 585
498 6 4 yoke
572 517 518 584
499 6 4 yoke
572 109 69 517
500 6 4 yoke
573 110 109 572
501 6 4 yoke
574 111 110 573
502 6 4 yoke
575 112 111 574
503 6 4 yoke
576 113 112 575
504 6 4 yoke
577 114 113 576
505 6 4 yoke
588 115 114 577
506 6 4 yoke
547 108 115 588
665 6 4 yoke
735 737 736 743
666 6 4 yoke
743 740 741 735
667 6 4 yoke
735 739 738 737
668 6 4 yoke
741 742 739 735
669 6 4 yoke
743 757 758 740
670 6 4 yoke
736 756 757 743
671 6 4 yoke
736 744 755 756
672 6 4 yoke
737 745 744 736
673 6 4 yoke
738 746 745 737
674 6 4 yoke
738 748 747 746
675 6 4 yoke
739 749 748 738
676 6 4 yoke
742 750 749 739
677 6 4 yoke
742 753 754 750
678 6 4 yoke
741 752 753 742
679 6 4 yoke
740 751 752 741
680 6 4 yoke
758 759 751 740
681 6 4 yoke
744 761 760 755
682 6 4 yoke
745 762 761 744
683 6 4 yoke
746 763 762 745
684 6 4 yoke
747 764 763 746
685 6 4 yoke
747 766 765 764
686 6 4 yoke
748 767 766 747
687 6 4 yoke
749 768 767 748
688 6 4 yoke
750 769 768 749
689 6 4 yoke
754 770 769 750
690 6 4 yoke
754 783 771 770
691 6 4 yoke
753 776 783 754
692 6 4 yoke
752 775 776 753
693 6 4 yoke
751 774 775 752
694 6 4 yoke
759 773 774 751
695 6 4 yoke
759 781 772 773
696 6 4 yoke
758 780 781 759
697 6 4 yoke
757 779 780 758
698 6 4 yoke
756 778 779 757
699 6 4 yoke
755 777 778 756
700 6 4 yoke
760 782 777 755
701 6 4 yoke
783 316 327 771
702 6 4 yoke
776 357 316 783
703 6 4 yoke
766 147 146 765
704 6 4 yoke
767 148 147 766
705 6 4 yoke
768 149 148 767
706 6 4 yoke
769 150 149 768
707 6 4 yoke
770 151 150 769
708 6 4 yoke
771 152 151 770
709 6 4 yoke
771 327 145 152
710 6 4 yoke
775 356 357 776
711 6 4 yoke
774 355 356 775
712 6 4 yoke
773 354 355 774
713 6 4 yoke
772 353 354 773
714 6 4 yoke
772 546 337 353
715 6 4 yoke
781 545 546 772
716 6 4 yoke
780 544 545 781
717 6 4 yoke
779 543 544 780
718 6 4 yoke
778 542 543 779
719 6 4 yoke
777 513 542 778
720 6 4 yoke
782 514 513 777
721 6 4 yoke
782 527 525 514
722 6 4 yoke
760 528 527 782
723 6 4 yoke
761 529 528 760
724 6 4 yoke
762 530 529 761
725 6 4 yoke
763 531 530 762
726 6 4 yoke
764 532 531 763
727 6 4 yoke
765 533 532 764
728 6 4 yoke
146 144 533 765
18 6 4 air
35 38 54 36
19 6 4 air
38 39 55 54
20 6 4 air
39 40 56 55
21 6 4 air
40 41 57 56
22 6 4 air
41 42 58 57
23 6 4 air
42 43 59 58
24 6 4 air
43 44 60 59
25 6 4 air
44 45 61 60
26 6 4 air
45 46 62 61
27 6 4 air
46 47 63 62
28 6 4 air
47 48 64 63
29 6 4 air
48 49 65 64
30 6 4 air
49 50 66 65
31 6 4 air
50 51 67 66
32 6 4 air
51 52 68 67
33 6 4 air
52 37 53 68
34 6 4 air
29 23 70 72
35 6 4 air
72 70 69 71
74 6 4 air
116 108 125 135
75 6 4 air
135 125 126 136
76 6 4 air
136 126 127 137
77 6 4 air
137 127 128 138
78 6 4 air
138 128 129 139
79 6 4 air
139 129 130 140
80 6 4 air
140 130 131 141
81 6 4 air
141 131 132 142
82 6 4 air
142 132 133 143
83 6 4 air
143 133 124 134
148 6 4 air
145 226 252 154
149 6 4 air
226 227 259 252
150 6 4 air
227 228 266 259
151 6 4 air
228 229 273 266
152 6 4 air
229 230 280 273
153 6 4 air
230 231 287 280
154 6 4 air
231 232 294 287
155 6 4 air
232 233 301 294
156 6 4 air
233 234 308 301
157 6 4 air
234 225 236 308
158 6 4 air
154 252 253 155
159 6 4 air
252 259 260 253
160 6 4 air
259 266 267 260
161 6 4 air
266 273 274 267
162 6 4 air
273 280 281 274
163 6 4 air
280 287 288 281
164 6 4 air
287 294 295 288
165 6 4 air
294 301 302 295
166 6 4 air
301 308 309 302
167 6 4 air
308 236 237 309
168 6 4 air
155 253 254 156
169 6 4 air
253 260 261 254
170 6 4 air
260 267 268 261
171 6 4 air
267 274 275 268
172 6 4 air
274 281 282 275
173 6 4 air
281 288 289 282
174 6 4 air
288 295 296 289
175 6 4 air
295 302 303 296
176 6 4 air
302 309 310 303
177 6 4 air
309 237 238 310
178 6 4 air
156 254 255 157
179 6 4 air
254 261 262 255
180 6 4 air
261 268 269 262
181 6 4 air
268 275 276 269
182 6 4 air
275 282 283 276
183 6 4 air
282 289 290 283
184 6 4 air
289 296 297 290
185 6 4 air
296 303 304 297
186 6 4 air
303 310 311 304
187 6 4 air
310 238 239 311
188 6 4 air
157 255 256 158
189 6 4 air
255 262 263 256
190 6 4 air
262 269 270 263
191 6 4 air
269 276 277 270
192 6 4 air
276 283 284 277
193 6 4 air
283 290 291 284
194 6 4 air
290 297 298 291
195 6 4 air
297 304 305 298
196 6 4 air
304 311 312 305
197 6 4 air
311 239 240 312
198 6 4 air
158 256 257 159
199 6 4 air
256 263 264 257
200 6 4 air
263 270 271 264
201 6 4 air
270 277 278 271
202 6 4 air
277 284 285 278
203 6 4 air
284 291 292 285
204 6 4 air
291 298 299 292
205 6 4 air
298 305 306 299
206 6 4 air
305 312 313 306
207 6 4 air
312 240 241 313
208 6 4 air
159 257 258 160
209 6 4 air
257 264 265 258
210 6 4 air
264 271 272 265
211 6 4 air
271 278 279 272
212 6 4 air
278 285 286 279
213 6 4 air
285 292 293 286
214 6 4 air
292 299 300 293
215 6 4 air
299 306 307 300
216 6 4 air
306 313 314 307
217 6 4 air
313 241 242 314
218 6 4 air
160 258 243 153
219 6 4 air
258 265 244 243
220 6 4 air
265 272 245 244
221 6 4 air
272 279 246 245
222 6 4 air
279 286 247 246
223 6 4 air
286 293 248 247
224 6 4 air
293 300 249 248
225 6 4 air
300 307 250 249
226 6 4 air
307 314 251 250
227 6 4 air
314 242 235 251
228 6 4 air
316 325 328 327
229 6 4 air
325 324 329 328
230 6 4 air
324 323 330 329
231 6 4 air
323 322 331 330
232 6 4 air
322 321 332 331
233 6 4 air
321 320 333 332
234 6 4 air
320 319 334 333
235 6 4 air
319 318 335 334
236 6 4 air
318 317 336 335
237 6 4 air
317 315 326 336
238 6 4 air
327 328 226 145
239 6 4 air
328 329 227 226
240 6 4 air
329 330 228 227
241 6 4 air
330 331 229 228
242 6 4 air
331 332 230 229
243 6 4 air
332 333 231 230
244 6 4 air
333 334 232 231
245 6 4 air
334 335 233 232
246 6 4 air
335 336 234 233
247 6 4 air
336 326 225 234
248 6 4 air
337 339 358 353
249 6 4 air
339 340 363 358
250 6 4 air
340 341 368 363
251 6 4 air
341 342 373 368
252 6 4 air
342 343 378 373
253 6 4 air
343 344 383 378
254 6 4 air
344 345 388 383
255 6 4 air
345 346 393 388
256 6 4 air
346 347 398 393
257 6 4 air
347 338 348 398
258 6 4 air
353 358 359 354
259 6 4 air
358 363 364 359
260 6 4 air
363 368 369 364
261 6 4 air
368 373 374 369
262 6 4 air
373 378 379 374
263 6 4 air
378 383 384 379
264 6 4 air
383 388 389 384
265 6 4 air
388 393 394 389
266 6 4 air
393 398 399 394
267 6 4 air
398 348 349 399
268 6 4 air
354 359 360 355
269 6 4 air
359 364 365 360
270 6 4 air
364 369 370 365
271 6 4 air
369 374 375 370
272 6 4 air
374 379 380 375
273 6 4 air
379 384 385 380
274 6 4 air
384 389 390 385
275 6 4 air
389 394 395 390
276 6 4 air
394 399 400 395
277 6 4 air
399 349 350 400
278 6 4 air
355 360 361 356
279 6 4 air
360 365 366 361
280 6 4 air
365 370 371 366
281 6 4 air
370 375 376 371
282 6 4 air
375 380 381 376
283 6 4 air
380 385 386 381
284 6 4 air
385 390 391 386
285 6 4 air
390 395 396 391
286 6 4 air
395 400 401 396
287 6 4 air
400 350 351 401
288 6 4 air
356 361 362 357
289 6 4 air
361 366 367 362
290 6 4 air
366 371 372 367
291 6 4 air
371 376 377 372
292 6 4 air
376 381 382 377
293 6 4 air
381 386 387 382
294 6 4 air
386 391 392 387
295 6 4 air
391 396 397 392
296 6 4 air
396 401 402 397
297 6 4 air
401 351 352 402
298 6 4 air
357 362 325 316
299 6 4 air
362 367 324 325
300 6 4 air
367 372 323 324
301 6 4 air
372 377 322 323
302 6 4 air
377 382 321 322
303 6 4 air
382 387 320 321
304 6 4 air
387 392 319 320
305 6 4 air
392 397 318 319
306 6 4 air
397 402 317 318
307 6 4 air
402 352 315 317
308 6 4 air
153 243 432 423
309 6 4 air
243 244 441 432
310 6 4 air
244 245 450 441
311 6 4 air
245 246 459 450
312 6 4 air
246 247 468 459
313 6 4 air
247 248 477 468
314 6 4 air
248 249 486 477
315 6 4 air
249 250 495 486
316 6 4 air
250 251 504 495
317 6 4 air
251 235 404 504
318 6 4 air
423 432 433 424
319 6 4 air
432 441 442 433
320 6 4 air
441 450 451 442
321 6 4 air
450 459 460 451
322 6 4 air
459 468 469 460
323 6 4 air
468 477 478 469
324 6 4 air
477 486 487 478
325 6 4 air
486 495 496 487
326 6 4 air
495 504 505 496
327 6 4 air
504 404 405 505
328 6 4 air
424 433 434 425
329 6 4 air
433 442 443 434
330 6 4 air
442 451 452 443
331 6 4 air
451 460 461 452
332 6 4 air
460 469 470 461
333 6 4 air
469 478 479 470
334 6 4 air
478 487 488 479
335 6 4 air
487 496 497 488
336 6 4 air
496 505 506 497
337 6 4 air
505 405 406 506
338 6 4 air
425 434 435 426
339 6 4 air
434 443 444 435
340 6 4 air
443 452 453 444
341 6 4 air
452 461 462 453
342 6 4 air
461 470 471 462
343 6 4 air
470 479 480 471
344 6 4 air
479 488 489 480
345 6 4 air
488 497 498 489
346 6 4 air
497 506 507 498
347 6 4 air
506 406 407 507
348 6 4 air
426 435 436 427
349 6 4 air
435 444 445 436
350 6 4 air
444 453 454 445
351 6 4 air
453 462 463 454
352 6 4 air
462 471 472 463
353 6 4 air
471 480 481 472
354 6 4 air
480 489 490 481
355 6 4 air
489 498 499 490
356 6 4 air
498 507 508 499
357 6 4 air
507 407 408 508
358 6 4 air
427 436 437 428
359 6 4 air
436 445 446 437
360 6 4 air
445 454 455 446
361 6 4 air
454 463 464 455
362 6 4 air
463 472 473 464
363 6 4 air
472 481 482 473
364 6 4 air
481 490 491 482
365 6 4 air
490 499 500 491
366 6 4 air
499 508 509 500
367 6 4 air
508 408 409 509
368 6 4 air
428 437 438 429
369 6 4 air
437 446 447 438
370 6 4 air
446 455 456 447
371 6 4 air
455 464 465 456
372 6 4 air
464 473 474 465
373 6 4 air
473 482 483 474
374 6 4 air
482 491 492 483
375 6 4 air
491 500 501 492
376 6 4 air
500 509 510 501
377 6 4 air
509 409 410 510
378 6 4 air
429 438 439 430
379 6 4 air
438 447 448 439
380 6 4 air
447 456 457 448
381 6 4 air
456 465 466 457
382 6 4 air
465 474 475 466
383 6 4 air
474 483 484 475
384 6 4 air
483 492 493 484
385 6 4 air
492 501 502 493
386 6 4 air
501 510 511 502
387 6 4 air
510 410 411 511
388 6 4 air
430 439 440 431
389 6 4 air
439 448 449 440
390 6 4 air
448 457 458 449
391 6 4 air
457 466 467 458
392 6 4 air
466 475 476 467
393 6 4 air
475 484 485 476
394 6 4 air
484 493 494 485
395 6 4 air
493 502 503 494
396 6 4 air
502 511 512 503
397 6 4 air
511 411 412 512
398 6 4 air
431 440 422 413
399 6 4 air
440 449 421 422
400 6 4 air
449 458 420 421
401 6 4 air
458 467 419 420
402 6 4 air
467 476 418 419
403 6 4 air
476 485 417 418
404 6 4 air
485 494 416 417
405 6 4 air
494 503 415 416
406 6 4 air
503 512 414 415
407 6 4 air
512 412 403 414
409 6 4 air
23 84 521 70
410 6 4 air
84 85 522 521
411 6 4 air
85 86 523 522
412 6 4 air
86 87 524 523
413 6 4 air
87 78 516 524
414 6 4 air
70 521 517 69
415 6 4 air
521 522 518 517
416 6 4 air
522 523 519 518
417 6 4 air
523 524 520 519
418 6 4 air
524 516 515 520
419 6 4 air
535 526 525 527
420 6 4 air
527 528 541 535
421 6 4 air
535 79 73 526
422 6 4 air
541 80 79 535
423 6 4 air
528 529 536 541
424 6 4 air
536 81 80 541
425 6 4 air
529 530 537 536
426 6 4 air
537 82 81 536
427 6 4 air
530 531 538 537
428 6 4 air
538 83 82 537
429 6 4 air
531 532 539 538
430 6 4 air
539 78 83 538
431 6 4 air
532 533 540 539
432 6 4 air
540 516 78 539
433 6 4 air
533 144 534 540
434 6 4 air
534 515 516 540
435 6 4 air
347 346 67 68
436 6 4 air
68 53 338 347
437 6 4 air
346 345 66 67
438 6 4 air
345 344 65 66
439 6 4 air
344 343 64 65
440 6 4 air
343 342 63 64
441 6 4 air
342 341 62 63
442 6 4 air
341 340 61 62
443 6 4 air
340 339 60 61
444 6 4 air
339 337 59 60
445 6 4 air
337 546 58 59
446 6 4 air
546 545 57 58
447 6 4 air
545 544 56 57
448 6 4 air
544 543 55 56
449 6 4 air
543 542 54 55
450 6 4 air
542 513 36 54
507 6 4 air
610 729 723 722
508 6 4 air
722 721 609 610
509 6 4 air
610 731 730 729
510 6 4 air
609 732 731 610
511 6 4 air
721 720 612 609
512 6 4 air
612 724 732 609
513 6 4 air
720 719 734 612
514 6 4 air
734 725 724 612
515 6 4 air
719 718 611 734
516 6 4 air
611 726 725 734
517 6 4 air
718 717 613 611
518 6 4 air
613 727 726 611
519 6 4 air
613 733 728 727
520 6 4 air
717 716 733 613
521 6 4 air
729 623 624 723
522 6 4 air
730 622 623 729
523 6 4 air
730 620 621 622
524 6 4 air
731 619 620 730
525 6 4 air
732 618 619 731
526 6 4 air
724 617 618 732
527 6 4 air
725 629 617 724
528 6 4 air
726 628 629 725
529 6 4 air
727 627 628 726
530 6 4 air
728 626 627 727
531 6 4 air
728 614 625 626
532 6 4 air
733 615 614 728
533 6 4 air
716 616 615 733
534 6 4 air
716 638 639 616
535 6 4 air
717 637 638 716
536 6 4 air
718 636 637 717
537 6 4 air
719 635 636 718
538 6 4 air
720 634 635 719
539 6 4 air
721 633 634 720
540 6 4 air
722 632 633 721
541 6 4 air
723 631 632 722
542 6 4 air
624 630 631 723
543 6 4 air
620 648 649 621
544 6 4 air
619 647 648 620
545 6 4 air
618 646 647 619
546 6 4 air
617 645 646 618
547 6 4 air
629 661 645 617
548 6 4 air
628 660 661 629
549 6 4 air
627 659 660 628
550 6 4 air
626 658 659 627
551 6 4 air
625 657 658 626
552 6 4 air
625 640 656 657
553 6 4 air
614 641 640 625
554 6 4 air
615 642 641 614
555 6 4 air
616 643 642 615
556 6 4 air
639 644 643 616
557 6 4 air
639 672 673 644
558 6 4 air
638 671 672 639
559 6 4 air
637 670 671 638
560 6 4 air
636 669 670 637
561 6 4 air
635 668 669 636
562 6 4 air
634 667 668 635
563 6 4 air
633 666 667 634
564 6 4 air
632 665 666 633
565 6 4 air
631 664 665 632
566 6 4 air
630 663 664 631
567 6 4 air
630 655 662 663
568 6 4 air
624 654 655 630
569 6 4 air
623 653 654 624
570 6 4 air
622 652 653 623
571 6 4 air
621 651 652 622
572 6 4 air
649 650 651 621
573 6 4 air
640 675 674 656
574 6 4 air
641 676 675 640
575 6 4 air
642 677 676 641
576 6 4 air
643 678 677 642
577 6 4 air
644 679 678 643
578 6 4 air
673 680 679 644
579 6 4 air
673 714 681 680
580 6 4 air
672 713 714 673
581 6 4 air
671 712 713 672
582 6 4 air
670 711 712 671
583 6 4 air
669 710 711 670
584 6 4 air
668 709 710 669
585 6 4 air
667 708 709 668
586 6 4 air
666 707 708 667
587 6 4 air
665 706 707 666
588 6 4 air
664 705 706 665
589 6 4 air
663 704 705 664
590 6 4 air
662 703 704 663
591 6 4 air
662 695 696 703
592 6 4 air
655 694 695 662
593 6 4 air
654 693 694 655
594 6 4 air
653 692 693 654
595 6 4 air
652 691 692 653
596 6 4 air
651 690 691 652
597 6 4 air
650 689 690 651
598 6 4 air
650 688 715 689
599 6 4 air
649 687 688 650
600 6 4 air
648 686 687 649
601 6 4 air
647 685 686 648
602 6 4 air
646 684 685 647
603 6 4 air
645 683 684 646
604 6 4 air
661 682 683 645
605 6 4 air
660 702 682 661
606 6 4 air
659 701 702 660
607 6 4 air
658 700 701 659
608 6 4 air
657 699 700 658
609 6 4 air
656 698 699 657
610 6 4 air
674 697 698 656
611 6 4 air
714 607 608 681
612 6 4 air
713 606 607 714
613 6 4 air
712 605 606 713
614 6 4 air
711 604 605 712
615 6 4 air
710 603 604 711
616 6 4 air
709 602 603 710
617 6 4 air
708 601 602 709
618 6 4 air
707 600 601 708
619 6 4 air
706 599 600 707
620 6 4 air
705 598 599 706
621 6 4 air
704 597 598 705
622 6 4 air
703 596 597 704
623 6 4 air
696 595 596 703
624 6 4 air
696 431 413 595
625 6 4 air
695 430 431 696
626 6 4 air
694 429 430 695
627 6 4 air
693 428 429 694
628 6 4 air
692 427 428 693
629 6 4 air
691 426 427 692
630 6 4 air
690 425 426 691
631 6 4 air
689 424 425 690
632 6 4 air
715 423 424 689
633 6 4 air
715 168 153 423
634 6 4 air
688 167 168 715
635 6 4 air
687 166 167 688
636 6 4 air
686 165 166 687
637 6 4 air
685 164 165 686
638 6 4 air
684 163 164 685
639 6 4 air
683 162 163 684
640 6 4 air
682 161 162 683
641 6 4 air
702 552 161 682
642 6 4 air
701 551 552 702
643 6 4 air
700 550 551 701
644 6 4 air
699 549 550 700
645 6 4 air
698 548 549 699
646 6 4 air
697 547 548 698
647 6 4 air
697 125 108 547
648 6 4 air
674 126 125 697
649 6 4 air
675 127 126 674
650 6 4 air
676 128 127 675
651 6 4 air
677 129 128 676
652 6 4 air
678 130 129 677
653 6 4 air
679 131 130 678
654 6 4 air
680 132 131 679
655 6 4 air
681 133 132 680
656 6 4 air
608 124 133 681

[1D Elements]
#ElemNr  ElemType  NrOfNodes  Level
#Node1 Node2 ... NodeNrOfNodes
730 100 2 leftBoundary
4 1
751 100 2 leftBoundary
4 22
752 100 2 leftBoundary
22 30
753 100 2 leftBoundary
30 31
754 100 2 leftBoundary
31 32
755 100 2 leftBoundary
32 33
756 100 2 leftBoundary
33 34
757 100 2 leftBoundary
34 29
775 100 2 leftBoundary
29 72
776 100 2 leftBoundary
72 71
777 100 2 leftBoundary
71 117
778 100 2 leftBoundary
117 118
779 100 2 leftBoundary
118 119
780 100 2 leftBoundary
119 120
781 100 2 leftBoundary
120 121
782 100 2 leftBoundary
121 122
783 100 2 leftBoundary
122 123
784 100 2 leftBoundary
123 116
785 100 2 leftBoundary
116 135
786 100 2 leftBoundary
135 136
787 100 2 leftBoundary
136 137
788 100 2 leftBoundary
137 138
789 100 2 leftBoundary
138 139
790 100 2 leftBoundary
139 140
791 100 2 leftBoundary
140 141
792 100 2 leftBoundary
141 142
793 100 2 leftBoundary
142 143
794 100 2 leftBoundary
143 134
731 100 2 rightBoundary
37 53
795 100 2 rightBoundary
225 236
796 100 2 rightBoundary
236 237
797 100 2 rightBoundary
237 238
798 100 2 rightBoundary
238 239
799 100 2 rightBoundary
239 240
800 100 2 rightBoundary
240 241
801 100 2 rightBoundary
241 242
802 100 2 rightBoundary
242 235
803 100 2 rightBoundary
315 326
804 100 2 rightBoundary
326 225
805 100 2 rightBoundary
338 348
806 100 2 rightBoundary
348 349
807 100 2 rightBoundary
349 350
808 100 2 rightBoundary
350 351
809 100 2 rightBoundary
351 352
810 100 2 rightBoundary
352 315
811 100 2 rightBoundary
235 404
812 100 2 rightBoundary
404 405
813 100 2 rightBoundary
405 406
814 100 2 rightBoundary
406 407
815 100 2 rightBoundary
407 408
816 100 2 rightBoundary
408 409
817 100 2 rightBoundary
409 410
818 100 2 rightBoundary
410 411
819 100 2 rightBoundary
411 412
820 100 2 rightBoundary
412 403
821 100 2 rightBoundary
53 338
732 100 2 topBoundary
403 414
733 100 2 topBoundary
414 415
734 100 2 topBoundary
415 416
735 100 2 topBoundary
416 417
736 100 2 topBoundary
417 418
737 100 2 topBoundary
418 419
738 100 2 topBoundary
419 420
739 100 2 topBoundary
420 421
740 100 2 topBoundary
421 422
741 100 2 topBoundary
422 413
742 100 2 topBoundary
124 134
822 100 2 topBoundary
413 595
823 100 2 topBoundary
595 596
824 100 2 topBoundary
596 597
825 100 2 topBoundary
597 598
826 100 2 topBoundary
598 599
827 100 2 topBoundary
599 600
828 100 2 topBoundary
600 601
829 100 2 topBoundary
601 602
830 100 2 topBoundary
602 603
831 100 2 topBoundary
603 604
832 100 2 topBoundary
604 605
833 100 2 topBoundary
605 606
834 100 2 topBoundary
606 607
835 100 2 topBoundary
607 608
836 100 2 topBoundary
608 124
729 100 2 bottomBoundary
1 2
743 100 2 bottomBoundary
2 6
744 100 2 bottomBoundary
6 7
745 100 2 bottomBoundary
7 8
746 100 2 bottomBoundary
8 9
747 100 2 bottomBoundary
9 10
748 100 2 bottomBoundary
10 11
749 100 2 bottomBoundary
11 12
750 100 2 bottomBoundary
12 5
758 100 2 bottomBoundary
5 35
759 100 2 bottomBoundary
35 38
760 100 2 bottomBoundary
38 39
761 100 2 bottomBoundary
39 40
762 100 2 bottomBoundary
40 41
763 100 2 bottomBoundary
41 42
764 100 2 bottomBoundary
42 43
765 100 2 bottomBoundary
43 44
766 100 2 bottomBoundary
44 45
767 100 2 bottomBoundary
45 46
768 100 2 bottomBoundary
46 47
769 100 2 bottomBoundary
47 48
770 100 2 bottomBoundary
48 49
771 100 2 bottomBoundary
49 50
772 100 2 bottomBoundary
50 51
773 100 2 bottomBoundary
51 52
774 100 2 bottomBoundary
52 37

[Node BC]
#NodeNr Level

[Save Nodes]
#NodeNr Level

[Save Elements]
#ElemNr Level
10 observerInner
408 observerOuter
10 observerLine
408 observerLine
657 observerLine
658 observerLine
659 observerLine
660 observerLine
661 observerLine
662 observerLine
663 observerLine
664 observerLine

