
0                         1.002228702070757
8.33E-4                   0.9880695382258868
0.001667                  0.9740851619928902
0.0025                    0.9603014204558054
0.003333                  0.9467192743657352
0.004167                  0.9333111785589389
0.005                     0.9201071473314767
0.005833                  0.9070931169626752
0.006667                  0.8942463962967997
0.0075                    0.8815950053299908
0.008333                  0.8691257007482558
0.009167                  0.856816697518086
0.01                      0.8446948536996141
0.010833                  0.8327474773891174
0.011667                  0.8209536945685381
0.0125                    0.8093392376040769
0.013333                  0.7978919443237726
0.014167                  0.7865918130152008
0.015                     0.7754634978045115
0.015833                  0.764495344832857
0.016667                  0.7536681892997766
0.0175                    0.7430056536748779
0.018333                  0.732496572663301
0.019167                  0.7221225848386885
0.02                      0.7119063255185228
0.020833                  0.7018370984460869
0.021667                  0.6918973124167062
0.0225                    0.6821086568413682
0.023333                  0.6724608842563594
0.024167                  0.6629371403547222
0.025                     0.6535582067086034
0.025833                  0.644314264158698
0.026667                  0.6351891627005829
0.0275                    0.626202812410222
0.028333                  0.6173458032339249
0.029167                  0.6086026591790483
0.03                      0.599992455078256
0.030833                  0.5915061732684637
0.031667                  0.5831289845415735
0.0325                    0.5748791649953642
0.033333                  0.5667480747834317
0.034167                  0.5587215064146258
0.035                     0.5508169726903788
0.035833                  0.543026197428209
0.036667                  0.5353355700404936
0.0375                    0.5277618725790256
0.038333                  0.5202971771789635
0.039167                  0.5129284443654333
0.04                      0.5056717545214631
0.040833                  0.4985195115694901
0.041667                  0.4914592210073459
0.0425                    0.4845062885534878
0.043333                  0.477653433945104
0.044167                  0.4708886831764418
0.045                     0.46422679448807513
0.045833                  0.4576607899650189
0.046667                  0.45117919485079216
0.0475                    0.4447961483875163
0.048333                  0.43850496434168335
0.049167                  0.43229464873751444
0.05                      0.4261787504425728
0.050833                  0.4201508652304558
0.051667                  0.4142004619591513
0.0525                    0.4083405254215127
0.053333                  0.40256492231277313
0.054167                  0.39686356478529666
0.055                     0.3912488960184244
0.055833                  0.3857150403464247
0.056667                  0.3802523321002942
0.0575                    0.3748726924772116
0.058333                  0.36957048967282446
0.059167                  0.3643364597925532
0.06                      0.35918202169220126
0.060833                  0.35410177592999204
0.061667                  0.3490868432475911
0.0625                    0.3441481619826836
0.063333                  0.3392805571213715
0.064167                  0.3344755205535564
0.065                     0.32974353352322666
0.065833                  0.32507963949627733
0.066667                  0.32047568929882675
0.0675                    0.31594172911474006
0.068333                  0.3114730137161497
0.069167                  0.3070617387793989
0.07                      0.3027175333333058
0.070833                  0.29843585310230136
0.071667                  0.29420922162678875
0.0725                    0.29004686473360275
0.073333                  0.2859444268229742
0.074167                  0.28189474164994216
0.075                     0.2779066450553232
0.075833                  0.27397595946231484
0.076667                  0.2700958141668258
0.0775                    0.26627467100095953
0.078333                  0.2625085240334323
0.079167                  0.2587907880845822
0.08                      0.2551295702258523
0.080833                  0.2515210332108924
0.081667                  0.2479588699532759
0.0825                    0.2444508520797343
0.083333                  0.24099330760672616
0.084167                  0.23758019848166026
0.085                     0.23421897609770465
0.085833                  0.23090612635720345
0.086667                  0.22763586699507676
0.0875                    0.22441533904115876
0.088333                  0.22124117518902275
0.089167                  0.21810783318346205
0.09                      0.215022151384481
0.090833                  0.21198089852660584
0.091667                  0.2089787587091891
0.0925                    0.2060222781100044
0.093333                  0.20310835545438774
0.094167                  0.20023189313720388
0.095                     0.19739916067147398
0.095833                  0.19460718594422874
0.096667                  0.1918510860518127
0.0975                    0.1891368715403936
0.098333                  0.18646169969006926
0.099167                  0.1838208980795567
0.1                       0.18122023251021074
0.100833                  0.17865698563265564
0.101667                  0.17612668608727655
0.1025                    0.17363486236092612
0.103333                  0.17117891267270452
0.104167                  0.168754552420427
0.105                     0.16636707582217355
0.105833                  0.16401398512581253
0.106667                  0.1616911686322294
0.1075                    0.15940369132127166
0.108333                  0.15714915244752728
0.109167                  0.1549236055198196
0.11                      0.15273189794201422
0.110833                  0.1505717261790709
0.111667                  0.1484393080879679
0.1125                    0.14633929015761965
0.113333                  0.1442694697541482
0.114167                  0.14222622959487627
0.115                     0.14021403001034521
0.115833                  0.1382307692323445
0.116667                  0.13627298975589264
0.1175                    0.13434497254118147
0.118333                  0.13244470877867
0.119167                  0.13056888807137076
0.12                      0.12872161146056366
0.120833                  0.12690095044776387
0.121667                  0.12510372679723167
0.1225                    0.12333386108499786
0.123333                  0.12158949580864492
0.124167                  0.11986757587336856
0.125                     0.11817184852528885
0.125833                  0.11650052704856678
0.126667                  0.11485067993830438
0.1275                    0.11322589668779705
0.128333                  0.11162446803365
0.129167                  0.11004359106570318
0.13                      0.10848671405550887
0.130833                  0.10695220990171234
0.131667                  0.10543740438819985
0.1325                    0.10394561271195983
0.133333                  0.10247528505764002
0.134167                  0.10102386567021154
0.135                     0.0995945339730796
0.135833                  0.09818580390472452
0.136667                  0.09679522172487107
0.1375                    0.09542582491755242
0.138333                  0.09407617835046835
0.139167                  0.09274391823048382
0.14                      0.09143194156361803
0.140833                  0.09013886167164088
0.141667                  0.08886240458197606
0.1425                    0.08760534051029602
0.143333                  0.08636633987618567
0.144167                  0.08514322740287737
0.145                     0.08393866558900426
0.145833                  0.08275139208317747
0.146667                  0.0815793365919153
0.1475                    0.08042506557076919
0.148333                  0.0792873837119141
0.149167                  0.07816431940820971
0.15                      0.07705834025355811
0.150833                  0.07596830453074331
0.151667                  0.07489232167349148
0.1525                    0.07383274896187207
0.153333                  0.07278848104310205
0.154167                  0.07175769168783169
0.155                     0.07074262218277172
0.155833                  0.06974219656033355
0.156667                  0.0687546498052536
0.1575                    0.06778211732826354
0.158333                  0.06682356142682888
0.159167                  0.06587728974828452
0.16                      0.06494535346421457
0.160833                  0.06402676898610599
0.161667                  0.06311992999766779
0.1625                    0.0622268208088025
0.163333                  0.06134651853180506
0.164167                  0.06047750271042523
0.165                     0.05962169061903513
0.165833                  0.05877820859871013
0.166667                  0.05794560447780959
0.1675                    0.05712571282838282
0.168333                  0.05631768734952038
0.169167                  0.05552012164809455
0.17                      0.054734753264697046
0.170833                  0.05396074929019734
0.171667                  0.0531967400604124
0.1725                    0.05244437001936332
0.173333                  0.05170282607670344
0.174167                  0.050970787043563726
0.175                     0.05024982739887404
0.175833                  0.049539174958713295
0.176667                  0.048837577868209456
0.1775                    0.048146565598882494
0.178333                  0.04746542249636546
0.179167                  0.04679297472162431
0.18                      0.04613071274932787
0.180833                  0.04547797095114925
0.181667                  0.04483363849655052
0.1825                    0.044199149197900654
0.183333                  0.04357386176451756
0.184167                  0.04295669974893872
0.185                     0.0423490162065408
0.185833                  0.04175017081176402
0.186667                  0.041159103269299946
0.1875                    0.04057708015557606
0.188333                  0.04000346233163073
0.189167                  0.0394372141787259
0.19                      0.03887953788578758
0.190833                  0.03832982009747635
0.191667                  0.037787077597200854
0.1925                    0.03725248181463586
0.193333                  0.036725471861767105
0.194167                  0.03620513744115774
0.195                     0.03569263560317065
0.195833                  0.03518746049325713
0.196667                  0.034688766215281004
0.1975                    0.03419767953401323
0.198333                  0.033713722506034334
0.199167                  0.033236079976528006
0.2                       0.03276581445143212
0.200833                  0.032302441280691534
0.201667                  0.031845145464143944
0.2025                    0.03139490580627959
0.203333                  0.030951220198864152
0.204167                  0.030513274180427218
0.205                     0.030081979565139565
0.205833                  0.029656841402501723
0.206667                  0.029237078105018396
0.2075                    0.028823576430671405
0.208333                  0.02841588747531861
0.209167                  0.02801329754150073
0.21                      0.027616699527911143
0.210833                  0.02722570724542801
0.211667                  0.026839678239550697
0.2125                    0.02645950300728161
0.213333                  0.026084833946130117
0.214167                  0.025715064276411105
0.215                     0.0253510399116184
0.215833                  0.02499240546461684
0.216667                  0.024638544472269857
0.2175                    0.024290221009562733
0.218333                  0.023947044709500005
0.219167                  0.023608375414020565
0.22                      0.023274900342480694
0.220833                  0.0229462130661158
0.221667                  0.022621682110163577
0.2225                    0.022301965434725006
0.223333                  0.021986691039963095
0.224167                  0.021675287163143278
0.225                     0.02136843251651344
0.225833                  0.021065825770600198
0.226667                  0.020766976700625443
0.2275                    0.02047259113288854
0.228333                  0.020182424124568256
0.229167                  0.019896035320161723
0.23                      0.019614111620067296
0.230833                  0.019336408142186977
0.231667                  0.019062473600668695
0.2325                    0.018792917714740544
0.233333                  0.018527446533296143
0.234167                  0.01826556224727308
0.235                     0.01800778237023697
0.235833                  0.017753768867485392
0.236667                  0.01750300233811872
0.2375                    0.017255955522664977
0.238333                  0.017012304981372437
0.239167                  0.016771575993146676
0.24                      0.01653426779574673
0.240833                  0.016300132359605285
0.241667                  0.016068787117895045
0.2425                    0.01584078826249572
0.243333                  0.015615968119193916
0.244167                  0.015394017488422774
0.245                     0.015175507549887172
0.245833                  0.01496028994557857
0.246667                  0.014748054964488735
0.2475                    0.01453930858687021
0.248333                  0.01433384636018472
0.249167                  0.014131293668440558
0.25                      0.013932046585238977
0.250833                  0.013735824918280053
0.251667                  0.013542195824977798
0.2525                    0.013351482886546452
0.253333                  0.013163389640092771
0.254167                  0.012977502087781548
0.255                     0.012794163228224355
0.255833                  0.012613148854853026
0.256667                  0.012434143503180464
0.2575                    0.0122575741441932
0.258333                  0.012083324559334677
0.259167                  0.011911184203806796
0.26                      0.011741638342654537
0.260833                  0.011574622822463786
0.261667                  0.011409951951456632
0.2625                    0.011248070265863346
0.263333                  0.011088862500632339
0.264167                  0.010932068905688177
0.265                     0.010778009026059897
0.265833                  0.01062645968162178
0.266667                  0.01047706142101383
0.2675                    0.010330021733581296
0.268333                  0.010185057285657419
0.269167                  0.010041787141854646
0.27                      0.009900413732748617
0.270833                  0.009760709182562836
0.271667                  0.009622387123974148
0.2725                    0.009485752842996171
0.273333                  0.009350713119216057
0.274167                  0.009217122824067779
0.275                     0.009085397415167036
0.275833                  0.008955542825013967
0.276667                  0.008827481824451195
0.2775                    0.008701631377271868
0.278333                  0.008577969275724991
0.279167                  0.008456350833934437
0.28                      0.008337062722022734
0.280833                  0.008219947764092165
0.281667                  0.008104719328863277
0.2825                    0.007991503176256756
0.283333                  0.00788002480000896
0.284167                  0.007769918628527668
0.285                     0.007661259010855961
0.285833                  0.007553790058829683
0.286667                  0.007447218964801421
0.2875                    0.007341726087019247
0.288333                  0.007237208688875849
0.289167                  0.007133550221392013
0.29                      0.00703109791527451
0.290833                  0.006929908117553612
0.291667                  0.006829993979635647
0.2925                    0.00673176864517256
0.293333                  0.006635307587213165
0.294167                  0.006540586767733486
0.295                     0.006447902980147052
0.295833                  0.0063571834413863855
0.296667                  0.006268226568609022
0.2975                    0.006181115936996209
0.298333                  0.006095593533355582
0.299167                  0.006011303794022892
0.3                       0.005928207338800995
0.300833                  0.005846001657771895
0.301667                  0.005764355976746242
0.3025                    0.0056833147291724334
0.303333                  0.005602728948867639
0.304167                  0.005522468455735754
0.305                     0.0054427984583809335
0.305833                  0.005363796740017574
0.306667                  0.005285541301870846
0.3075                    0.005208451850831051
0.308333                  0.005132702162878379
0.309167                  0.005058395314904229
0.31                      0.004985879205275262
0.310833                  0.004915191652370549
0.311667                  0.004846240697620989
0.3125                    0.004779115583525307
0.313333                  0.004713597091866693
0.314167                  0.004649349841882613
0.315                     0.004586242697075182
0.315833                  0.004523917701092011
0.316667                  0.004461981934995673
0.3175                    0.004400329615822446
0.318333                  0.004338726285962886
0.319167                  0.004276980473377665
0.32                      0.004215246158007797
0.320833                  0.0041535811472239595
0.321667                  0.0040920904230639715
0.3225                    0.004031192768518236
0.323333                  0.003971150646953053
0.324167                  0.0039121952521660045
0.325                     0.0038547606236540924
0.325833                  0.0037990256678657485
0.326667                  0.0037450430420819243
0.3275                    0.003692965574653438
0.328333                  0.0036426521688609445
0.329167                  0.003593816933130035
0.33                      0.003546272894988944
0.330833                  0.0034996130249310056
0.331667                  0.0034533705574668764
0.3325                    0.0034072781117519893
0.333333                  0.00336097779024173
0.334167                  0.003314165983932752
0.335                     0.0032668426184028847
0.335833                  0.003218990192129089
0.336667                  0.0031706865544752993
0.3375                    0.0031223192760852867
0.338333                  0.003074212214471903
0.339167                  0.0030267117666352306
0.34                      0.0029803600437651547
0.340833                  0.0029355052293364493
0.341667                  0.0028923854112735954
0.3425                    0.0028512843938946894
0.343333                  0.0028121968876059847
0.344167                  0.0027749384302128083
0.345                     0.0027393227656027134
0.345833                  0.0027049219689802184
0.346667                  0.0026712029631630785
0.3475                    0.002637736248444477
0.348333                  0.0026040100001286683
0.349167                  0.0025695594048801788
0.35                      0.0025341784164907588
0.350833                  0.0024977063629230845
0.351667                  0.0024601222092925277
0.3525                    0.0024217255234576054
0.353333                  0.0023828491198296725
0.354167                  0.0023439176703797977
0.355                     0.002305579400854603
0.355833                  0.0022683667715961997
0.356667                  0.002232740914235631
0.3575                    0.002199188774713576
0.358333                  0.002167915844788751
0.359167                  0.0021389163159849377
0.36                      0.0021120887072891806
0.360833                  0.002087042037470619
0.361667                  0.0020632120583687335
0.3625                    0.002040027009314773
0.363333                  0.002016806132565177
0.364167                  0.0019928834155512128
0.365                     0.001967793280012072
0.365833                  0.0019411566322148253
0.366667                  0.0019127670248049453
0.3675                    0.001882752842497174
0.368333                  0.0018513734453354067
0.369167                  0.0018190611993589782
0.37                      0.0017865310664990208
0.370833                  0.0017544854774591294
0.371667                  0.0017236271340510705
0.3725                    0.0016947110755070203
0.373333                  0.0016682394788686008
0.374167                  0.0016444877617754006
0.375                     0.001623557564576126
0.375833                  0.0016051921882885578
0.376667                  0.0015888698534261526
0.3775                    0.001573928270957773
0.378333                  0.0015595275846733466
0.379167                  0.0015447780029302649
0.38                      0.0015289082477685074
0.380833                  0.0015112463398400118
0.381667                  0.001491306916756161
0.3825                    0.0014689441822841093
0.383333                  0.0014442336378178617
0.384167                  0.0014175068320534776
0.385                     0.0013894565608531778
0.385833                  0.0013608918645562798
0.386667                  0.0013327318475401446
0.3875                    0.0013060330502871265
0.388333                  0.0012816731955437998
0.389167                  0.001260329220221414
0.39                      0.001242463211748697
0.390833                  0.0012281028054565983
0.391667                  0.0012168974864409637
0.3925                    0.0012081945110714526
0.393333                  0.0012010413089724558
0.394167                  0.0011943270927094252
0.395                     0.0011869435134213618
0.395833                  0.0011778595272653794
0.396667                  0.0011662204703455077
0.3975                    0.0011514966433403583
0.398333                  0.0011334536845591173
0.399167                  0.0011121842418585124
0.4                       0.0010882195425145939
0.400833                  0.0010623480851667227
0.401667                  0.0010356070197868948
0.4025                    0.0010093156017046017
0.403333                  9.84758100340409E-4
0.404167                  9.631218415246929E-4
0.405                     9.45418370804415E-4
0.405833                  9.321777953680701E-4
0.406667                  9.234339108315531E-4
0.4075                    9.187231222856803E-4
0.408333                  9.17084223795735E-4
0.409167                  9.172225587619819E-4
0.41                      9.17677846916881E-4
0.410833                  9.170014871847827E-4
0.411667                  9.138863953090332E-4
0.4125                    9.073156656834473E-4
0.413333                  8.96624007500642E-4
0.414167                  8.815228460670082E-4
0.415                     8.622148509061495E-4
0.415833                  8.392865932629443E-4
0.416667                  8.137074159503769E-4
0.4175                    7.869020972305165E-4
0.418333                  7.604729598109724E-4
0.419167                  7.361374532121365E-4
0.42                      7.156240385587515E-4
0.420833                  7.00248482236838E-4
0.421667                  6.907719597362592E-4
0.4225                    6.872486998446651E-4
0.423333                  6.889266797316895E-4
0.424167                  6.944221860169465E-4
0.425                     7.019191414698374E-4
0.425833                  7.094806465459235E-4
0.426667                  7.152547172814399E-4
0.4275                    7.176384683755195E-4
0.428333                  7.154350821408357E-4
0.429167                  7.078620145103368E-4
0.43                      6.946477041764916E-4
0.430833                  6.759940127296784E-4
0.431667                  6.525689535834623E-4
0.4325                    6.256258028100758E-4
0.433333                  5.968096813147327E-4
0.434167                  5.68160462310036E-4
0.435                     5.420983809325138E-4
0.435833                  5.209577734943272E-4
0.436667                  5.067142393232763E-4
0.4375                    5.005590223025501E-4
0.438333                  5.024515882484717E-4
0.439167                  5.111695804732479E-4
0.44                      5.245473207518828E-4
0.440833                  5.400165966858877E-4
0.441667                  5.550141036604012E-4
0.4425                    5.672169732236089E-4
0.443333                  5.748073654042778E-4
0.444167                  5.764457022409822E-4
0.445                     5.71312843149657E-4
0.445833                  5.591228270956834E-4
0.446667                  5.400703989952001E-4
0.4475                    5.149558105215944E-4
0.448333                  4.850715028310962E-4
0.449167                  4.5227722452951776E-4
0.45                      4.1918834716902283E-4
0.450833                  3.889093457221718E-4
0.451667                  3.649293504029464E-4
0.4525                    3.5056639137393306E-4
0.453333                  3.477540758934894E-4
0.454167                  3.562904759778736E-4
0.455                     3.737821566439834E-4
0.455833                  3.9664924227346887E-4
0.456667                  4.211779722132344E-4
0.4575                    4.440363916807677E-4
0.458333                  4.626629731224213E-4
0.459167                  4.751454237269149E-4
0.46                      4.8014001332488947E-4
0.460833                  4.7690140317028243E-4
0.461667                  4.651433125718131E-4
0.4625                    4.451122165525829E-4
0.463333                  4.17509174413689E-4
0.464167                  3.835292936609608E-4
0.465                     3.451373721198876E-4
0.465833                  3.0502778985663407E-4
0.466667                  2.670690455448281E-4
0.4675                    2.3674667758238682E-4
0.468333                  2.2027355861989028E-4
0.469167                  2.2192799516677453E-4
0.47                      2.4054398209780837E-4
0.470833                  2.704056708934236E-4
0.471667                  3.0514368763562695E-4
0.4725                    3.396340352889519E-4
0.473333                  3.703799219381732E-4
0.474167                  3.949670919612393E-4
0.475                     4.1167240752602E-4
0.475833                  4.1945013750271573E-4
0.476667                  4.176838086789786E-4
0.4775                    4.0619007258850407E-4
0.478333                  3.8517716517717766E-4
0.479167                  3.5518394569806E-4
0.48                      3.1725987087983897E-4
0.480833                  2.7281560213782434E-4
0.481667                  2.2390444442823011E-4
0.4825                    1.7408698765739337E-4
0.483333                  1.3007570614254085E-4
0.484167                  1.0621528200869341E-4
0.485                     1.1781953364671313E-4
0.485833                  1.5587065060865642E-4
0.486667                  2.032092585970075E-4
0.4875                    2.5074664852349233E-4
0.488333                  2.942789221386658E-4
0.489167                  3.313906186699816E-4
0.49                      3.6036245278092856E-4
0.490833                  3.801189538963149E-4
0.491667                  3.899261000803509E-4
0.4925                    3.893672114673011E-4
0.493333                  3.783940714186702E-4
0.494167                  3.572152094010686E-4
0.495                     3.2641818121961395E-4
0.495833                  2.8679585973843936E-4
0.496667                  2.3934448797934102E-4
0.4975                    1.854555063573637E-4
0.498333                  1.2653483257984196E-4
0.499167                  6.410242327554399E-5
0.5                       2.135039587643364E-18
