
0                         8.725652662807406E-4
8.33E-4                   8.680136643602119E-4
0.001667                  8.711103302212566E-4
0.0025                    8.714732917473509E-4
0.003333                  8.713311302272E-4
0.004167                  8.710933471917512E-4
0.005                     8.708257407282595E-4
0.005833                  8.705360427710105E-4
0.006667                  8.702256817995232E-4
0.0075                    8.698951771121453E-4
0.008333                  8.695445375115695E-4
0.009167                  8.691737997241021E-4
0.01                      8.687833283253087E-4
0.010833                  8.683731226426454E-4
0.011667                  8.679432488497411E-4
0.0125                    8.674940107076476E-4
0.013333                  8.670254361634284E-4
0.014167                  8.665376183229066E-4
0.015                     8.660308028208818E-4
0.015833                  8.65505045425586E-4
0.016667                  8.649604657193735E-4
0.0175                    8.643972522781738E-4
0.018333                  8.638154881013919E-4
0.019167                  8.632153187659252E-4
0.02                      8.625968767609264E-4
0.020833                  8.619602718784056E-4
0.021667                  8.613056751484708E-4
0.0225                    8.606331640016952E-4
0.023333                  8.599428744608722E-4
0.024167                  8.592350025058307E-4
0.025                     8.585095715469104E-4
0.025833                  8.577667433257067E-4
0.026667                  8.570067382408844E-4
0.0275                    8.562295267191128E-4
0.028333                  8.554352956629055E-4
0.029167                  8.546242894229664E-4
0.03                      8.537964264428698E-4
0.030833                  8.529519182812411E-4
0.031667                  8.520910327273701E-4
0.0325                    8.512136372198272E-4
0.033333                  8.503199674920181E-4
0.034167                  8.494103142677559E-4
0.035                     8.48484494968187E-4
0.035833                  8.475427690592737E-4
0.036667                  8.465854496424282E-4
0.0375                    8.456123050808387E-4
0.038333                  8.446236180339956E-4
0.039167                  8.436197236269754E-4
0.04                      8.426003421328553E-4
0.040833                  8.415657788545949E-4
0.041667                  8.405163904340661E-4
0.0425                    8.394518500310419E-4
0.043333                  8.383724851368047E-4
0.044167                  8.372786733842378E-4
0.045                     8.361700418085503E-4
0.045833                  8.350469396346627E-4
0.046667                  8.339097650004324E-4
0.0475                    8.32758099760207E-4
0.048333                  8.315923143312569E-4
0.049167                  8.30412826946952E-4
0.05                      8.292191751640692E-4
0.050833                  8.280117502131447E-4
0.051667                  8.267909898589374E-4
0.0525                    8.255563884642959E-4
0.053333                  8.24308357420202E-4
0.054167                  8.23047353627309E-4
0.055                     8.217728291291153E-4
0.055833                  8.204852150779898E-4
0.056667                  8.191849870755487E-4
0.0575                    8.178715556815258E-4
0.058333                  8.165453714048034E-4
0.059167                  8.152069280699954E-4
0.06                      8.138555956919405E-4
0.060833                  8.124918436618148E-4
0.061667                  8.111161835611037E-4
0.0625                    8.097279457830449E-4
0.063333                  8.083276180710418E-4
0.064167                  8.06915729541308E-4
0.065                     8.054915715605941E-4
0.065833                  8.04055650060173E-4
0.066667                  8.026085109595416E-4
0.0675                    8.011494077972347E-4
0.068333                  7.996788640035878E-4
0.069167                  7.981974419803988E-4
0.07                      7.967043582408125E-4
0.070833                  7.952001534524929E-4
0.071667                  7.936854057288451E-4
0.0725                    7.921592959759508E-4
0.073333                  7.906223810090708E-4
0.074167                  7.890752547701653E-4
0.075                     7.875170628045292E-4
0.075833                  7.859483783685707E-4
0.076667                  7.84369810427749E-4
0.0775                    7.827804701858116E-4
0.078333                  7.81180946607995E-4
0.079167                  7.795718635257731E-4
0.08                      7.779522985098019E-4
0.080833                  7.763228559864838E-4
0.081667                  7.746841740048766E-4
0.0825                    7.730352976463045E-4
0.083333                  7.71376846051797E-4
0.084167                  7.697094713627379E-4
0.085                     7.680321866247998E-4
0.085833                  7.663456257176472E-4
0.086667                  7.646504541842274E-4
0.0875                    7.62945654109576E-4
0.088333                  7.612318733831348E-4
0.089167                  7.595097907814546E-4
0.09                      7.577783580670206E-4
0.090833                  7.560382369524995E-4
0.091667                  7.542901188328848E-4
0.0925                    7.525329261649541E-4
0.093333                  7.507673338623966E-4
0.094167                  7.489940457640882E-4
0.095                     7.47211955611019E-4
0.095833                  7.454217513255692E-4
0.096667                  7.436241485993327E-4
0.0975                    7.418180134533659E-4
0.098333                  7.400040462196744E-4
0.099167                  7.381829742625533E-4
0.1                       7.363536364584605E-4
0.100833                  7.345167453861812E-4
0.101667                  7.326730394844018E-4
0.1025                    7.308213314650121E-4
0.103333                  7.28962345531419E-4
0.104167                  7.270968310566881E-4
0.105                     7.252235751759058E-4
0.105833                  7.23343313547757E-4
0.106667                  7.214568058197278E-4
0.1075                    7.195628145760262E-4
0.108333                  7.176620863220967E-4
0.109167                  7.15755390941579E-4
0.11                      7.138414668480899E-4
0.110833                  7.119210712749667E-4
0.111667                  7.099949837591268E-4
0.1125                    7.080619195543745E-4
0.113333                  7.0612264604183E-4
0.114167                  7.041779522126001E-4
0.115                     7.022265307240164E-4
0.115833                  7.002691589361299E-4
0.116667                  6.983066347015654E-4
0.1175                    6.963376290831186E-4
0.118333                  6.94362928757743E-4
0.119167                  6.923833404742667E-4
0.12                      6.903975140097038E-4
0.120833                  6.884062453528359E-4
0.121667                  6.864103494767143E-4
0.1225                    6.844084558391729E-4
0.123333                  6.824013691659348E-4
0.124167                  6.803899123878315E-4
0.125                     6.783726956596127E-4
0.125833                  6.763505319983585E-4
0.126667                  6.743242520506722E-4
0.1275                    6.722924466095763E-4
0.128333                  6.702559370514994E-4
0.129167                  6.682155614263845E-4
0.13                      6.66169892185318E-4
0.130833                  6.641197585400944E-4
0.131667                  6.62066005409134E-4
0.1325                    6.60007187728444E-4
0.133333                  6.579441421720254E-4
0.134167                  6.558777203411386E-4
0.135                     6.538064602150392E-4
0.135833                  6.517312055874166E-4
0.136667                  6.496528143687457E-4
0.1375                    6.475698083415644E-4
0.138333                  6.454830380343249E-4
0.139167                  6.433933675026672E-4
0.14                      6.412993027748951E-4
0.140833                  6.392017009691337E-4
0.141667                  6.371014317499669E-4
0.1425                    6.349969863645978E-4
0.143333                  6.328892279540736E-4
0.144167                  6.307790315351107E-4
0.145                     6.286648741363609E-4
0.145833                  6.265476247431686E-4
0.146667                  6.24428163456809E-4
0.1475                    6.223049536275323E-4
0.148333                  6.201788697702698E-4
0.149167                  6.180507967731622E-4
0.15                      6.159191849704706E-4
0.150833                  6.137849141241666E-4
0.151667                  6.116488735162289E-4
0.1525                    6.095095011862929E-4
0.153333                  6.073676816892186E-4
0.154167                  6.052243086637484E-4
0.155                     6.030778081653308E-4
0.155833                  6.009290694799833E-4
0.156667                  5.98778990155995E-4
0.1575                    5.966259850182904E-4
0.158333                  5.944709476867079E-4
0.159167                  5.923147793359511E-4
0.16                      5.901558841976537E-4
0.160833                  5.87995159952809E-4
0.161667                  5.858335110357017E-4
0.1625                    5.836693317639376E-4
0.163333                  5.815035234568624E-4
0.164167                  5.793369937696257E-4
0.165                     5.771681274057118E-4
0.165833                  5.749978292594599E-4
0.166667                  5.728270097825347E-4
0.1675                    5.706540447840646E-4
0.168333                  5.684798423548621E-4
0.169167                  5.663053154755259E-4
0.17                      5.641288316661233E-4
0.170833                  5.619513019724425E-4
0.171667                  5.597736415428492E-4
0.1725                    5.575942101719253E-4
0.173333                  5.554139215839982E-4
0.174167                  5.532336930077526E-4
0.175                     5.510518769891242E-4
0.175833                  5.488693895052406E-4
0.176667                  5.466871496767805E-4
0.1775                    5.445035032898112E-4
0.178333                  5.423193685488948E-4
0.179167                  5.4013566603511E-4
0.18                      5.379507354012313E-4
0.180833                  5.357654967503563E-4
0.181667                  5.335808718117295E-4
0.1825                    5.313951947225794E-4
0.183333                  5.292093871067698E-4
0.184167                  5.270243718680041E-4
0.185                     5.248384779236614E-4
0.185833                  5.226526282945498E-4
0.186667                  5.204677466191935E-4
0.1875                    5.182821572549845E-4
0.188333                  5.160967843501631E-4
0.189167                  5.139125520545478E-4
0.19                      5.117277806856583E-4
0.190833                  5.095433952583563E-4
0.191667                  5.073603201941213E-4
0.1925                    5.051768722101404E-4
0.193333                  5.029939769913107E-4
0.194167                  5.008125589949497E-4
0.195                     4.98630931962614E-4
0.195833                  4.964500218115747E-4
0.196667                  4.942707529167629E-4
0.1975                    4.920914363705017E-4
0.198333                  4.899129983309717E-4
0.199167                  4.877363627417566E-4
0.2                       4.855598385911679E-4
0.200833                  4.833843519880071E-4
0.201667                  4.812108261736098E-4
0.2025                    4.790375685855637E-4
0.203333                  4.7686550492968545E-4
0.204167                  4.7469555772026393E-4
0.205                     4.725260332358114E-4
0.205833                  4.7035785660527204E-4
0.206667                  4.681919492870872E-4
0.2075                    4.6602661680141775E-4
0.208333                  4.6386278361782997E-4
0.209167                  4.617013699096401E-4
0.21                      4.595406809347003E-4
0.210833                  4.5738164019622706E-4
0.211667                  4.55225166392453E-4
0.2125                    4.530695649909108E-4
0.213333                  4.5091575832883357E-4
0.214167                  4.4876466336549615E-4
0.215                     4.4661458627888586E-4
0.215833                  4.444664479413363E-4
0.216667                  4.4232116352346996E-4
0.2175                    4.4017704016772167E-4
0.218333                  4.3803499721546896E-4
0.219167                  4.3589594775301826E-4
0.22                      4.3375820040870153E-4
0.220833                  4.31622672723809E-4
0.221667                  4.294902755081656E-4
0.2225                    4.273593193173397E-4
0.223333                  4.2523071970585705E-4
0.224167                  4.2310538496387855E-4
0.225                     4.2098162804378355E-4
0.225833                  4.1886036223317413E-4
0.226667                  4.1674249325041165E-4
0.2275                    4.146263366889136E-4
0.228333                  4.1251280350867103E-4
0.229167                  4.104027965803473E-4
0.23                      4.0829463462644126E-4
0.230833                  4.061892260248411E-4
0.231667                  4.04087470621165E-4
0.2325                    4.019876906803308E-4
0.233333                  3.998907918358852E-4
0.234167                  3.9779767067076743E-4
0.235                     3.95706653400311E-4
0.235833                  3.9361864266669453E-4
0.236667                  3.915345317904873E-4
0.2375                    3.89452651186592E-4
0.238333                  3.87373900394963E-4
0.239167                  3.852991691662974E-4
0.24                      3.8322679260018516E-4
0.240833                  3.811576669355576E-4
0.241667                  3.7909267819270445E-4
0.2425                    3.7703016653504003E-4
0.243333                  3.7497102471732187E-4
0.244167                  3.7291613485588925E-4
0.245                     3.7086384250858403E-4
0.245833                  3.6881503679629473E-4
0.246667                  3.6677059576713114E-4
0.2475                    3.6472887080881745E-4
0.248333                  3.626907471258189E-4
0.249167                  3.606570985880652E-4
0.25                      3.586262827125941E-4
0.250833                  3.5659918071346777E-4
0.251667                  3.5457666201379686E-4
0.2525                    3.5255709078480137E-4
0.253333                  3.5054134391255756E-4
0.254167                  3.485302863901677E-4
0.255                     3.4652228902164737E-4
0.255833                  3.4451822459665723E-4
0.256667                  3.4251895333384464E-4
0.2575                    3.4052285318619075E-4
0.258333                  3.3853079242329454E-4
0.259167                  3.365436265053707E-4
0.26                      3.3455974089914526E-4
0.260833                  3.3257999911285154E-4
0.261667                  3.3060525160174355E-4
0.2625                    3.286338917861862E-4
0.263333                  3.2666677835077595E-4
0.264167                  3.2470475663217763E-4
0.265                     3.2274622800487974E-4
0.265833                  3.207920464615074E-4
0.266667                  3.188430519407006E-4
0.2675                    3.168976542747802E-4
0.268333                  3.1495670231061263E-4
0.269167                  3.1302103068520364E-4
0.27                      3.1108905799742486E-4
0.270833                  3.091616277425679E-4
0.271667                  3.072395689908763E-4
0.2725                    3.053213095296721E-4
0.273333                  3.034076874492889E-4
0.274167                  3.0149952614282825E-4
0.275                     2.9959526260408344E-4
0.275833                  2.9769572959770143E-4
0.276667                  2.9580174462864287E-4
0.2775                    2.9391175433701207E-4
0.278333                  2.92026585816064E-4
0.279167                  2.9014705071933844E-4
0.28                      2.882716055748561E-4
0.280833                  2.864010715491167E-4
0.281667                  2.845362543391114E-4
0.2825                    2.826756206264618E-4
0.283333                  2.808199858873138E-4
0.284167                  2.789701493644195E-4
0.285                     2.7712458838675806E-4
0.285833                  2.752841122878527E-4
0.286667                  2.734495140816557E-4
0.2875                    2.7161928176521865E-4
0.288333                  2.697942185939137E-4
0.289167                  2.6797511103679374E-4
0.29                      2.6616045825057175E-4
0.290833                  2.64351057120688E-4
0.291667                  2.625476875649356E-4
0.2925                    2.607488600040299E-4
0.293333                  2.5895536497039424E-4
0.294167                  2.571679756871977E-4
0.295                     2.5538521413559826E-4
0.295833                  2.5360786429054233E-4
0.296667                  2.5183669258233287E-4
0.2975                    2.50070232838912E-4
0.298333                  2.483092623417284E-4
0.299167                  2.465545406639956E-4
0.3                       2.448046136229238E-4
0.300833                  2.43060251835159E-4
0.301667                  2.413222077926556E-4
0.3025                    2.3958903961410216E-4
0.303333                  2.3786151105327822E-4
0.304167                  2.3614036746033354E-4
0.305                     2.3442417958593342E-4
0.305833                  2.3271370409075844E-4
0.306667                  2.3100967913880125E-4
0.3075                    2.2931068825824509E-4
0.308333                  2.2761748103566738E-4
0.309167                  2.2593078825149175E-4
0.31                      2.2424920650473406E-4
0.310833                  2.2257347816470358E-4
0.311667                  2.2090432659110432E-4
0.3125                    2.192403615501394E-4
0.313333                  2.1758231818531278E-4
0.314167                  2.1593091227026156E-4
0.315                     2.1428476712585643E-4
0.315833                  2.1264461039140656E-4
0.316667                  2.1101115022846372E-4
0.3175                    2.0938302365577417E-4
0.318333                  2.0776095080495314E-4
0.319167                  2.061456321497491E-4
0.32                      2.0453571852518772E-4
0.320833                  2.029319225373258E-4
0.321667                  2.0133493676684813E-4
0.3225                    1.9974342622665253E-4
0.323333                  1.9815809576580366E-4
0.324167                  1.9657963010241445E-4
0.325                     1.950067085314163E-4
0.325833                  1.934400281215534E-4
0.326667                  1.918802655627924E-4
0.3275                    1.9032611469594645E-4
0.328333                  1.8877826470439581E-4
0.329167                  1.8723738416920565E-4
0.33                      1.8570218167027506E-4
0.330833                  1.8417333837442347E-4
0.331667                  1.8265151474835552E-4
0.3325                    1.81135434238841E-4
0.333333                  1.796257699493593E-4
0.334167                  1.7812317409346426E-4
0.335                     1.7662638521116119E-4
0.335833                  1.7513606830233384E-4
0.336667                  1.7365286716457178E-4
0.3375                    1.7217553567555678E-4
0.338333                  1.707047305768615E-4
0.339167                  1.6924108726189176E-4
0.34                      1.677833750604198E-4
0.340833                  1.663322424068964E-4
0.341667                  1.6488831618318757E-4
0.3425                    1.6345038138862675E-4
0.343333                  1.620190780252068E-4
0.344167                  1.6059502445286828E-4
0.345                     1.5917702142370912E-4
0.345833                  1.5776570053174357E-4
0.346667                  1.5636167142439424E-4
0.3475                    1.5496375088044345E-4
0.348333                  1.535725619201311E-4
0.349167                  1.5218870547958476E-4
0.35                      1.508110145219962E-4
0.350833                  1.494401033889269E-4
0.351667                  1.4807656425176505E-4
0.3525                    1.467192463770997E-4
0.353333                  1.4536875543142525E-4
0.354167                  1.4402567470603268E-4
0.355                     1.4268886994313185E-4
0.355833                  1.4135893803874852E-4
0.356667                  1.4003645334196392E-4
0.3575                    1.3872029825632694E-4
0.358333                  1.3741106080799353E-4
0.359167                  1.361093063792185E-4
0.36                      1.348139341236044E-4
0.360833                  1.335255231863377E-4
0.361667                  1.3224462985634558E-4
0.3625                    1.3097017026534032E-4
0.363333                  1.2970271455127024E-4
0.364167                  1.2844280988388995E-4
0.365                     1.2718938946196408E-4
0.365833                  1.259430144003716E-4
0.366667                  1.247042226818105E-4
0.3675                    1.2347196472485702E-4
0.368333                  1.2224679252880577E-4
0.369167                  1.2102923483286077E-4
0.37                      1.1981825942742384E-4
0.370833                  1.186144091273797E-4
0.371667                  1.1741820338508535E-4
0.3725                    1.1622862746259862E-4
0.373333                  1.1504621497928358E-4
0.374167                  1.1387147600784793E-4
0.375                     1.1270341342618724E-4
0.375833                  1.1154255156789925E-4
0.376667                  1.1038939111702753E-4
0.3775                    1.0924295270465689E-4
0.378333                  1.0810375129365721E-4
0.379167                  1.0697227809126973E-4
0.38                      1.0584757163034903E-4
0.380833                  1.0473013749000714E-4
0.381667                  1.0362045732021047E-4
0.3825                    1.0251758768090457E-4
0.383333                  1.0142202467774251E-4
0.384167                  1.0033424040213995E-4
0.385                     9.925330953658821E-5
0.385833                  9.817971866895235E-5
0.386667                  9.711393026912149E-5
0.3875                    9.605503726503069E-5
0.388333                  9.500351668194228E-5
0.389167                  9.395982130796534E-5
0.39                      9.292306243242137E-5
0.390833                  9.189370746843924E-5
0.391667                  9.087219949736898E-5
0.3925                    8.98576682484475E-5
0.393333                  8.88505714974319E-5
0.394167                  8.785134254056899E-5
0.395                     8.685912969433145E-5
0.395833                  8.587438101286984E-5
0.396667                  8.489751999786588E-5
0.3975                    8.392771363042279E-5
0.398333                  8.296540021464666E-5
0.399167                  8.2010993392986E-5
0.4                       8.106367892971272E-5
0.400833                  8.01238853323117E-5
0.401667                  7.919201634299675E-5
0.4025                    7.826727660632132E-5
0.403333                  7.735008477712031E-5
0.404167                  7.644083467968288E-5
0.405                     7.553874991701577E-5
0.405833                  7.464423926002718E-5
0.406667                  7.375768655995748E-5
0.4075                    7.287833447892194E-5
0.408333                  7.200658187631374E-5
0.409167                  7.114280257611656E-5
0.41                      7.028625840546122E-5
0.410833                  6.943733824661558E-5
0.411667                  6.859640588124432E-5
0.4125                    6.776274237410207E-5
0.413333                  6.693672660812227E-5
0.414167                  6.61187122725392E-5
0.415                     6.530799976464675E-5
0.415833                  6.450495792478284E-5
0.416667                  6.370993032499973E-5
0.4175                    6.292223675613537E-5
0.418333                  6.214223599729475E-5
0.419167                  6.137026146006754E-5
0.42                      6.060565242265525E-5
0.420833                  5.9848757548837164E-5
0.421667                  5.909990006903904E-5
0.4225                    5.835843882951881E-5
0.423333                  5.7624712336853474E-5
0.424167                  5.689903361242714E-5
0.425                     5.6180781133900985E-5
0.425833                  5.54702832375775E-5
0.426667                  5.4767842694906476E-5
0.4275                    5.40728576886381E-5
0.428333                  5.338564634722831E-5
0.429167                  5.270650116526405E-5
0.43                      5.203484010666481E-5
0.430833                  5.137097105509035E-5
0.431667                  5.071517621019799E-5
0.4325                    5.006689336850812E-5
0.433333                  4.9426420152529376E-5
0.434167                  4.8794028426541896E-5
0.435                     4.8169175900520385E-5
0.435833                  4.755214989577533E-5
0.436667                  4.694321192355852E-5
0.4375                    4.634183965542702E-5
0.438333                  4.5748310093139077E-5
0.439167                  4.516287437427348E-5
0.44                      4.4585030189754485E-5
0.440833                  4.401504419579867E-5
0.441667                  4.3453157122180466E-5
0.4425                    4.2898886745352244E-5
0.443333                  4.2352489346641235E-5
0.444167                  4.1814195233691345E-5
0.445                     4.1283542314467284E-5
0.445833                  4.076077647503364E-5
0.446667                  4.024611757676142E-5
0.4475                    3.9739123714484797E-5
0.448333                  3.924003035204824E-5
0.449167                  3.874904689240829E-5
0.45                      3.82657516573942E-5
0.450833                  3.779036967143908E-5
0.451667                  3.7323099851767833E-5
0.4525                    3.686354080200241E-5
0.453333                  3.64119070900113E-5
0.454167                  3.5968387123845396E-5
0.455                     3.5532599834811356E-5
0.455833                  3.5104749307582644E-5
0.456667                  3.468501343365323E-5
0.4575                    3.4273031509275856E-5
0.458333                  3.386899711930407E-5
0.459167                  3.347307761960751E-5
0.46                      3.3084932712226136E-5
0.460833                  3.270474546596876E-5
0.461667                  3.2332672683994575E-5
0.4625                    3.196839451139588E-5
0.463333                  3.161208348493969E-5
0.464167                  3.126388584471524E-5
0.465                     3.0923502208192345E-5
0.465833                  3.0591094567890715E-5
0.466667                  3.02667985828627E-5
0.4675                    2.9950335382255167E-5
0.468333                  2.9641856394562822E-5
0.469167                  2.934148668961336E-5
0.47                      2.9048967934617176E-5
0.470833                  2.8764440983416397E-5
0.471667                  2.848802030374516E-5
0.4725                    2.8219468130081993E-5
0.473333                  2.795891472767598E-5
0.474167                  2.7706463952529998E-5
0.475                     2.7461898632201434E-5
0.475833                  2.7225338431771097E-5
0.476667                  2.6996876586916312E-5
0.4775                    2.6776316539485103E-5
0.478333                  2.6563767346808812E-5
0.479167                  2.6359311613908728E-5
0.48                      2.6162773418843067E-5
0.480833                  2.5974251199957244E-5
0.481667                  2.5793816925097334E-5
0.4825                    2.5621315329644236E-5
0.483333                  2.5456834221952583E-5
0.484167                  2.530043492721007E-5
0.485                     2.5151982852661257E-5
0.485833                  2.5011555172139954E-5
0.486667                  2.4879202560417563E-5
0.4875                    2.4754811112256378E-5
0.488333                  2.4638447359089118E-5
0.489167                  2.4530151322445816E-5
0.49                      2.4429829794956972E-5
0.490833                  2.4337538659933248E-5
0.491667                  2.4253307277513214E-5
0.4925                    2.417706312441759E-5
0.493333                  2.4108851292493726E-5
0.494167                  2.4048689720545438E-5
0.495                     2.3996522617065755E-5
0.495833                  2.3952365672734585E-5
0.496667                  2.391616510737817E-5
0.4975                    2.388818565939499E-5
0.498333                  2.3879460945595996E-5
0.499167                  2.4036370441021233E-5
0.5                       2.347612968931043E-5
