
0                         -1355922.2877017069
2.999999999949375E-4      -1353853.2380444163
5.999999999949459E-4      -1347654.9233137087
8.999999999949543E-4      -1337341.2217125078
0.0011999999999949627     -1322948.6373304524
0.0014999999999949706     -1304523.5605511533
0.001799999999994979      -1282109.759011257
0.0020999999999949874     -1255788.074706439
0.0023999999999949955     -1225641.182822215
0.002699999999995004      -1191741.5409602607
0.0029999999999950127     -1154212.113512626
0.003299999999995021      -1113169.5947189538
0.003599999999995028      -1068713.1464151416
0.003899999999995038      -1021004.4854990244
0.004199999999995046      -970191.1272095162
0.004499999999995054      -916396.2200456711
0.0047999999999950626     -859815.801491419
0.005099999999995069      -800624.1650687486
0.005399999999995078      -738965.0710032381
0.005699999999995085      -675063.5048759195
0.005999999999995094      -609115.7619044066
0.006299999999995104      -541282.2742324233
0.006599999999995111      -471825.0921519625
0.006899999999995119      -400914.28570897656
0.007199999999995125      -328765.4095702325
0.0074999999999951356     -255642.9025387116
0.0077999999999951415     -181725.5851393473
0.008099999999995153      -107238.59070474893
0.00839999999999516       -32454.711656478576
0.008699999999995165      42443.3816530455
0.008999999999995173      117227.14709781212
0.00929999999999518       191622.91462889186
0.009599999999995194      265449.17022333713
0.009899999999995199      338480.22625480435
0.010199999999995206      410449.03508919885
0.010499999999995216      481180.2135002841
0.010799999999995225      550457.1134255073
0.011099999999995237      618026.6281979259
0.011399999999995242      683724.3118388627
0.01169999999999525       747348.4931801914
0.011999999999995258      808666.9430165021
0.012299999999995268      867530.6593273551
0.012599999999995276      923758.4747217725
0.012899999999995285      977145.4017948032
0.013199999999995292      1027571.9056125826
0.0134999999999953        1074852.468532551
0.013799999999995309      1118844.7817132517
0.014099999999995314      1159440.4053701158
0.014399999999995328      1196489.6803258024
0.014699999999995333      1229881.7518075178
0.014999999999995343      1259533.9551949895
0.015299999999995354      1285336.5912477914
0.015599999999995364      1307213.297284485
0.015899999999995366      1325109.4493056533
0.01619999999999538       1338958.3143619164
0.016499999999995393      1348720.1146147114
0.016799999999995395      1354369.763680787
0.017099999999995407      1355885.323745424
0.017399999999995416      1353264.6919415887
0.017699999999995417      1346513.0070037376
0.017999999999995433      1335653.7274693123
0.01829999999999544       1320722.4830710369
0.018599999999995443      1301754.4968331223
0.01889999999999546       1278823.0447707064
0.01919999999999546       1251985.3207163846
0.01949999999999548       1221320.858736707
0.019799999999995484      1186943.0559552861
0.020099999999995486      1148936.975454245
0.020399999999995495      1107416.4101074615
0.02069999999999551       1062534.3946452572
0.020999999999995522      1014401.5302095468
0.021299999999995527      963162.749939308
0.021599999999995536      909006.5321823102
0.021899999999995545      852065.9850875005
0.022199999999995546      792513.2100895771
0.022499999999995562      730566.9638400269
0.02279999999999557       666379.2135884351
0.023099999999995572      600144.5125749143
0.023399999999995588      532105.9006259613
0.02369999999999559       462430.0393775656
0.023999999999995608      391328.60205486015
0.024299999999995613      319062.2510507708
0.024599999999995615      245807.77495325363
0.024899999999995624      171788.1659789162
0.02519999999999564       97274.56553047984
0.02549999999999564       22433.811772039724
0.025799999999995656      -52460.19805393096
0.026099999999995665      -127178.9715106123
0.026399999999995677      -201539.97862859952
0.026699999999995682      -275270.8696719135
0.026999999999995684      -348147.11683547415
0.0272999999999957        -419990.4827431399
0.0275999999999957        -490537.6290232538
0.02789999999999572       -559574.1457864504
0.02819999999999573       -626930.9729103784
0.028499999999995727      -692361.0002945602
0.02879999999999574       -755665.8119533942
0.029099999999995737      -816690.1581865663
0.029399999999995763      -875209.9293173315
0.029699999999995765      -931048.140930478
0.02999999999999577       -984067.608444504
0.03029999999999579       -1034073.3644165766
0.03059999999999579       -1080914.7063408524
0.03089999999999581       -1124476.2743465488
0.031199999999995814      -1164597.58639545
0.03149999999999581       -1201158.3519569014
0.031799999999995825      -1234068.1973540718
0.03209999999999584       -1263199.987262544
0.03239999999999585       -1288483.750049445
0.032699999999995864      -1309839.9646502838
0.03299999999999586       -1327191.6658104798
0.033299999999995875      -1340497.7112301146
0.03359999999999586       -1349715.018932584
0.03389999999999589       -1354811.1006092937
0.0341999999999959        -1355774.770815612
0.0344999999999959        -1352600.5673426804
0.034799999999995904      -1345301.369183937
0.035099999999995926      -1333896.25429216
0.035399999999995935      -1318417.5299207692
0.035699999999995936      -1298923.089411281
0.03599999999999594       -1275461.751274977
0.036299999999995954      -1248102.7068340662
0.03659999999999597       -1216947.2771869635
0.03689999999999598       -1182072.6835123887
0.03719999999999599       -1143583.1049846327
0.03749999999999599       -1101620.5137105293
0.037799999999996         -1056278.8651455138
0.03809999999999601       -1007723.1275899839
0.03839999999999602       -956103.3770046171
0.03869999999999603       -901544.7436241192
0.03899999999999604       -844246.074007971
0.03929999999999604       -784383.8249348737
0.039599999999996055      -722103.4088930397
0.03989999999999606       -657632.1012027954
0.040199999999996065      -591167.9035934593
0.04049999999999606       -522872.5257271356
0.04079999999999608       -452995.44311257434
0.04109999999999608       -381750.7761161369
0.04139999999999611       -309312.0998378195
0.04169999999999611       -235944.2529949557
0.0419999999999961        -161871.60653889098
0.04229999999999613       -87274.84411622096
0.04259999999999614       -12426.909627363171
0.04289999999999615       62443.72438717303
0.04319999999999616       137154.21743238438
0.04349999999999617       211431.00055207557
0.04379999999999617       285047.76099494076
0.044099999999996184      357824.5122599402
0.044399999999996186      429480.10756536626
0.0446999999999962        499839.9462924333
0.04499999999999619       568688.4783746883
0.04529999999999621       635774.182348312
0.045599999999996206      700933.8102898842
0.045899999999996235      763967.3002513264
0.046199999999996244      824644.60098971
0.04649999999999623       882818.2911565512
0.04679999999999626       938309.2797047157
0.04709999999999627       990915.290262677
0.04739999999999628       1040508.7681982474
0.04769999999999629       1086936.501447249
0.047999999999996296      1130029.5319652262
0.04829999999999628       1169683.667512353
0.04859999999999631       1205775.773843537
0.048899999999996314      1238174.8416320612
0.04919999999999632       1266802.8964658477
0.04949999999999634       1291570.2564555733
0.04979999999999634       1312387.4513520862
0.050099999999996335      1329207.8707576853
0.050399999999996364      1341968.715123561
0.050699999999996366      1350633.533036473
0.05099999999999638       1355179.9143664276
0.05129999999999638       1355589.9585373835
0.0515999999999964        1351864.9363549706
0.05189999999999641       1344012.6839775478
0.052199999999996416      1332060.6903750459
0.052499999999996404      1316047.9137454175
0.052799999999996426      1296012.2217827197
0.05309999999999644       1272025.7396570363
0.05339999999999644       1244164.0452927318
0.05369999999999645       1212494.000140701
0.053999999999996474      1177130.3889503716
0.05429999999999647       1138183.338129236
0.054599999999996464      1095746.8705186285
0.05489999999999649       1049975.2847242851
0.055199999999996495      1001010.2375756619
0.05549999999999652       948970.3365707305
0.05579999999999651       894045.1655554536
0.05609999999999653       836404.0296108489
0.05639999999999652       776186.8704173987
0.056699999999996545      713626.3153245405
0.05699999999999654       648875.8160881524
0.05729999999999655       582131.6751071162
0.05759999999999655       513638.7804666756
0.057899999999996565      443564.88608339295
0.05819999999999659       372122.9144193012
0.0584999999999966        299574.75667395315
0.05879999999999659       226097.871548456
0.05909999999999659       151915.96635485213
0.05939999999999661       77300.75815960973
0.05969999999999662       2434.5471150275903
0.05999999999999662       -72454.30540163767
0.060299999999996655      -147091.70298148174
0.06059999999999666       -221295.50003104686
0.06089999999999665       -294838.93944972666
0.061199999999996674      -367453.057210314
0.06149999999999667       -438960.8540561708
0.06179999999999668       -509143.3915339835
0.0620999999999967        -577744.2090729562
0.062399999999996694      -644596.3044906259
0.06269999999999668       -709494.5580852451
0.06299999999999673       -772202.0411486779
0.06329999999999672       -832578.3496938024
0.06359999999999671       -890401.7310947343
0.06389999999999675       -945497.3547048129
0.06419999999999676       -997729.8353495197
0.06449999999999675       -1046907.0732727236
0.06479999999999676       -1092880.9186257857
0.06509999999999679       -1135538.1181932874
0.06539999999999678       -1174721.489663391
0.06569999999999679       -1210313.6240930064
0.06599999999999681       -1242226.5039867917
0.0662999999999968        -1270342.1721134433
0.06659999999999681       -1294577.1780865325
0.06689999999999682       -1314871.1522653396
0.0671999999999968        -1331148.5951915763
0.06749999999999687       -1343362.302018924
0.06779999999999685       -1351481.2054307912
0.06809999999999684       -1355474.3328205799
0.06839999999999687       -1355332.0185559427
0.06869999999999689       -1351053.3490571296
0.0689999999999969        -1342654.8534781395
0.06929999999999689       -1330158.2920238525
0.06959999999999691       -1313599.3081557462
0.06989999999999692       -1293039.7455141852
0.07019999999999692       -1268531.0183902734
0.07049999999999694       -1240145.5258670852
0.07079999999999693       -1207988.339418135
0.07109999999999694       -1172139.1183927613
0.07139999999999697       -1132705.033368793
0.07169999999999696       -1089831.5041257737
0.07199999999999697       -1043624.2519748928
0.07229999999999698       -994222.2819323406
0.07259999999999699       -941807.3767963074
0.072899999999997         -886508.4225008091
0.07319999999999702       -828492.4490116943
0.07349999999999698       -767972.6203138212
0.07379999999999702       -705097.4547923342
0.07409999999999704       -640057.4298400166
0.07439999999999702       -573091.2487726733
0.07469999999999705       -504362.9922166423
0.07499999999999703       -434081.3648792695
0.0752999999999971        -362504.0676561586
0.07559999999999707       -289791.3642265165
0.0758999999999971        -216209.11441409812
0.0761999999999971        -141982.30684213302
0.07649999999999714       -67292.02003009955
0.07679999999999713       7588.441223439009
0.07709999999999716       82430.54234573153
0.07739999999999715       157051.49389119734
0.07769999999999715       231178.03611634177
0.07799999999999717       304584.35157620354
0.0782999999999972        377090.94932473666
0.07859999999999719       448432.10348025884
0.07889999999999721       518390.9023417517
0.07919999999999726       586796.0724874241
0.07949999999999727       653396.7042241619
0.07979999999999729       717990.7361502933
0.08009999999999726       780419.8061993681
0.0803999999999973        840454.6971366754
0.0806999999999973        897913.7354498338
0.08099999999999731       952655.8103981803
0.0812999999999973        1004469.4457110952
0.08159999999999734       1053229.0345003046
0.08189999999999734       1098783.8846435787
0.08219999999999737       1140968.2447206199
0.08249999999999737       1179680.1518236753
0.0827999999999974        1214799.327187923
0.08309999999999743       1246198.3317401381
0.08339999999999743       1273801.6408933117
0.08369999999999743       1297522.6855284842
0.08399999999999744       1317275.8314434413
0.08429999999999745       1333014.062156114
0.08459999999999746       1344686.8906568945
0.08489999999999749       1352252.8344542165
0.08519999999999749       1355694.6736822007
0.08549999999999751       1354999.3870539297
0.08579999999999749       1350170.7806376216
0.08609999999999753       1341221.903095891
0.08639999999999755       1328177.555727854
0.08669999999999756       1311086.7288539747
0.08699999999999757       1289992.382061945
0.08729999999999759       1264956.4595436973
0.08759999999999755       1236071.7932727803
0.08789999999999763       1203403.0567880806
0.08819999999999761       1167068.6985233382
0.08849999999999762       1127181.7890513986
0.08879999999999764       1083838.655926848
0.08909999999999767       1037196.9272420872
0.08939999999999769       987400.891877494
0.08969999999999766       934571.1986883449
0.08999999999999768       878900.3355667006
0.09029999999999773       820559.8554018742
0.09059999999999771       759691.4219180276
0.09089999999999773       696517.1075903942
0.09119999999999774       631231.0278436915
0.09149999999999776       563991.9789175208
0.09179999999999779       495045.53188248107
0.09209999999999775       424603.04488248646
0.0923999999999978        352836.09479326266
0.09269999999999781       280007.02130665653
0.09299999999999782       206338.63292857588
0.09329999999999782       132010.5850325814
0.09359999999999785       57294.79640433293
0.09389999999999789       -17580.58025513864
0.09419999999999787       -92432.73460876978
0.09449999999999786       -166972.50228176737
0.0947999999999979        -241017.99460329756
0.0950999999999979        -314342.9006422308
0.09539999999999793       -386679.07455886225
0.09569999999999795       -457850.21378480864
0.09599999999999793       -527638.3715852943
0.09629999999999797       -595788.5484364288
0.09659999999999794       -662134.8594884684
0.096899999999998         -726473.6951775642
0.097199999999998         -788570.1906222804
0.09749999999999799       -848273.4248254026
0.097799999999998         -905399.7054418226
0.09809999999999802       -959740.7387621446
0.09839999999999807       -1011164.7037638517
0.09869999999999807       -1059512.8593846231
0.09899999999999805       -1104609.1915500085
0.09929999999999808       -1146344.5917665772
0.0995999999999981        -1184589.620674128
0.09989999999999812       -1219205.3675280816
0.10019999999999812       -1250114.3265096953
0.10049999999999812       -1277202.2074314035
0.10079999999999815       -1300388.7096514928
0.10109999999999819       -1319616.017813665
0.10139999999999819       -1334812.5320654246
0.10169999999999815       -1345934.3535566928
0.10199999999999822       -1352953.078180304
0.10229999999999823       -1355841.7586382767
0.10259999999999822       -1354594.1009447074
0.10289999999999824       -1349211.8906660466
0.10319999999999824       -1339713.5715639226
0.10349999999999827       -1326130.6270045615
0.10379999999999827       -1308494.983293529
0.10409999999999828       -1286869.9697950874
0.10439999999999831       -1261323.984408864
0.10469999999999834       -1231918.2192385413
0.10499999999999836       -1198759.1536731075
0.10529999999999835       -1161950.2256859306
0.10559999999999835       -1121580.2161699838
0.10589999999999837       -1077795.8364388973
0.10619999999999838       -1030732.7297680306
0.10649999999999837       -980504.832774967
0.10679999999999842       -927306.1828971045
0.10709999999999843       -871267.5666801402
0.10739999999999844       -812558.2986498993
0.10769999999999842       -751394.0660861008
0.10799999999999844       -687924.9457398423
0.10829999999999847       -622343.2587179849
0.10859999999999849       -554889.6748448812
0.1088999999999985        -485729.44818945474
0.10919999999999853       -415072.63577902614
0.10949999999999852       -343178.29435581225
0.10979999999999852       -270222.3264249592
0.11009999999999853       -196426.76825145804
0.11039999999999858       -122061.96391802709
0.11069999999999858       -47309.64370388557
0.1109999999999986        27602.261898621848
0.1112999999999986        102399.53033404252
0.11159999999999858       176899.58395929125
0.11189999999999861       250874.8445922978
0.11219999999999862       324054.7263681422
0.11249999999999864       396260.80793628225
0.11279999999999867       467272.1002162508
0.11309999999999866       536829.0696228362
0.11339999999999864       604775.9759551829
0.11369999999999872       670863.5699542082
0.11399999999999873       734891.3885452527
0.11429999999999875       796702.4362161548
0.11459999999999873       856069.742435478
0.11489999999999873       912813.7002220659
0.11519999999999873       966794.930703968
0.11549999999999878       1017814.9622473443
0.11579999999999879       1065719.9661914587
0.11609999999999875       1110391.999994522
0.11639999999999881       1151666.5301367394
0.1166999999999988        1189419.7219231871
0.11699999999999881       1223558.3014897038
0.11729999999999882       1253956.182380461
0.11759999999999883       1280522.917641631
0.11789999999999884       1303192.4582507303
0.11819999999999883       1321880.6202127032
0.11849999999999883       1336532.8229300207
0.11879999999999885       1347112.0523771537
0.11909999999999885       1353577.4380224936
0.11939999999999888       1355914.4490504726
0.1196999999999989        1354113.4331313898
0.11999999999999891       1348182.2413610425
0.12029999999999892       1338136.6133406453
0.1205999999999989        1324004.700422744
0.12089999999999892       1305839.4671867748
0.12119999999999895       1283686.4923168567
0.12149999999999896       1257610.9591418642
0.12179999999999899       1227709.4934412322
0.12209999999999899       1194056.2639561875
0.12239999999999902       1156751.6992576087
0.12269999999999903       1115933.4371178062
0.12299999999999899       1071702.2037835382
0.12329999999999901       1024190.920235497
0.12359999999999906       973574.4624250849
0.12389999999999905       919977.3537878484
0.12419999999999906       863561.3641121257
0.12449999999999907       804533.812190722
0.12479999999999908       743039.6062267668
0.12509999999999913       679264.9301338074
0.1253999999999991        613443.8595360804
0.12569999999999912       545723.7779636533
0.12599999999999914       476351.99444347806
0.12629999999999914       405541.1042551883
0.12659999999999913       333463.60641496925
0.12689999999999915       260382.93348333056
0.12719999999999915       186522.58447287133
0.12749999999999917       112062.70965862626
0.12779999999999922       37275.63277620363
0.12809999999999921       -37610.37669312752
0.1283999999999992        -112412.45160422093
0.1286999999999992        -186856.86012047177
0.12899999999999925       -260716.8306956762
0.12929999999999922       -333811.78666811687
0.12959999999999927       -405874.1205023564
0.1298999999999993        -476684.7926540477
0.13019999999999932       -546070.4592542539
0.13049999999999928       -613777.0180098361
0.1307999999999993        -679599.1937717653
0.1310999999999993        -743375.6159872749
0.13139999999999932       -804860.5847971836
0.13169999999999935       -863904.6757818683
0.13199999999999937       -920326.48292263
0.13229999999999936       -973921.2219637093
0.13259999999999936       -1024558.88792989
0.13289999999999932       -1072083.5814659004
0.13319999999999937       -1116323.7203807193
0.13349999999999937       -1157172.2657290956
0.1337999999999994        -1194503.1796335466
0.1340999999999994        -1228183.0545476326
0.1343999999999994        -1258130.7254835472
0.13469999999999946       -1284253.593325362
0.13499999999999945       -1306460.485122252
0.1352999999999995        -1324698.2941338331
0.13559999999999947       -1338910.5803769547
0.1358999999999995        -1349051.5020423813
0.13619999999999952       -1355097.4031364277
0.13649999999999954       -1357029.8175128018
0.13679999999999953       -1354850.3656491465
0.13709999999999956       -1348565.391856672
0.13739999999999952       -1338195.2972839333
0.13769999999999954       -1323790.3804562995
0.1379999999999996        -1305379.868639075
0.1382999999999996        -1283043.3857075134
0.1385999999999996        -1256859.940410626
0.1388999999999996        -1226890.4254980548
0.1391999999999996        -1193263.1462968637
0.13949999999999962       -1156095.1951998621
0.13979999999999965       -1115473.4565916292
0.14009999999999967       -1071574.1481358262
0.1403999999999997        -1024550.6224674229
0.1406999999999997        -974512.6224721838
0.14099999999999963       -921682.8585631887
0.14129999999999973       -866248.2289346753
0.14159999999999975       -808337.3015120268
0.1418999999999997        -748216.8408105703
0.14219999999999974       -686103.2105663195
0.14249999999999974       -622138.9632770465
0.14279999999999976       -556630.1800254957
0.14309999999999978       -489815.9713457598
0.1433999999999998        -421847.44935140247
0.1436999999999998        -353059.7454280214
0.14399999999999985       -283702.56834077183
0.14429999999999985       -213930.0319325461
0.14459999999999978       -144113.43682936666
0.14489999999999983       -74401.70002576424
0.14519999999999983       -5035.83191393585
0.14549999999999985       63692.87569123636
0.1457999999999999        131651.64043994586
0.1460999999999999        198639.39768458306
0.14639999999999992       264495.4840582436
0.14669999999999989       329110.21431987116
0.14699999999999996       392369.1966128602
0.14729999999999993       454328.60014481354
0.14759999999999995       514897.210111074
0.14789999999999995       574083.5211363479
0.14819999999999997       632163.1992648536
0.1485                    689039.8495862716
0.14880000000000002       744812.9590808768
0.14909999999999998       799860.57213011
0.1494                    854055.4720216944
0.14970000000000006       907518.208161592
0.15                      960702.5270514261
