$MeshFormat
2.2 0 8
$EndMeshFormat
$PhysicalNames
4
1 1 "SURFACE"
1 2 "LEFT"
1 3 "BOTTOM"
2 4 "FLUID"
$EndPhysicalNames
$Nodes
306
1 75 0 0
2 -75 0 0
3 -75 -20 0
4 75 -20 0
5 71.99999999999288 0 0
6 68.99999999998577 0 0
7 65.99999999997866 0 0
8 62.99999999997564 0 0
9 59.99999999998274 0 0
10 56.99999999998984 0 0
11 53.99999999999694 0 0
12 51.00000000000404 0 0
13 48.00000000001114 0 0
14 45.00000000001824 0 0
15 42.00000000002534 0 0
16 39.00000000003244 0 0
17 36.00000000003954 0 0
18 33.00000000004664 0 0
19 30.00000000005375 0 0
20 27.00000000006084 0 0
21 24.00000000006794 0 0
22 21.00000000007504 0 0
23 18.00000000008214 0 0
24 15.00000000008924 0 0
25 12.00000000009634 0 0
26 9.000000000113531 0 0
27 6.000000000134833 0 0
28 3.000000000156135 0 0
29 1.746656153045478e-10 0 0
30 -2.999999999829669 0 0
31 -5.999999999836774 0 0
32 -8.999999999843865 0 0
33 -11.99999999985096 0 0
34 -14.99999999985806 0 0
35 -17.99999999986515 0 0
36 -20.99999999987226 0 0
37 -23.99999999987935 0 0
38 -26.99999999988646 0 0
39 -29.99999999989355 0 0
40 -32.99999999990064 0 0
41 -35.99999999990774 0 0
42 -38.99999999991482 0 0
43 -41.99999999992191 0 0
44 -44.99999999992902 0 0
45 -47.99999999993611 0 0
46 -50.99999999994321 0 0
47 -53.99999999995029 0 0
48 -56.9999999999574 0 0
49 -59.9999999999645 0 0
50 -62.99999999997161 0 0
51 -65.99999999997868 0 0
52 -68.99999999998579 0 0
53 -71.99999999999289 0 0
54 -75 -3.999999999993648 0
55 -75 -7.999999999982034 0
56 -75 -11.99999999998784 0
57 -75 -15.99999999999392 0
58 -71.99999999999288 -20 0
59 -68.99999999998577 -20 0
60 -65.99999999997866 -20 0
61 -62.99999999997564 -20 0
62 -59.99999999998274 -20 0
63 -56.99999999998984 -20 0
64 -53.99999999999694 -20 0
65 -51.00000000000404 -20 0
66 -48.00000000001114 -20 0
67 -45.00000000001824 -20 0
68 -42.00000000002534 -20 0
69 -39.00000000003244 -20 0
70 -36.00000000003954 -20 0
71 -33.00000000004664 -20 0
72 -30.00000000005375 -20 0
73 -27.00000000006084 -20 0
74 -24.00000000006794 -20 0
75 -21.00000000007504 -20 0
76 -18.00000000008214 -20 0
77 -15.00000000008924 -20 0
78 -12.00000000009634 -20 0
79 -9.000000000113531 -20 0
80 -6.000000000134833 -20 0
81 -3.000000000156135 -20 0
82 -1.746656153045478e-10 -20 0
83 2.999999999829669 -20 0
84 5.999999999836774 -20 0
85 8.999999999843865 -20 0
86 11.99999999985096 -20 0
87 14.99999999985806 -20 0
88 17.99999999986515 -20 0
89 20.99999999987226 -20 0
90 23.99999999987935 -20 0
91 26.99999999988646 -20 0
92 29.99999999989355 -20 0
93 32.99999999990064 -20 0
94 35.99999999990774 -20 0
95 38.99999999991482 -20 0
96 41.99999999992191 -20 0
97 44.99999999992902 -20 0
98 47.99999999993611 -20 0
99 50.99999999994321 -20 0
100 53.99999999995029 -20 0
101 56.9999999999574 -20 0
102 59.9999999999645 -20 0
103 62.99999999997161 -20 0
104 65.99999999997868 -20 0
105 68.99999999998579 -20 0
106 71.99999999999289 -20 0
107 75 -15.99999999999999 0
108 75 -11.99999999999999 0
109 75 -7.999999999999993 0
110 75 -3.999999999999996 0
111 71.99999999999288 -3.99999999999987 0
112 71.99999999999288 -7.999999999999634 0
113 71.99999999999291 -11.99999999999975 0
114 71.99999999999291 -15.99999999999987 0
115 68.99999999998579 -3.999999999999742 0
116 68.99999999998576 -7.999999999999275 0
117 68.99999999998575 -11.99999999999951 0
118 68.99999999998577 -15.99999999999975 0
119 65.99999999997866 -3.999999999999616 0
120 65.99999999997866 -7.999999999998916 0
121 65.99999999997866 -11.99999999999927 0
122 65.99999999997866 -15.99999999999963 0
123 62.99999999997483 -3.999999999999489 0
124 62.99999999997402 -7.999999999998558 0
125 62.99999999997323 -11.99999999999902 0
126 62.99999999997244 -15.99999999999951 0
127 59.9999999999791 -3.999999999999363 0
128 59.99999999997545 -7.999999999998198 0
129 59.99999999997181 -11.99999999999878 0
130 59.99999999996815 -15.99999999999939 0
131 56.99999999998336 -3.999999999999235 0
132 56.99999999997686 -7.999999999997838 0
133 56.99999999997038 -11.99999999999853 0
134 56.99999999996389 -15.99999999999926 0
135 53.99999999998761 -3.999999999999108 0
136 53.99999999997829 -7.999999999997478 0
137 53.99999999996895 -11.99999999999829 0
138 53.99999999995963 -15.99999999999915 0
139 50.99999999999186 -3.999999999998981 0
140 50.99999999997969 -7.999999999997119 0
141 50.99999999996754 -11.99999999999805 0
142 50.99999999995538 -15.99999999999903 0
143 47.99999999999614 -3.999999999998854 0
144 47.99999999998112 -7.99999999999676 0
145 47.99999999996612 -11.9999999999978 0
146 47.99999999995111 -15.9999999999989 0
147 45.00000000000039 -3.999999999998728 0
148 44.99999999998256 -7.999999999996401 0
149 44.99999999996471 -11.99999999999756 0
150 44.99999999994687 -15.99999999999878 0
151 42.00000000000465 -3.9999999999986 0
152 41.99999999998396 -7.999999999996042 0
153 41.99999999996328 -11.99999999999732 0
154 41.99999999994261 -15.99999999999866 0
155 39.00000000000892 -3.999999999998474 0
156 38.99999999998538 -7.999999999995683 0
157 38.99999999996187 -11.99999999999708 0
158 38.99999999993835 -15.99999999999853 0
159 36.00000000001319 -3.999999999998346 0
160 35.99999999998683 -7.999999999995324 0
161 35.99999999996046 -11.99999999999683 0
162 35.9999999999341 -15.99999999999842 0
163 33.00000000001745 -3.999999999998219 0
164 32.99999999998823 -7.999999999994964 0
165 32.99999999995904 -11.99999999999659 0
166 32.99999999992984 -15.99999999999829 0
167 30.00000000002171 -3.999999999998091 0
168 29.99999999998967 -7.999999999994605 0
169 29.99999999995763 -11.99999999999634 0
170 29.99999999992557 -15.99999999999817 0
171 27.00000000002596 -3.999999999997966 0
172 26.99999999999109 -7.999999999994247 0
173 26.99999999995622 -11.9999999999961 0
174 26.99999999992134 -15.99999999999805 0
175 24.00000000003023 -3.999999999997838 0
176 23.9999999999925 -7.999999999993886 0
177 23.99999999995478 -11.99999999999586 0
178 23.99999999991707 -15.99999999999792 0
179 21.0000000000345 -3.999999999997711 0
180 20.99999999999393 -7.999999999993527 0
181 20.99999999995337 -11.99999999999562 0
182 20.99999999991282 -15.9999999999978 0
183 18.00000000003875 -3.999999999997583 0
184 17.99999999999535 -7.999999999993168 0
185 17.99999999995195 -11.99999999999537 0
186 17.99999999990855 -15.99999999999769 0
187 15.00000000004301 -3.999999999997458 0
188 14.99999999999677 -7.999999999992809 0
189 14.99999999995055 -11.99999999999513 0
190 14.9999999999043 -15.99999999999756 0
191 12.00000000004727 -3.99999999999733 0
192 11.99999999999819 -7.999999999992449 0
193 11.99999999994911 -11.99999999999489 0
194 11.99999999990003 -15.99999999999744 0
195 9.000000000059599 -3.999999999997204 0
196 9.000000000005667 -7.999999999992092 0
197 8.999999999951733 -11.99999999999465 0
198 8.999999999897788 -15.99999999999732 0
199 6.00000000007523 -3.999999999997076 0
200 6.000000000015612 -7.999999999991733 0
201 5.999999999955996 -11.9999999999944 0
202 5.999999999896382 -15.9999999999972 0
203 3.000000000090844 -3.99999999999695 0
204 3.000000000025555 -7.999999999991374 0
205 2.999999999960256 -11.99999999999416 0
206 2.999999999894966 -15.99999999999708 0
207 1.047993691828396e-10 -3.999999999996822 0
208 3.493134670438396e-11 -7.999999999991014 0
209 -3.493667577437595e-11 -11.99999999999391 0
210 -1.048029218963013e-10 -15.99999999999696 0
211 -2.999999999894957 -3.999999999996696 0
212 -2.999999999960251 -7.999999999990653 0
213 -3.000000000025548 -11.99999999999367 0
214 -3.000000000090838 -15.99999999999684 0
215 -5.99999999989639 -3.999999999996568 0
216 -5.999999999956005 -7.999999999990296 0
217 -6.000000000015618 -11.99999999999343 0
218 -6.000000000075225 -15.99999999999672 0
219 -8.99999999989779 -3.999999999996442 0
220 -8.999999999951729 -7.999999999989935 0
221 -9.000000000005656 -11.99999999999319 0
222 -9.000000000059593 -15.99999999999659 0
223 -11.99999999990003 -3.999999999996314 0
224 -11.9999999999491 -7.999999999989576 0
225 -11.99999999999818 -11.99999999999294 0
226 -12.00000000004726 -15.99999999999647 0
227 -14.9999999999043 -3.999999999996187 0
228 -14.99999999995054 -7.999999999989218 0
229 -14.99999999999678 -11.9999999999927 0
230 -15.00000000004301 -15.99999999999635 0
231 -17.99999999990855 -3.99999999999606 0
232 -17.99999999995195 -7.999999999988859 0
233 -17.99999999999535 -11.99999999999246 0
234 -18.00000000003874 -15.99999999999623 0
235 -20.99999999991282 -3.999999999995933 0
236 -20.99999999995337 -7.9999999999885 0
237 -20.99999999999393 -11.99999999999221 0
238 -21.00000000003448 -15.99999999999611 0
239 -23.99999999991707 -3.999999999995807 0
240 -23.99999999995478 -7.999999999988141 0
241 -23.9999999999925 -11.99999999999197 0
242 -24.00000000003022 -15.99999999999598 0
243 -26.99999999992133 -3.999999999995679 0
244 -26.99999999995621 -7.99999999998778 0
245 -26.99999999999108 -11.99999999999173 0
246 -27.00000000002596 -15.99999999999586 0
247 -29.99999999992558 -3.999999999995553 0
248 -29.99999999995763 -7.999999999987422 0
249 -29.99999999998967 -11.99999999999148 0
250 -30.0000000000217 -15.99999999999574 0
251 -32.99999999992983 -3.999999999995425 0
252 -32.99999999995904 -7.999999999987063 0
253 -32.99999999998822 -11.99999999999124 0
254 -33.00000000001744 -15.99999999999562 0
255 -35.9999999999341 -3.999999999995299 0
256 -35.99999999996047 -7.999999999986702 0
257 -35.99999999998681 -11.999999999991 0
258 -36.00000000001319 -15.9999999999955 0
259 -38.99999999993834 -3.999999999995171 0
260 -38.99999999996186 -7.999999999986344 0
261 -38.99999999998539 -11.99999999999076 0
262 -39.00000000000892 -15.99999999999538 0
263 -41.9999999999426 -3.999999999995045 0
264 -41.99999999996329 -7.999999999985984 0
265 -41.99999999998396 -11.99999999999051 0
266 -42.00000000000464 -15.99999999999526 0
267 -44.99999999994687 -3.999999999994917 0
268 -44.99999999996471 -7.999999999985626 0
269 -44.99999999998256 -11.99999999999027 0
270 -45.00000000000041 -15.99999999999514 0
271 -47.99999999995111 -3.999999999994791 0
272 -47.99999999996613 -7.999999999985267 0
273 -47.99999999998112 -11.99999999999003 0
274 -47.99999999999613 -15.99999999999501 0
275 -50.99999999995538 -3.999999999994663 0
276 -50.99999999996754 -7.999999999984908 0
277 -50.99999999997971 -11.99999999998979 0
278 -50.99999999999189 -15.99999999999489 0
279 -53.99999999995961 -3.999999999994537 0
280 -53.99999999996896 -7.99999999998455 0
281 -53.99999999997829 -11.99999999998954 0
282 -53.99999999998761 -15.99999999999477 0
283 -56.99999999996389 -3.999999999994409 0
284 -56.99999999997037 -7.999999999984189 0
285 -56.99999999997686 -11.9999999999893 0
286 -56.99999999998335 -15.99999999999465 0
287 -59.99999999996815 -3.999999999994283 0
288 -59.99999999997181 -7.999999999983831 0
289 -59.99999999997545 -11.99999999998905 0
290 -59.99999999997908 -15.99999999999453 0
291 -62.99999999997242 -3.999999999994155 0
292 -62.99999999997321 -7.999999999983469 0
293 -62.99999999997402 -11.99999999998881 0
294 -62.99999999997485 -15.99999999999441 0
295 -65.9999999999787 -3.999999999994029 0
296 -65.99999999997867 -7.999999999983112 0
297 -65.99999999997868 -11.99999999998857 0
298 -65.99999999997866 -15.99999999999429 0
299 -68.99999999998575 -3.999999999993902 0
300 -68.99999999998579 -7.999999999982752 0
301 -68.9999999999858 -11.99999999998833 0
302 -68.99999999998579 -15.99999999999417 0
303 -71.99999999999291 -3.999999999993775 0
304 -71.99999999999291 -7.999999999982394 0
305 -71.99999999999291 -11.99999999998808 0
306 -71.99999999999291 -15.99999999999404 0
$EndNodes
$Elements
355
1 1 2 1 1 1 5
2 1 2 1 1 5 6
3 1 2 1 1 6 7
4 1 2 1 1 7 8
5 1 2 1 1 8 9
6 1 2 1 1 9 10
7 1 2 1 1 10 11
8 1 2 1 1 11 12
9 1 2 1 1 12 13
10 1 2 1 1 13 14
11 1 2 1 1 14 15
12 1 2 1 1 15 16
13 1 2 1 1 16 17
14 1 2 1 1 17 18
15 1 2 1 1 18 19
16 1 2 1 1 19 20
17 1 2 1 1 20 21
18 1 2 1 1 21 22
19 1 2 1 1 22 23
20 1 2 1 1 23 24
21 1 2 1 1 24 25
22 1 2 1 1 25 26
23 1 2 1 1 26 27
24 1 2 1 1 27 28
25 1 2 1 1 28 29
26 1 2 1 1 29 30
27 1 2 1 1 30 31
28 1 2 1 1 31 32
29 1 2 1 1 32 33
30 1 2 1 1 33 34
31 1 2 1 1 34 35
32 1 2 1 1 35 36
33 1 2 1 1 36 37
34 1 2 1 1 37 38
35 1 2 1 1 38 39
36 1 2 1 1 39 40
37 1 2 1 1 40 41
38 1 2 1 1 41 42
39 1 2 1 1 42 43
40 1 2 1 1 43 44
41 1 2 1 1 44 45
42 1 2 1 1 45 46
43 1 2 1 1 46 47
44 1 2 1 1 47 48
45 1 2 1 1 48 49
46 1 2 1 1 49 50
47 1 2 1 1 50 51
48 1 2 1 1 51 52
49 1 2 1 1 52 53
50 1 2 1 1 53 2
51 1 2 2 2 2 54
52 1 2 2 2 54 55
53 1 2 2 2 55 56
54 1 2 2 2 56 57
55 1 2 2 2 57 3
56 1 2 3 3 3 58
57 1 2 3 3 58 59
58 1 2 3 3 59 60
59 1 2 3 3 60 61
60 1 2 3 3 61 62
61 1 2 3 3 62 63
62 1 2 3 3 63 64
63 1 2 3 3 64 65
64 1 2 3 3 65 66
65 1 2 3 3 66 67
66 1 2 3 3 67 68
67 1 2 3 3 68 69
68 1 2 3 3 69 70
69 1 2 3 3 70 71
70 1 2 3 3 71 72
71 1 2 3 3 72 73
72 1 2 3 3 73 74
73 1 2 3 3 74 75
74 1 2 3 3 75 76
75 1 2 3 3 76 77
76 1 2 3 3 77 78
77 1 2 3 3 78 79
78 1 2 3 3 79 80
79 1 2 3 3 80 81
80 1 2 3 3 81 82
81 1 2 3 3 82 83
82 1 2 3 3 83 84
83 1 2 3 3 84 85
84 1 2 3 3 85 86
85 1 2 3 3 86 87
86 1 2 3 3 87 88
87 1 2 3 3 88 89
88 1 2 3 3 89 90
89 1 2 3 3 90 91
90 1 2 3 3 91 92
91 1 2 3 3 92 93
92 1 2 3 3 93 94
93 1 2 3 3 94 95
94 1 2 3 3 95 96
95 1 2 3 3 96 97
96 1 2 3 3 97 98
97 1 2 3 3 98 99
98 1 2 3 3 99 100
99 1 2 3 3 100 101
100 1 2 3 3 101 102
101 1 2 3 3 102 103
102 1 2 3 3 103 104
103 1 2 3 3 104 105
104 1 2 3 3 105 106
105 1 2 3 3 106 4
106 3 2 4 10 1 5 111 110
107 3 2 4 10 110 111 112 109
108 3 2 4 10 109 112 113 108
109 3 2 4 10 108 113 114 107
110 3 2 4 10 107 114 106 4
111 3 2 4 10 5 6 115 111
112 3 2 4 10 111 115 116 112
113 3 2 4 10 112 116 117 113
114 3 2 4 10 113 117 118 114
115 3 2 4 10 114 118 105 106
116 3 2 4 10 6 7 119 115
117 3 2 4 10 115 119 120 116
118 3 2 4 10 116 120 121 117
119 3 2 4 10 117 121 122 118
120 3 2 4 10 118 122 104 105
121 3 2 4 10 7 8 123 119
122 3 2 4 10 119 123 124 120
123 3 2 4 10 120 124 125 121
124 3 2 4 10 121 125 126 122
125 3 2 4 10 122 126 103 104
126 3 2 4 10 8 9 127 123
127 3 2 4 10 123 127 128 124
128 3 2 4 10 124 128 129 125
129 3 2 4 10 125 129 130 126
130 3 2 4 10 126 130 102 103
131 3 2 4 10 9 10 131 127
132 3 2 4 10 127 131 132 128
133 3 2 4 10 128 132 133 129
134 3 2 4 10 129 133 134 130
135 3 2 4 10 130 134 101 102
136 3 2 4 10 10 11 135 131
137 3 2 4 10 131 135 136 132
138 3 2 4 10 132 136 137 133
139 3 2 4 10 133 137 138 134
140 3 2 4 10 134 138 100 101
141 3 2 4 10 11 12 139 135
142 3 2 4 10 135 139 140 136
143 3 2 4 10 136 140 141 137
144 3 2 4 10 137 141 142 138
145 3 2 4 10 138 142 99 100
146 3 2 4 10 12 13 143 139
147 3 2 4 10 139 143 144 140
148 3 2 4 10 140 144 145 141
149 3 2 4 10 141 145 146 142
150 3 2 4 10 142 146 98 99
151 3 2 4 10 13 14 147 143
152 3 2 4 10 143 147 148 144
153 3 2 4 10 144 148 149 145
154 3 2 4 10 145 149 150 146
155 3 2 4 10 146 150 97 98
156 3 2 4 10 14 15 151 147
157 3 2 4 10 147 151 152 148
158 3 2 4 10 148 152 153 149
159 3 2 4 10 149 153 154 150
160 3 2 4 10 150 154 96 97
161 3 2 4 10 15 16 155 151
162 3 2 4 10 151 155 156 152
163 3 2 4 10 152 156 157 153
164 3 2 4 10 153 157 158 154
165 3 2 4 10 154 158 95 96
166 3 2 4 10 16 17 159 155
167 3 2 4 10 155 159 160 156
168 3 2 4 10 156 160 161 157
169 3 2 4 10 157 161 162 158
170 3 2 4 10 158 162 94 95
171 3 2 4 10 17 18 163 159
172 3 2 4 10 159 163 164 160
173 3 2 4 10 160 164 165 161
174 3 2 4 10 161 165 166 162
175 3 2 4 10 162 166 93 94
176 3 2 4 10 18 19 167 163
177 3 2 4 10 163 167 168 164
178 3 2 4 10 164 168 169 165
179 3 2 4 10 165 169 170 166
180 3 2 4 10 166 170 92 93
181 3 2 4 10 19 20 171 167
182 3 2 4 10 167 171 172 168
183 3 2 4 10 168 172 173 169
184 3 2 4 10 169 173 174 170
185 3 2 4 10 170 174 91 92
186 3 2 4 10 20 21 175 171
187 3 2 4 10 171 175 176 172
188 3 2 4 10 172 176 177 173
189 3 2 4 10 173 177 178 174
190 3 2 4 10 174 178 90 91
191 3 2 4 10 21 22 179 175
192 3 2 4 10 175 179 180 176
193 3 2 4 10 176 180 181 177
194 3 2 4 10 177 181 182 178
195 3 2 4 10 178 182 89 90
196 3 2 4 10 22 23 183 179
197 3 2 4 10 179 183 184 180
198 3 2 4 10 180 184 185 181
199 3 2 4 10 181 185 186 182
200 3 2 4 10 182 186 88 89
201 3 2 4 10 23 24 187 183
202 3 2 4 10 183 187 188 184
203 3 2 4 10 184 188 189 185
204 3 2 4 10 185 189 190 186
205 3 2 4 10 186 190 87 88
206 3 2 4 10 24 25 191 187
207 3 2 4 10 187 191 192 188
208 3 2 4 10 188 192 193 189
209 3 2 4 10 189 193 194 190
210 3 2 4 10 190 194 86 87
211 3 2 4 10 25 26 195 191
212 3 2 4 10 191 195 196 192
213 3 2 4 10 192 196 197 193
214 3 2 4 10 193 197 198 194
215 3 2 4 10 194 198 85 86
216 3 2 4 10 26 27 199 195
217 3 2 4 10 195 199 200 196
218 3 2 4 10 196 200 201 197
219 3 2 4 10 197 201 202 198
220 3 2 4 10 198 202 84 85
221 3 2 4 10 27 28 203 199
222 3 2 4 10 199 203 204 200
223 3 2 4 10 200 204 205 201
224 3 2 4 10 201 205 206 202
225 3 2 4 10 202 206 83 84
226 3 2 4 10 28 29 207 203
227 3 2 4 10 203 207 208 204
228 3 2 4 10 204 208 209 205
229 3 2 4 10 205 209 210 206
230 3 2 4 10 206 210 82 83
231 3 2 4 10 29 30 211 207
232 3 2 4 10 207 211 212 208
233 3 2 4 10 208 212 213 209
234 3 2 4 10 209 213 214 210
235 3 2 4 10 210 214 81 82
236 3 2 4 10 30 31 215 211
237 3 2 4 10 211 215 216 212
238 3 2 4 10 212 216 217 213
239 3 2 4 10 213 217 218 214
240 3 2 4 10 214 218 80 81
241 3 2 4 10 31 32 219 215
242 3 2 4 10 215 219 220 216
243 3 2 4 10 216 220 221 217
244 3 2 4 10 217 221 222 218
245 3 2 4 10 218 222 79 80
246 3 2 4 10 32 33 223 219
247 3 2 4 10 219 223 224 220
248 3 2 4 10 220 224 225 221
249 3 2 4 10 221 225 226 222
250 3 2 4 10 222 226 78 79
251 3 2 4 10 33 34 227 223
252 3 2 4 10 223 227 228 224
253 3 2 4 10 224 228 229 225
254 3 2 4 10 225 229 230 226
255 3 2 4 10 226 230 77 78
256 3 2 4 10 34 35 231 227
257 3 2 4 10 227 231 232 228
258 3 2 4 10 228 232 233 229
259 3 2 4 10 229 233 234 230
260 3 2 4 10 230 234 76 77
261 3 2 4 10 35 36 235 231
262 3 2 4 10 231 235 236 232
263 3 2 4 10 232 236 237 233
264 3 2 4 10 233 237 238 234
265 3 2 4 10 234 238 75 76
266 3 2 4 10 36 37 239 235
267 3 2 4 10 235 239 240 236
268 3 2 4 10 236 240 241 237
269 3 2 4 10 237 241 242 238
270 3 2 4 10 238 242 74 75
271 3 2 4 10 37 38 243 239
272 3 2 4 10 239 243 244 240
273 3 2 4 10 240 244 245 241
274 3 2 4 10 241 245 246 242
275 3 2 4 10 242 246 73 74
276 3 2 4 10 38 39 247 243
277 3 2 4 10 243 247 248 244
278 3 2 4 10 244 248 249 245
279 3 2 4 10 245 249 250 246
280 3 2 4 10 246 250 72 73
281 3 2 4 10 39 40 251 247
282 3 2 4 10 247 251 252 248
283 3 2 4 10 248 252 253 249
284 3 2 4 10 249 253 254 250
285 3 2 4 10 250 254 71 72
286 3 2 4 10 40 41 255 251
287 3 2 4 10 251 255 256 252
288 3 2 4 10 252 256 257 253
289 3 2 4 10 253 257 258 254
290 3 2 4 10 254 258 70 71
291 3 2 4 10 41 42 259 255
292 3 2 4 10 255 259 260 256
293 3 2 4 10 256 260 261 257
294 3 2 4 10 257 261 262 258
295 3 2 4 10 258 262 69 70
296 3 2 4 10 42 43 263 259
297 3 2 4 10 259 263 264 260
298 3 2 4 10 260 264 265 261
299 3 2 4 10 261 265 266 262
300 3 2 4 10 262 266 68 69
301 3 2 4 10 43 44 267 263
302 3 2 4 10 263 267 268 264
303 3 2 4 10 264 268 269 265
304 3 2 4 10 265 269 270 266
305 3 2 4 10 266 270 67 68
306 3 2 4 10 44 45 271 267
307 3 2 4 10 267 271 272 268
308 3 2 4 10 268 272 273 269
309 3 2 4 10 269 273 274 270
310 3 2 4 10 270 274 66 67
311 3 2 4 10 45 46 275 271
312 3 2 4 10 271 275 276 272
313 3 2 4 10 272 276 277 273
314 3 2 4 10 273 277 278 274
315 3 2 4 10 274 278 65 66
316 3 2 4 10 46 47 279 275
317 3 2 4 10 275 279 280 276
318 3 2 4 10 276 280 281 277
319 3 2 4 10 277 281 282 278
320 3 2 4 10 278 282 64 65
321 3 2 4 10 47 48 283 279
322 3 2 4 10 279 283 284 280
323 3 2 4 10 280 284 285 281
324 3 2 4 10 281 285 286 282
325 3 2 4 10 282 286 63 64
326 3 2 4 10 48 49 287 283
327 3 2 4 10 283 287 288 284
328 3 2 4 10 284 288 289 285
329 3 2 4 10 285 289 290 286
330 3 2 4 10 286 290 62 63
331 3 2 4 10 49 50 291 287
332 3 2 4 10 287 291 292 288
333 3 2 4 10 288 292 293 289
334 3 2 4 10 289 293 294 290
335 3 2 4 10 290 294 61 62
336 3 2 4 10 50 51 295 291
337 3 2 4 10 291 295 296 292
338 3 2 4 10 292 296 297 293
339 3 2 4 10 293 297 298 294
340 3 2 4 10 294 298 60 61
341 3 2 4 10 51 52 299 295
342 3 2 4 10 295 299 300 296
343 3 2 4 10 296 300 301 297
344 3 2 4 10 297 301 302 298
345 3 2 4 10 298 302 59 60
346 3 2 4 10 52 53 303 299
347 3 2 4 10 299 303 304 300
348 3 2 4 10 300 304 305 301
349 3 2 4 10 301 305 306 302
350 3 2 4 10 302 306 58 59
351 3 2 4 10 53 2 54 303
352 3 2 4 10 303 54 55 304
353 3 2 4 10 304 55 56 305
354 3 2 4 10 305 56 57 306
355 3 2 4 10 306 57 3 58
$EndElements
