$MeshFormat
2.2 0 8
$EndMeshFormat
$Nodes
334
1 0 0.124 0.124
2 0.498 0.124 0.124
3 0 0.374 0.124
4 0.498 0.374 0.124
5 0.498 0.124 0.374
6 0.498 0.374 0.374
7 0 0.124 0.374
8 0 0.374 0.374
9 0.198 0.374 0.198
10 0.298 0.374 0.198
11 0.198 0.498 0.198
12 0.298 0.498 0.198
13 0.298 0.374 0.298
14 0.298 0.498 0.298
15 0.198 0.374 0.298
16 0.198 0.498 0.298
17 0.198 0 0.198
18 0.298 0 0.198
19 0.198 0.124 0.198
20 0.298 0.124 0.198
21 0.298 0 0.298
22 0.298 0.124 0.298
23 0.198 0 0.298
24 0.198 0.124 0.298
25 0.202 0.202 0.374
26 0.296 0.202 0.374
27 0.202 0.296 0.374
28 0.296 0.296 0.374
29 0.296 0.202 0.498
30 0.296 0.296 0.498
31 0.202 0.202 0.498
32 0.202 0.296 0.498
33 0.202 0.202 0
34 0.296 0.202 0
35 0.202 0.296 0
36 0.296 0.296 0
37 0.296 0.202 0.124
38 0.296 0.296 0.124
39 0.202 0.202 0.124
40 0.202 0.296 0.124
41 0.604 0.104 0
42 0.894 0.104 0
43 0.604 0.394 0
44 0.894 0.394 0
45 0.894 0.104 0.498
46 0.894 0.394 0.498
47 0.604 0.104 0.498
48 0.604 0.394 0.498
49 0.894 0.198 0.198
50 0.998 0.198 0.198
51 0.894 0.298 0.198
52 0.998 0.298 0.198
53 0.998 0.198 0.298
54 0.998 0.298 0.298
55 0.894 0.198 0.298
56 0.894 0.298 0.298
57 0.498 0.198 0.198
58 0.604 0.198 0.198
59 0.498 0.298 0.198
60 0.604 0.298 0.198
61 0.604 0.198 0.298
62 0.604 0.298 0.298
63 0.498 0.198 0.298
64 0.498 0.298 0.298
65 0.664 0.498 0.164
66 0.834 0.394 0.164
67 0.664 0.394 0.164
68 0.834 0.498 0.164
69 0.834 0.394 0.334
70 0.834 0.498 0.334
71 0.664 0.394 0.334
72 0.664 0.498 0.334
73 0.664 0.104 0.164
74 0.834 0 0.164
75 0.664 0 0.164
76 0.834 0.104 0.164
77 0.834 0 0.334
78 0.834 0.104 0.334
79 0.664 0 0.334
80 0.664 0.104 0.334
81 0.124 0.498 0.124
82 0.374 0.498 0.124
83 0.124 0.998 0.124
84 0.374 0.998 0.124
85 0.374 0.498 0.374
86 0.374 0.998 0.374
87 0.124 0.498 0.374
88 0.124 0.998 0.374
89 0.374 0.848 0.148
90 0.498 0.648 0.148
91 0.374 0.648 0.148
92 0.498 0.848 0.148
93 0.498 0.648 0.348
94 0.498 0.848 0.348
95 0.374 0.648 0.348
96 0.374 0.848 0.348
97 0 0.848 0.148
98 0.124 0.648 0.148
99 0 0.648 0.148
100 0.124 0.848 0.148
101 0.124 0.648 0.348
102 0.124 0.848 0.348
103 0 0.648 0.348
104 0 0.848 0.348
105 0.154 0.844 0.374
106 0.344 0.654 0.374
107 0.154 0.654 0.374
108 0.344 0.844 0.374
109 0.344 0.654 0.498
110 0.344 0.844 0.498
111 0.154 0.654 0.498
112 0.154 0.844 0.498
113 0.154 0.844 0
114 0.344 0.654 0
115 0.154 0.654 0
116 0.344 0.844 0
117 0.344 0.654 0.124
118 0.344 0.844 0.124
119 0.154 0.654 0.124
120 0.154 0.844 0.124
121 0.648 0.998 0.148
122 0.848 0.498 0.148
123 0.648 0.498 0.148
124 0.848 0.998 0.148
125 0.848 0.498 0.348
126 0.848 0.998 0.348
127 0.648 0.498 0.348
128 0.648 0.998 0.348
129 0.848 0.724 0.224
130 0.998 0.724 0.224
131 0.848 0.774 0.224
132 0.998 0.774 0.224
133 0.998 0.724 0.274
134 0.998 0.774 0.274
135 0.848 0.724 0.274
136 0.848 0.774 0.274
137 0.498 0.724 0.224
138 0.648 0.724 0.224
139 0.498 0.774 0.224
140 0.648 0.774 0.224
141 0.648 0.724 0.274
142 0.648 0.774 0.274
143 0.498 0.724 0.274
144 0.498 0.774 0.274
145 0.724 0.724 0.348
146 0.774 0.724 0.348
147 0.724 0.774 0.348
148 0.774 0.774 0.348
149 0.774 0.724 0.498
150 0.774 0.774 0.498
151 0.724 0.724 0.498
152 0.724 0.774 0.498
153 0.724 0.724 0
154 0.774 0.724 0
155 0.724 0.774 0
156 0.774 0.774 0
157 0.774 0.724 0.148
158 0.774 0.774 0.148
159 0.724 0.724 0.148
160 0.724 0.774 0.148
161 0.096 0.096 0.498
162 0.402 0.096 0.498
163 0.096 0.402 0.498
164 0.402 0.402 0.498
165 0.402 0.096 0.998
166 0.402 0.402 0.998
167 0.096 0.096 0.998
168 0.096 0.402 0.998
169 0.402 0.198 0.698
170 0.498 0.198 0.698
171 0.402 0.298 0.698
172 0.498 0.298 0.698
173 0.498 0.198 0.798
174 0.498 0.298 0.798
175 0.402 0.198 0.798
176 0.402 0.298 0.798
177 0 0.198 0.698
178 0.096 0.198 0.698
179 0 0.298 0.698
180 0.096 0.298 0.698
181 0.096 0.198 0.798
182 0.096 0.298 0.798
183 0 0.198 0.798
184 0 0.298 0.798
185 0.174 0.402 0.674
186 0.324 0.402 0.674
187 0.174 0.498 0.674
188 0.324 0.498 0.674
189 0.324 0.402 0.824
190 0.324 0.498 0.824
191 0.174 0.402 0.824
192 0.174 0.498 0.824
193 0.174 0 0.674
194 0.324 0 0.674
195 0.174 0.096 0.674
196 0.324 0.096 0.674
197 0.324 0 0.824
198 0.324 0.096 0.824
199 0.174 0 0.824
200 0.174 0.096 0.824
201 0.648 0.498 0.648
202 0.848 0 0.648
203 0.648 0 0.648
204 0.698 0.498 0.648
205 0.848 0.498 0.648
206 0.848 0 0.848
207 0.848 0.498 0.698
208 0.848 0.498 0.848
209 0.648 0 0.848
210 0.698 0.498 0.848
211 0.848 0.498 0.748
212 0.748 0.498 0.648
213 0.748 0.498 0.748
214 0.748 0.498 0.848
215 0.648 0.498 0.848
216 0.648 0.498 0.748
217 0.848 0.206 0.706
218 0.998 0.206 0.706
219 0.848 0.292 0.706
220 0.998 0.292 0.706
221 0.998 0.206 0.792
222 0.998 0.292 0.792
223 0.848 0.206 0.792
224 0.848 0.292 0.792
225 0.498 0.206 0.706
226 0.648 0.206 0.706
227 0.498 0.292 0.706
228 0.648 0.292 0.706
229 0.648 0.206 0.792
230 0.648 0.292 0.792
231 0.498 0.206 0.792
232 0.498 0.292 0.792
233 0.654 0.154 0.848
234 0.844 0.154 0.848
235 0.654 0.344 0.848
236 0.844 0.344 0.848
237 0.844 0.154 0.998
238 0.844 0.344 0.998
239 0.654 0.154 0.998
240 0.654 0.344 0.998
241 0.654 0.154 0.498
242 0.844 0.154 0.498
243 0.654 0.344 0.498
244 0.844 0.344 0.498
245 0.844 0.154 0.648
246 0.844 0.344 0.648
247 0.654 0.154 0.648
248 0.654 0.344 0.648
249 0 0.902 0.596
250 0.498 0.596 0.596
251 0 0.596 0.596
252 0.498 0.902 0.596
253 0.498 0.596 0.902
254 0.498 0.902 0.902
255 0 0.596 0.902
256 0 0.902 0.902
257 0.224 0.902 0.724
258 0.274 0.902 0.724
259 0.224 0.998 0.724
260 0.274 0.998 0.724
261 0.274 0.902 0.774
262 0.274 0.998 0.774
263 0.224 0.902 0.774
264 0.224 0.998 0.774
265 0.224 0.498 0.724
266 0.274 0.498 0.724
267 0.224 0.596 0.724
268 0.274 0.596 0.724
269 0.274 0.498 0.774
270 0.274 0.596 0.774
271 0.224 0.498 0.774
272 0.224 0.596 0.774
273 0.096 0.596 0.902
274 0.402 0.596 0.902
275 0.096 0.902 0.902
276 0.402 0.902 0.902
277 0.402 0.596 0.998
278 0.402 0.902 0.998
279 0.096 0.596 0.998
280 0.096 0.902 0.998
281 0.096 0.596 0.498
282 0.402 0.596 0.498
283 0.096 0.902 0.498
284 0.402 0.902 0.498
285 0.402 0.596 0.596
286 0.402 0.902 0.596
287 0.096 0.596 0.596
288 0.096 0.902 0.596
289 0.798 0.498 0.648
290 0.648 0.998 0.648
291 0.848 0.998 0.648
292 0.848 0.498 0.798
293 0.848 0.998 0.848
294 0.798 0.498 0.848
295 0.648 0.998 0.848
296 0.648 0.498 0.798
297 0.798 0.498 0.698
298 0.848 0.712 0.712
299 0.998 0.712 0.712
300 0.848 0.786 0.712
301 0.998 0.786 0.712
302 0.998 0.712 0.786
303 0.998 0.786 0.786
304 0.848 0.712 0.786
305 0.848 0.786 0.786
306 0.498 0.712 0.712
307 0.648 0.712 0.712
308 0.498 0.786 0.712
309 0.648 0.786 0.712
310 0.648 0.712 0.786
311 0.648 0.786 0.786
312 0.498 0.712 0.786
313 0.498 0.786 0.786
314 0.654 0.844 0.848
315 0.844 0.654 0.848
316 0.654 0.654 0.848
317 0.844 0.844 0.848
318 0.844 0.654 0.998
319 0.844 0.844 0.998
320 0.654 0.654 0.998
321 0.654 0.844 0.998
322 0.654 0.844 0.498
323 0.844 0.654 0.498
324 0.654 0.654 0.498
325 0.844 0.844 0.498
326 0.844 0.654 0.648
327 0.844 0.844 0.648
328 0.654 0.654 0.648
329 0.654 0.844 0.648
330 0.746 0.496 0.746
331 0.698 0.498 0.798
332 0.724 0.498 0.6919999999999999
333 0.648 0.498 0.698
334 0.702 0.498 0.75
$EndNodes
$Elements
524
1 2 2 0 1 1 2 3
2 2 2 0 1 4 3 2
3 2 2 0 1 2 5 4
4 2 2 0 1 6 4 5
5 2 2 0 1 7 6 5
6 2 2 0 1 6 7 8
7 2 2 0 1 4 6 3
8 2 2 0 1 8 3 6
9 2 2 0 1 3 7 1
10 2 2 0 1 7 3 8
11 2 2 0 1 7 2 1
12 2 2 0 1 2 7 5
13 2 2 0 1 9 10 11
14 2 2 0 1 12 11 10
15 2 2 0 1 10 13 12
16 2 2 0 1 14 12 13
17 2 2 0 1 15 14 13
18 2 2 0 1 14 15 16
19 2 2 0 1 12 14 11
20 2 2 0 1 16 11 14
21 2 2 0 1 11 15 9
22 2 2 0 1 15 11 16
23 2 2 0 1 15 10 9
24 2 2 0 1 10 15 13
25 2 2 0 1 17 18 19
26 2 2 0 1 20 19 18
27 2 2 0 1 18 21 20
28 2 2 0 1 22 20 21
29 2 2 0 1 23 22 21
30 2 2 0 1 22 23 24
31 2 2 0 1 20 22 19
32 2 2 0 1 24 19 22
33 2 2 0 1 19 23 17
34 2 2 0 1 23 19 24
35 2 2 0 1 23 18 17
36 2 2 0 1 18 23 21
37 2 2 0 1 25 26 27
38 2 2 0 1 28 27 26
39 2 2 0 1 26 29 28
40 2 2 0 1 30 28 29
41 2 2 0 1 31 30 29
42 2 2 0 1 30 31 32
43 2 2 0 1 28 30 27
44 2 2 0 1 32 27 30
45 2 2 0 1 27 31 25
46 2 2 0 1 31 27 32
47 2 2 0 1 31 26 25
48 2 2 0 1 26 31 29
49 2 2 0 1 33 34 35
50 2 2 0 1 36 35 34
51 2 2 0 1 34 37 36
52 2 2 0 1 38 36 37
53 2 2 0 1 39 38 37
54 2 2 0 1 38 39 40
55 2 2 0 1 36 38 35
56 2 2 0 1 40 35 38
57 2 2 0 1 35 39 33
58 2 2 0 1 39 35 40
59 2 2 0 1 39 34 33
60 2 2 0 1 34 39 37
61 2 2 0 1 41 42 43
62 2 2 0 1 44 43 42
63 2 2 0 1 42 45 44
64 2 2 0 1 46 44 45
65 2 2 0 1 47 46 45
66 2 2 0 1 46 47 48
67 2 2 0 1 44 46 43
68 2 2 0 1 48 43 46
69 2 2 0 1 43 47 41
70 2 2 0 1 47 43 48
71 2 2 0 1 47 42 41
72 2 2 0 1 42 47 45
73 2 2 0 1 49 50 51
74 2 2 0 1 52 51 50
75 2 2 0 1 50 53 52
76 2 2 0 1 54 52 53
77 2 2 0 1 55 54 53
78 2 2 0 1 54 55 56
79 2 2 0 1 52 54 51
80 2 2 0 1 56 51 54
81 2 2 0 1 51 55 49
82 2 2 0 1 55 51 56
83 2 2 0 1 55 50 49
84 2 2 0 1 50 55 53
85 2 2 0 1 57 58 59
86 2 2 0 1 60 59 58
87 2 2 0 1 58 61 60
88 2 2 0 1 62 60 61
89 2 2 0 1 63 62 61
90 2 2 0 1 62 63 64
91 2 2 0 1 60 62 59
92 2 2 0 1 64 59 62
93 2 2 0 1 59 63 57
94 2 2 0 1 63 59 64
95 2 2 0 1 63 58 57
96 2 2 0 1 58 63 61
97 2 2 0 1 65 66 67
98 2 2 0 1 66 65 68
99 2 2 0 1 68 69 66
100 2 2 0 1 69 68 70
101 2 2 0 1 69 70 71
102 2 2 0 1 72 71 70
103 2 2 0 1 65 70 68
104 2 2 0 1 70 65 72
105 2 2 0 1 67 71 65
106 2 2 0 1 72 65 71
107 2 2 0 1 67 66 71
108 2 2 0 1 69 71 66
109 2 2 0 1 73 74 75
110 2 2 0 1 74 73 76
111 2 2 0 1 76 77 74
112 2 2 0 1 77 76 78
113 2 2 0 1 77 78 79
114 2 2 0 1 80 79 78
115 2 2 0 1 73 78 76
116 2 2 0 1 78 73 80
117 2 2 0 1 75 79 73
118 2 2 0 1 80 73 79
119 2 2 0 1 75 74 79
120 2 2 0 1 77 79 74
121 2 2 0 1 81 82 83
122 2 2 0 1 84 83 82
123 2 2 0 1 82 85 84
124 2 2 0 1 86 84 85
125 2 2 0 1 87 86 85
126 2 2 0 1 86 87 88
127 2 2 0 1 84 86 83
128 2 2 0 1 88 83 86
129 2 2 0 1 83 87 81
130 2 2 0 1 87 83 88
131 2 2 0 1 87 82 81
132 2 2 0 1 82 87 85
133 2 2 0 1 89 90 91
134 2 2 0 1 90 89 92
135 2 2 0 1 92 93 90
136 2 2 0 1 93 92 94
137 2 2 0 1 93 94 95
138 2 2 0 1 96 95 94
139 2 2 0 1 89 94 92
140 2 2 0 1 94 89 96
141 2 2 0 1 91 95 89
142 2 2 0 1 96 89 95
143 2 2 0 1 91 90 95
144 2 2 0 1 93 95 90
145 2 2 0 1 97 98 99
146 2 2 0 1 98 97 100
147 2 2 0 1 100 101 98
148 2 2 0 1 101 100 102
149 2 2 0 1 101 102 103
150 2 2 0 1 104 103 102
151 2 2 0 1 97 102 100
152 2 2 0 1 102 97 104
153 2 2 0 1 99 103 97
154 2 2 0 1 104 97 103
155 2 2 0 1 99 98 103
156 2 2 0 1 101 103 98
157 2 2 0 1 105 106 107
158 2 2 0 1 106 105 108
159 2 2 0 1 108 109 106
160 2 2 0 1 109 108 110
161 2 2 0 1 109 110 111
162 2 2 0 1 112 111 110
163 2 2 0 1 105 110 108
164 2 2 0 1 110 105 112
165 2 2 0 1 107 111 105
166 2 2 0 1 112 105 111
167 2 2 0 1 107 106 111
168 2 2 0 1 109 111 106
169 2 2 0 1 113 114 115
170 2 2 0 1 114 113 116
171 2 2 0 1 116 117 114
172 2 2 0 1 117 116 118
173 2 2 0 1 117 118 119
174 2 2 0 1 120 119 118
175 2 2 0 1 113 118 116
176 2 2 0 1 118 113 120
177 2 2 0 1 115 119 113
178 2 2 0 1 120 113 119
179 2 2 0 1 115 114 119
180 2 2 0 1 117 119 114
181 2 2 0 1 121 122 123
182 2 2 0 1 122 121 124
183 2 2 0 1 124 125 122
184 2 2 0 1 125 124 126
185 2 2 0 1 125 126 127
186 2 2 0 1 128 127 126
187 2 2 0 1 121 126 124
188 2 2 0 1 126 121 128
189 2 2 0 1 123 127 121
190 2 2 0 1 128 121 127
191 2 2 0 1 123 122 127
192 2 2 0 1 125 127 122
193 2 2 0 1 129 130 131
194 2 2 0 1 132 131 130
195 2 2 0 1 130 133 132
196 2 2 0 1 134 132 133
197 2 2 0 1 135 134 133
198 2 2 0 1 134 135 136
199 2 2 0 1 132 134 131
200 2 2 0 1 136 131 134
201 2 2 0 1 131 135 129
202 2 2 0 1 135 131 136
203 2 2 0 1 135 130 129
204 2 2 0 1 130 135 133
205 2 2 0 1 137 138 139
206 2 2 0 1 140 139 138
207 2 2 0 1 138 141 140
208 2 2 0 1 142 140 141
209 2 2 0 1 143 142 141
210 2 2 0 1 142 143 144
211 2 2 0 1 140 142 139
212 2 2 0 1 144 139 142
213 2 2 0 1 139 143 137
214 2 2 0 1 143 139 144
215 2 2 0 1 143 138 137
216 2 2 0 1 138 143 141
217 2 2 0 1 145 146 147
218 2 2 0 1 148 147 146
219 2 2 0 1 146 149 148
220 2 2 0 1 150 148 149
221 2 2 0 1 151 150 149
222 2 2 0 1 150 151 152
223 2 2 0 1 148 150 147
224 2 2 0 1 152 147 150
225 2 2 0 1 147 151 145
226 2 2 0 1 151 147 152
227 2 2 0 1 151 146 145
228 2 2 0 1 146 151 149
229 2 2 0 1 153 154 155
230 2 2 0 1 156 155 154
231 2 2 0 1 154 157 156
232 2 2 0 1 158 156 157
233 2 2 0 1 159 158 157
234 2 2 0 1 158 159 160
235 2 2 0 1 156 158 155
236 2 2 0 1 160 155 158
237 2 2 0 1 155 159 153
238 2 2 0 1 159 155 160
239 2 2 0 1 159 154 153
240 2 2 0 1 154 159 157
241 2 2 0 1 161 162 163
242 2 2 0 1 164 163 162
243 2 2 0 1 162 165 164
244 2 2 0 1 166 164 165
245 2 2 0 1 167 166 165
246 2 2 0 1 166 167 168
247 2 2 0 1 164 166 163
248 2 2 0 1 168 163 166
249 2 2 0 1 163 167 161
250 2 2 0 1 167 163 168
251 2 2 0 1 167 162 161
252 2 2 0 1 162 167 165
253 2 2 0 1 169 170 171
254 2 2 0 1 172 171 170
255 2 2 0 1 170 173 172
256 2 2 0 1 174 172 173
257 2 2 0 1 175 174 173
258 2 2 0 1 174 175 176
259 2 2 0 1 172 174 171
260 2 2 0 1 176 171 174
261 2 2 0 1 171 175 169
262 2 2 0 1 175 171 176
263 2 2 0 1 175 170 169
264 2 2 0 1 170 175 173
265 2 2 0 1 177 178 179
266 2 2 0 1 180 179 178
267 2 2 0 1 178 181 180
268 2 2 0 1 182 180 181
269 2 2 0 1 183 182 181
270 2 2 0 1 182 183 184
271 2 2 0 1 180 182 179
272 2 2 0 1 184 179 182
273 2 2 0 1 179 183 177
274 2 2 0 1 183 179 184
275 2 2 0 1 183 178 177
276 2 2 0 1 178 183 181
277 2 2 0 1 185 186 187
278 2 2 0 1 188 187 186
279 2 2 0 1 186 189 188
280 2 2 0 1 190 188 189
281 2 2 0 1 191 190 189
282 2 2 0 1 190 191 192
283 2 2 0 1 188 190 187
284 2 2 0 1 192 187 190
285 2 2 0 1 187 191 185
286 2 2 0 1 191 187 192
287 2 2 0 1 191 186 185
288 2 2 0 1 186 191 189
289 2 2 0 1 193 194 195
290 2 2 0 1 196 195 194
291 2 2 0 1 194 197 196
292 2 2 0 1 198 196 197
293 2 2 0 1 199 198 197
294 2 2 0 1 198 199 200
295 2 2 0 1 196 198 195
296 2 2 0 1 200 195 198
297 2 2 0 1 195 199 193
298 2 2 0 1 199 195 200
299 2 2 0 1 199 194 193
300 2 2 0 1 194 199 197
301 2 2 0 1 201 202 203
302 2 2 0 1 204 205 202
303 2 2 0 1 205 206 202
304 2 2 0 1 207 208 206
305 2 2 0 1 206 208 209
306 2 2 0 1 208 210 209
307 2 2 0 1 211 208 212
308 2 2 0 1 213 208 214
309 2 2 0 1 203 209 201
310 2 2 0 1 215 216 209
311 2 2 0 1 203 202 209
312 2 2 0 1 206 209 202
313 2 2 0 1 217 218 219
314 2 2 0 1 220 219 218
315 2 2 0 1 218 221 220
316 2 2 0 1 222 220 221
317 2 2 0 1 223 222 221
318 2 2 0 1 222 223 224
319 2 2 0 1 220 222 219
320 2 2 0 1 224 219 222
321 2 2 0 1 219 223 217
322 2 2 0 1 223 219 224
323 2 2 0 1 223 218 217
324 2 2 0 1 218 223 221
325 2 2 0 1 225 226 227
326 2 2 0 1 228 227 226
327 2 2 0 1 226 229 228
328 2 2 0 1 230 228 229
329 2 2 0 1 231 230 229
330 2 2 0 1 230 231 232
331 2 2 0 1 228 230 227
332 2 2 0 1 232 227 230
333 2 2 0 1 227 231 225
334 2 2 0 1 231 227 232
335 2 2 0 1 231 226 225
336 2 2 0 1 226 231 229
337 2 2 0 1 233 234 235
338 2 2 0 1 236 235 234
339 2 2 0 1 234 237 236
340 2 2 0 1 238 236 237
341 2 2 0 1 239 238 237
342 2 2 0 1 238 239 240
343 2 2 0 1 236 238 235
344 2 2 0 1 240 235 238
345 2 2 0 1 235 239 233
346 2 2 0 1 239 235 240
347 2 2 0 1 239 234 233
348 2 2 0 1 234 239 237
349 2 2 0 1 241 242 243
350 2 2 0 1 244 243 242
351 2 2 0 1 242 245 244
352 2 2 0 1 246 244 245
353 2 2 0 1 247 246 245
354 2 2 0 1 246 247 248
355 2 2 0 1 244 246 243
356 2 2 0 1 248 243 246
357 2 2 0 1 243 247 241
358 2 2 0 1 247 243 248
359 2 2 0 1 247 242 241
360 2 2 0 1 242 247 245
361 2 2 0 1 249 250 251
362 2 2 0 1 250 249 252
363 2 2 0 1 252 253 250
364 2 2 0 1 253 252 254
365 2 2 0 1 253 254 255
366 2 2 0 1 256 255 254
367 2 2 0 1 249 254 252
368 2 2 0 1 254 249 256
369 2 2 0 1 251 255 249
370 2 2 0 1 256 249 255
371 2 2 0 1 251 250 255
372 2 2 0 1 253 255 250
373 2 2 0 1 257 258 259
374 2 2 0 1 260 259 258
375 2 2 0 1 258 261 260
376 2 2 0 1 262 260 261
377 2 2 0 1 263 262 261
378 2 2 0 1 262 263 264
379 2 2 0 1 260 262 259
380 2 2 0 1 264 259 262
381 2 2 0 1 259 263 257
382 2 2 0 1 263 259 264
383 2 2 0 1 263 258 257
384 2 2 0 1 258 263 261
385 2 2 0 1 265 266 267
386 2 2 0 1 268 267 266
387 2 2 0 1 266 269 268
388 2 2 0 1 270 268 269
389 2 2 0 1 271 270 269
390 2 2 0 1 270 271 272
391 2 2 0 1 268 270 267
392 2 2 0 1 272 267 270
393 2 2 0 1 267 271 265
394 2 2 0 1 271 267 272
395 2 2 0 1 271 266 265
396 2 2 0 1 266 271 269
397 2 2 0 1 273 274 275
398 2 2 0 1 276 275 274
399 2 2 0 1 274 277 276
400 2 2 0 1 278 276 277
401 2 2 0 1 279 278 277
402 2 2 0 1 278 279 280
403 2 2 0 1 276 278 275
404 2 2 0 1 280 275 278
405 2 2 0 1 275 279 273
406 2 2 0 1 279 275 280
407 2 2 0 1 279 274 273
408 2 2 0 1 274 279 277
409 2 2 0 1 281 282 283
410 2 2 0 1 284 283 282
411 2 2 0 1 282 285 284
412 2 2 0 1 286 284 285
413 2 2 0 1 287 286 285
414 2 2 0 1 286 287 288
415 2 2 0 1 284 286 283
416 2 2 0 1 288 283 286
417 2 2 0 1 283 287 281
418 2 2 0 1 287 283 288
419 2 2 0 1 287 282 281
420 2 2 0 1 282 287 285
421 2 2 0 1 289 205 290
422 2 2 0 1 291 290 205
423 2 2 0 1 292 208 291
424 2 2 0 1 293 291 208
425 2 2 0 1 208 294 293
426 2 2 0 1 293 215 295
427 2 2 0 1 291 293 290
428 2 2 0 1 295 290 293
429 2 2 0 1 215 296 290
430 2 2 0 1 215 290 295
431 2 2 0 1 205 297 201
432 2 2 0 1 297 205 208
433 2 2 0 1 298 299 300
434 2 2 0 1 301 300 299
435 2 2 0 1 299 302 301
436 2 2 0 1 303 301 302
437 2 2 0 1 304 303 302
438 2 2 0 1 303 304 305
439 2 2 0 1 301 303 300
440 2 2 0 1 305 300 303
441 2 2 0 1 300 304 298
442 2 2 0 1 304 300 305
443 2 2 0 1 304 299 298
444 2 2 0 1 299 304 302
445 2 2 0 1 306 307 308
446 2 2 0 1 309 308 307
447 2 2 0 1 307 310 309
448 2 2 0 1 311 309 310
449 2 2 0 1 312 311 310
450 2 2 0 1 311 312 313
451 2 2 0 1 309 311 308
452 2 2 0 1 313 308 311
453 2 2 0 1 308 312 306
454 2 2 0 1 312 308 313
455 2 2 0 1 312 307 306
456 2 2 0 1 307 312 310
457 2 2 0 1 314 315 316
458 2 2 0 1 315 314 317
459 2 2 0 1 317 318 315
460 2 2 0 1 318 317 319
461 2 2 0 1 318 319 320
462 2 2 0 1 321 320 319
463 2 2 0 1 314 319 317
464 2 2 0 1 319 314 321
465 2 2 0 1 316 320 314
466 2 2 0 1 321 314 320
467 2 2 0 1 316 315 320
468 2 2 0 1 318 320 315
469 2 2 0 1 322 323 324
470 2 2 0 1 323 322 325
471 2 2 0 1 325 326 323
472 2 2 0 1 326 325 327
473 2 2 0 1 326 327 328
474 2 2 0 1 329 328 327
475 2 2 0 1 322 327 325
476 2 2 0 1 327 322 329
477 2 2 0 1 324 328 322
478 2 2 0 1 329 322 328
479 2 2 0 1 324 323 328
480 2 2 0 1 326 328 323
481 2 2 0 1 215 330 201
482 2 2 0 1 330 215 208
483 2 2 0 1 215 331 289
484 2 2 0 1 294 208 292
485 2 2 0 1 205 212 332
486 2 2 0 1 333 215 334
487 2 2 0 1 205 204 215
488 2 2 0 1 210 208 207
489 2 2 0 1 201 289 290
490 2 2 0 1 296 215 289
491 2 2 0 1 332 201 208
492 2 2 0 1 208 211 332
493 2 2 0 1 208 213 212
494 2 2 0 1 212 201 332
495 2 2 0 1 201 204 202
496 2 2 0 1 216 215 204
497 2 2 0 1 205 292 291
498 2 2 0 1 331 215 292
499 2 2 0 1 205 211 212
500 2 2 0 1 211 205 332
501 2 2 0 1 205 207 206
502 2 2 0 1 207 205 215
503 2 2 0 1 294 215 293
504 2 2 0 1 215 294 292
505 2 2 0 1 214 208 334
506 2 2 0 1 334 208 201
507 2 2 0 1 215 333 214
508 2 2 0 1 215 214 334
509 2 2 0 1 210 215 209
510 2 2 0 1 215 210 207
511 2 2 0 1 213 201 212
512 2 2 0 1 201 213 214
513 2 2 0 1 296 201 290
514 2 2 0 1 201 296 289
515 2 2 0 1 216 201 209
516 2 2 0 1 201 216 204
517 2 2 0 1 333 201 214
518 2 2 0 1 201 333 334
519 2 2 0 1 331 205 289
520 2 2 0 1 205 331 292
521 2 2 0 1 330 205 201
522 2 2 0 1 205 330 208
523 2 2 0 1 297 215 201
524 2 2 0 1 215 297 208
$EndElements
