$MeshFormat
2.2 0 8
$EndMeshFormat
$PhysicalNames
18
2 1 "S_1-f"
2 2 "S_1-b"
2 3 "S_1-x"
2 4 "S_1-r"
2 5 "S_1-y"
2 7 "S_2-f"
2 8 "S_2-b"
2 9 "S_2-x"
2 10 "S_2-r"
2 11 "S_2-y"
2 13 "S_3-f"
2 14 "S_3-b"
2 15 "S_3-x"
2 16 "S_3-r"
2 17 "S_3-y"
3 6 "V_1"
3 12 "V_2"
3 18 "V_3"
$EndPhysicalNames
$Nodes
486
1 0 0 1
2 4 0 1
3 4.5 0 1
4 8 0 1
5 2.449293598294706e-16 4 1
6 0 0 -1
7 4 0 -1
8 2.449293598294706e-16 4 -1
9 2.755455298081545e-16 4.5 1
10 4.5 0 -1
11 2.755455298081545e-16 4.5 -1
12 4.898587196589413e-16 8 1
13 8 0 -1
14 4.898587196589413e-16 8 -1
15 0.5037092713220945 0 1
16 0.9570476165538702 0 1
17 1.365052126945807 0 1
18 1.732256187425242 0 1
19 2.062739840361418 0 1
20 2.360175125968971 0 1
21 2.627866884476937 0 1
22 2.868789467947225 0 1
23 3.085619791825924 0 1
24 3.280767085020027 0 1
25 3.456399649517915 0 1
26 3.614468956589715 0 1
27 3.75673133442848 0 1
28 3.884767475715987 0 1
29 3.084329734127244e-17 0.5037092713220945 1
30 5.860226501221502e-17 0.9570476165538702 1
31 8.358533589667346e-17 1.365052126945807 1
32 1.06070099761676e-16 1.732256187425242 1
33 1.263063871486167e-16 2.062739840361418 1
34 1.445190456722551e-16 2.360175125968971 1
35 1.609104384330004e-16 2.627866884476937 1
36 1.756626919674604e-16 2.868789467947225 1
37 1.88939720072267e-16 3.085619791825924 1
38 2.008890454708884e-16 3.280767085020027 1
39 2.116434383678074e-16 3.456399649517915 1
40 2.213223919152534e-16 3.614468956589715 1
41 2.300334501982202e-16 3.75673133442848 1
42 2.378734027283663e-16 3.884767475715987 1
43 3.950753362380551 0.6257378601609235 1
44 3.804226065180614 1.23606797749979 1
45 3.564026096753472 1.815961998958187 1
46 3.23606797749979 2.351141009169893 1
47 2.82842712474619 2.82842712474619 1
48 2.351141009169893 3.23606797749979 1
49 1.815961998958187 3.564026096753471 1
50 1.23606797749979 3.804226065180614 1
51 0.6257378601609237 3.950753362380551 1
52 0.5037092713220945 0 -1
53 0.9570476165538702 0 -1
54 1.365052126945807 0 -1
55 1.732256187425242 0 -1
56 2.062739840361418 0 -1
57 2.360175125968971 0 -1
58 2.627866884476937 0 -1
59 2.868789467947225 0 -1
60 3.085619791825924 0 -1
61 3.280767085020027 0 -1
62 3.456399649517915 0 -1
63 3.614468956589715 0 -1
64 3.75673133442848 0 -1
65 3.884767475715987 0 -1
66 3.950753362380551 0.6257378601609235 -1
67 3.804226065180614 1.23606797749979 -1
68 3.564026096753472 1.815961998958187 -1
69 3.23606797749979 2.351141009169893 -1
70 2.82842712474619 2.82842712474619 -1
71 2.351141009169893 3.23606797749979 -1
72 1.815961998958187 3.564026096753471 -1
73 1.23606797749979 3.804226065180614 -1
74 0.6257378601609237 3.950753362380551 -1
75 2.378734027283663e-16 3.884767475715987 -1
76 2.300334501982202e-16 3.75673133442848 -1
77 2.213223919152534e-16 3.614468956589715 -1
78 2.116434383678074e-16 3.456399649517915 -1
79 2.008890454708884e-16 3.280767085020027 -1
80 1.88939720072267e-16 3.085619791825924 -1
81 1.756626919674604e-16 2.868789467947225 -1
82 1.609104384330004e-16 2.627866884476937 -1
83 1.445190456722551e-16 2.360175125968971 -1
84 1.263063871486167e-16 2.062739840361418 -1
85 1.06070099761676e-16 1.732256187425242 -1
86 8.358533589667346e-17 1.365052126945807 -1
87 5.860226501221502e-17 0.9570476165538702 -1
88 3.084329734127244e-17 0.5037092713220945 -1
89 4.25 0 1
90 2.602374448188125e-16 4.25 1
91 4.44459753267812 0.703955092681039 1
92 4.279754323328191 1.390576474687263 1
93 4.009529358847655 2.04295724882796 1
94 3.640576474687264 2.645033635316129 1
95 3.181980515339464 3.181980515339464 1
96 2.645033635316129 3.640576474687264 1
97 2.042957248827961 4.009529358847655 1
98 1.390576474687264 4.279754323328191 1
99 0.7039550926810392 4.44459753267812 1
100 4.25 0 -1
101 4.44459753267812 0.703955092681039 -1
102 4.279754323328191 1.390576474687263 -1
103 4.009529358847655 2.04295724882796 -1
104 3.640576474687264 2.645033635316129 -1
105 3.181980515339464 3.181980515339464 -1
106 2.645033635316129 3.640576474687264 -1
107 2.042957248827961 4.009529358847655 -1
108 1.390576474687264 4.279754323328191 -1
109 0.7039550926810392 4.44459753267812 -1
110 2.602374448188125e-16 4.25 -1
111 5.200000000001735 0 1
112 5.89999999999965 0 1
113 6.600000000004158 0 1
114 7.300000000002079 0 1
115 3.184081677784181e-16 5.200000000001735 1
116 3.612708057484478e-16 5.89999999999965 1
117 4.041334437188812e-16 6.600000000004158 1
118 4.469960816889112e-16 7.300000000002079 1
119 7.901506724761102 1.251475720321847 1
120 7.608452130361228 2.472135954999579 1
121 7.128052193506943 3.631923997916374 1
122 6.47213595499958 4.702282018339785 1
123 5.656854249492381 5.65685424949238 1
124 4.702282018339785 6.47213595499958 1
125 3.631923997916374 7.128052193506942 1
126 2.47213595499958 7.608452130361228 1
127 1.251475720321847 7.901506724761102 1
128 5.200000000001735 0 -1
129 5.89999999999965 0 -1
130 6.600000000004158 0 -1
131 7.300000000002079 0 -1
132 7.901506724761102 1.251475720321847 -1
133 7.608452130361228 2.472135954999579 -1
134 7.128052193506943 3.631923997916374 -1
135 6.47213595499958 4.702282018339785 -1
136 5.656854249492381 5.65685424949238 -1
137 4.702282018339785 6.47213595499958 -1
138 3.631923997916374 7.128052193506942 -1
139 2.47213595499958 7.608452130361228 -1
140 1.251475720321847 7.901506724761102 -1
141 4.469960816889112e-16 7.300000000002079 -1
142 4.041334437188812e-16 6.600000000004158 -1
143 3.612708057484478e-16 5.89999999999965 -1
144 3.184081677784181e-16 5.200000000001735 -1
145 0.4975077743345055 0.07879749039507636 1
146 0.4790559848091615 0.1556547250627486 1
147 0.448808247042155 0.2286792238109606 1
148 0.4075093607237958 0.2960728811261151 1
149 0.3561762414983876 0.3561762414983876 1
150 0.2960728811261151 0.4075093607237958 1
151 0.2286792238109607 0.4488082470421549 1
152 0.1556547250627486 0.4790559848091615 1
153 0.07879749039507639 0.4975077743345055 1
154 0.9452647722646237 0.1497152319136327 1
155 0.9102063721283037 0.2957439779411841 1
156 0.8527356703084258 0.4344905257138336 1
157 0.7742677862181192 0.5625384747520267 1
158 0.6767348595836643 0.6767348595836642 1
159 0.5625384747520267 0.7742677862181192 1
160 0.4344905257138337 0.8527356703084257 1
161 0.2957439779411842 0.9102063721283037 1
162 0.1497152319136327 0.9452647722646237 1
163 1.348246070088968 0.2135411992307966 1
164 1.298241720414369 0.4218243054339225 1
165 1.216270350965922 0.6197206972826582 1
166 1.104350368906826 0.8023575088292183 1
167 0.9652376156365002 0.9652376156365 1
168 0.8023575088292183 1.104350368906826 1
169 0.6197206972826582 1.216270350965922 1
170 0.4218243054339225 1.298241720414369 1
171 0.2135411992307967 1.348246070088968 1
172 1.710929239243697 0.2709845699924976 1
173 1.647473534943375 0.5352966005255538 1
174 1.543451564561559 0.7864278522061076 1
175 1.401424694238175 1.018194640160943 1
176 1.224890096880744 1.224890096880743 1
177 1.018194640160943 1.401424694238175 1
178 0.7864278522061077 1.543451564561559 1
179 0.5352966005255539 1.647473534943375 1
180 0.2709845699924977 1.710929239243697 1
181 2.037344090006049 0.3226836034441097 1
182 1.961782166597352 0.6374216656459443 1
183 1.837914655465296 0.9364642909583532 1
184 1.668791585826654 1.212448057480572 1
185 1.458577328943216 1.458577328943215 1
186 1.212448057480572 1.668791585826654 1
187 0.9364642909583533 1.837914655465296 1
188 0.6374216656459444 1.961782166597352 1
189 0.3226836034441098 2.037344090006049 1
190 2.331117453682213 0.3692127332322155 1
191 2.244659933150525 0.7293342236254443 1
192 2.102931435465456 1.071497084911501 1
193 1.90942178660993 1.387276131872091 1
194 1.668895836360474 1.668895836360473 1
195 1.387276131872091 1.90942178660993 1
196 1.071497084911501 2.102931435465456 1
197 0.7293342236254444 2.244659933150525 1
198 0.3692127332322157 2.331117453682213 1
199 2.595513482433941 0.4110889502700878 1
200 2.499249924438034 0.8120555262585202 1
201 2.341446538767511 1.19302660013269 1
202 2.125988968496989 1.544621399683312 1
203 1.858182494069208 1.858182494069208 1
204 1.544621399683312 2.125988968496989 1
205 1.193026600132691 2.341446538767511 1
206 0.8120555262585203 2.499249924438034 1
207 0.411088950270088 2.595513482433941 1
208 2.833469909113603 0.4487775457313727 1
209 2.728380917370115 0.886504698879556 1
210 2.556110132463854 1.302403164200909 1
211 2.320899432853169 1.686232141191349 1
212 2.028540486582031 2.02854048658203 1
213 1.686232141191349 2.320899432853169 1
214 1.302403164200909 2.556110132463854 1
215 0.8865046988795561 2.728380917370115 1
216 0.4487775457313729 2.833469909113603 1
217 3.047630691896061 0.4826972814518369 1
218 2.93459880982534 0.9535089538538979 1
219 2.749307365681652 1.400842071297287 1
220 2.49631884976686 1.813681807817049 1
221 2.181862678963534 2.181862678963534 1
222 1.813681807817049 2.49631884976686 1
223 1.400842071297288 2.749307365681652 1
224 0.953508953853898 2.93459880982534 1
225 0.4826972814518371 3.047630691896061 1
226 3.240375398082578 0.5132250438667056 1
227 3.120194914654953 1.013812783857146 1
228 2.923184877095298 1.489437088457298 1
229 2.65419632636716 1.928386508781339 1
230 2.319852653311284 2.319852653311284 1
231 1.928386508781339 2.65419632636716 1
232 1.489437088457298 2.923184877095298 1
233 1.013812783857146 3.120194914654953 1
234 0.5132250438667058 3.240375398082578 1
235 3.413845634265965 0.5407000301375765 1
236 3.287231409594298 1.068086231052648 1
237 3.07967463792285 1.569172604184232 1
238 2.796286055811605 2.031620740015503 1
239 2.444043630664924 2.444043630664924 1
240 2.031620740015503 2.796286055811605 1
241 1.569172604184233 3.07967463792285 1
242 1.068086231052648 3.287231409594298 1
243 0.5407000301375766 3.413845634265965 1
244 3.569968845866735 0.5654275176286335 1
245 3.437564254111193 1.116932333226906 1
246 3.220515421797759 1.640934567895243 1
247 2.924166811521764 2.124531547552398 1
248 2.555815509592852 2.555815509592852 1
249 2.124531547552398 2.924166811521764 1
250 1.640934567895243 3.220515421797758 1
251 1.116932333226906 3.437564254111193 1
252 0.5654275176286337 3.569968845866735 1
253 3.710479737763423 0.587682256601192 1
254 3.572863815578394 1.160893825639274 1
255 3.347272128598649 1.7055203359044 1
256 3.039259492853515 2.208151275202084 1
257 2.656410201670366 2.656410201670366 1
258 2.208151275202084 3.039259492853515 1
259 1.7055203359044 3.347272128598649 1
260 1.160893825639274 3.572863815578394 1
261 0.5876822566011922 3.710479737763423 1
262 3.836939541687885 0.6077115218693184 1
263 3.694633422071164 1.200459169191306 1
264 3.461353165817721 1.763647527672238 1
265 3.142842907049299 2.283409030811315 1
266 2.746945425411721 2.746945425411721 1
267 2.283409030811315 3.142842907049299 1
268 1.763647527672239 3.461353165817721 1
269 1.200459169191306 3.694633422071164 1
270 0.6077115218693186 3.836939541687885 1
271 0.4975077743345055 0.07879749039507636 -1
272 0.4790559848091615 0.1556547250627486 -1
273 0.448808247042155 0.2286792238109606 -1
274 0.4075093607237958 0.2960728811261151 -1
275 0.3561762414983876 0.3561762414983876 -1
276 0.2960728811261151 0.4075093607237958 -1
277 0.2286792238109607 0.4488082470421549 -1
278 0.1556547250627486 0.4790559848091615 -1
279 0.07879749039507639 0.4975077743345055 -1
280 0.9452647722646237 0.1497152319136327 -1
281 0.9102063721283037 0.2957439779411841 -1
282 0.8527356703084258 0.4344905257138336 -1
283 0.7742677862181192 0.5625384747520267 -1
284 0.6767348595836643 0.6767348595836642 -1
285 0.5625384747520267 0.7742677862181192 -1
286 0.4344905257138337 0.8527356703084257 -1
287 0.2957439779411842 0.9102063721283037 -1
288 0.1497152319136327 0.9452647722646237 -1
289 1.348246070088968 0.2135411992307966 -1
290 1.298241720414369 0.4218243054339225 -1
291 1.216270350965922 0.6197206972826582 -1
292 1.104350368906826 0.8023575088292183 -1
293 0.9652376156365002 0.9652376156365 -1
294 0.8023575088292183 1.104350368906826 -1
295 0.6197206972826582 1.216270350965922 -1
296 0.4218243054339225 1.298241720414369 -1
297 0.2135411992307967 1.348246070088968 -1
298 1.710929239243697 0.2709845699924976 -1
299 1.647473534943375 0.5352966005255538 -1
300 1.543451564561559 0.7864278522061076 -1
301 1.401424694238175 1.018194640160943 -1
302 1.224890096880744 1.224890096880743 -1
303 1.018194640160943 1.401424694238175 -1
304 0.7864278522061077 1.543451564561559 -1
305 0.5352966005255539 1.647473534943375 -1
306 0.2709845699924977 1.710929239243697 -1
307 2.037344090006049 0.3226836034441097 -1
308 1.961782166597352 0.6374216656459443 -1
309 1.837914655465296 0.9364642909583532 -1
310 1.668791585826654 1.212448057480572 -1
311 1.458577328943216 1.458577328943215 -1
312 1.212448057480572 1.668791585826654 -1
313 0.9364642909583533 1.837914655465296 -1
314 0.6374216656459444 1.961782166597352 -1
315 0.3226836034441098 2.037344090006049 -1
316 2.331117453682213 0.3692127332322155 -1
317 2.244659933150525 0.7293342236254443 -1
318 2.102931435465456 1.071497084911501 -1
319 1.90942178660993 1.387276131872091 -1
320 1.668895836360474 1.668895836360473 -1
321 1.387276131872091 1.90942178660993 -1
322 1.071497084911501 2.102931435465456 -1
323 0.7293342236254444 2.244659933150525 -1
324 0.3692127332322157 2.331117453682213 -1
325 2.595513482433941 0.4110889502700878 -1
326 2.499249924438034 0.8120555262585202 -1
327 2.341446538767511 1.19302660013269 -1
328 2.125988968496989 1.544621399683312 -1
329 1.858182494069208 1.858182494069208 -1
330 1.544621399683312 2.125988968496989 -1
331 1.193026600132691 2.341446538767511 -1
332 0.8120555262585203 2.499249924438034 -1
333 0.411088950270088 2.595513482433941 -1
334 2.833469909113603 0.4487775457313727 -1
335 2.728380917370115 0.886504698879556 -1
336 2.556110132463854 1.302403164200909 -1
337 2.320899432853169 1.686232141191349 -1
338 2.028540486582031 2.02854048658203 -1
339 1.686232141191349 2.320899432853169 -1
340 1.302403164200909 2.556110132463854 -1
341 0.8865046988795561 2.728380917370115 -1
342 0.4487775457313729 2.833469909113603 -1
343 3.047630691896061 0.4826972814518369 -1
344 2.93459880982534 0.9535089538538979 -1
345 2.749307365681652 1.400842071297287 -1
346 2.49631884976686 1.813681807817049 -1
347 2.181862678963534 2.181862678963534 -1
348 1.813681807817049 2.49631884976686 -1
349 1.400842071297288 2.749307365681652 -1
350 0.953508953853898 2.93459880982534 -1
351 0.4826972814518371 3.047630691896061 -1
352 3.240375398082578 0.5132250438667056 -1
353 3.120194914654953 1.013812783857146 -1
354 2.923184877095298 1.489437088457298 -1
355 2.65419632636716 1.928386508781339 -1
356 2.319852653311284 2.319852653311284 -1
357 1.928386508781339 2.65419632636716 -1
358 1.489437088457298 2.923184877095298 -1
359 1.013812783857146 3.120194914654953 -1
360 0.5132250438667058 3.240375398082578 -1
361 3.413845634265965 0.5407000301375765 -1
362 3.287231409594298 1.068086231052648 -1
363 3.07967463792285 1.569172604184232 -1
364 2.796286055811605 2.031620740015503 -1
365 2.444043630664924 2.444043630664924 -1
366 2.031620740015503 2.796286055811605 -1
367 1.569172604184233 3.07967463792285 -1
368 1.068086231052648 3.287231409594298 -1
369 0.5407000301375766 3.413845634265965 -1
370 3.569968845866735 0.5654275176286335 -1
371 3.437564254111193 1.116932333226906 -1
372 3.220515421797759 1.640934567895243 -1
373 2.924166811521764 2.124531547552398 -1
374 2.555815509592852 2.555815509592852 -1
375 2.124531547552398 2.924166811521764 -1
376 1.640934567895243 3.220515421797758 -1
377 1.116932333226906 3.437564254111193 -1
378 0.5654275176286337 3.569968845866735 -1
379 3.710479737763423 0.587682256601192 -1
380 3.572863815578394 1.160893825639274 -1
381 3.347272128598649 1.7055203359044 -1
382 3.039259492853515 2.208151275202084 -1
383 2.656410201670366 2.656410201670366 -1
384 2.208151275202084 3.039259492853515 -1
385 1.7055203359044 3.347272128598649 -1
386 1.160893825639274 3.572863815578394 -1
387 0.5876822566011922 3.710479737763423 -1
388 3.836939541687885 0.6077115218693184 -1
389 3.694633422071164 1.200459169191306 -1
390 3.461353165817721 1.763647527672238 -1
391 3.142842907049299 2.283409030811315 -1
392 2.746945425411721 2.746945425411721 -1
393 2.283409030811315 3.142842907049299 -1
394 1.763647527672239 3.461353165817721 -1
395 1.200459169191306 3.694633422071164 -1
396 0.6077115218693186 3.836939541687885 -1
397 4.197675447529336 0.6648464764209812 1
398 4.041990194254402 1.313322226093526 1
399 3.786777727800564 1.929459623893074 1
400 3.438322226093526 2.498087322243011 1
401 3.005203820042827 3.005203820042827 1
402 2.498087322243011 3.438322226093526 1
403 1.929459623893074 3.786777727800563 1
404 1.313322226093527 4.041990194254402 1
405 0.6648464764209814 4.197675447529336 1
406 4.197675447529336 0.6648464764209812 -1
407 4.041990194254402 1.313322226093526 -1
408 3.786777727800564 1.929459623893074 -1
409 3.438322226093526 2.498087322243011 -1
410 3.005203820042827 3.005203820042827 -1
411 2.498087322243011 3.438322226093526 -1
412 1.929459623893074 3.786777727800563 -1
413 1.313322226093527 4.041990194254402 -1
414 0.6648464764209814 4.197675447529336 -1
415 5.13597937109643 0.8134592182094719 1
416 4.945493884736448 1.606888370750263 1
417 4.633233925781059 2.360750598646431 1
418 4.20688837075113 3.05648331192188 1
419 3.676955262171274 3.676955262171274 1
420 3.05648331192188 4.20688837075113 1
421 2.360750598646431 4.633233925781059 1
422 1.606888370750263 4.945493884736448 1
423 0.8134592182094722 5.13597937109643 1
424 5.827361209510967 0.9229633437373075 1
425 5.611233446141074 1.823200266812082 1
426 5.256938492711059 2.678543948463167 1
427 4.773200266811907 3.467932988525386 1
428 4.171930009000383 4.171930009000383 1
429 3.467932988525386 4.773200266811907 1
430 2.678543948463167 5.256938492711059 1
431 1.823200266812082 5.611233446141074 1
432 0.9229633437373078 5.827361209510967 1
433 6.518743047932016 1.032467469266174 1
434 6.276973007551968 2.039512162875938 1
435 5.880643059646933 2.996337298282896 1
436 5.339512162878017 3.879382665132767 1
437 4.666904755834154 4.666904755834153 1
438 3.879382665132767 5.339512162878017 1
439 2.996337298282897 5.880643059646932 1
440 2.039512162875938 6.276973007551968 1
441 1.032467469266175 6.518743047932016 1
442 7.210124886346559 1.141971594794011 1
443 6.942712568956598 2.255824058937758 1
444 6.504347626576938 3.314130648099635 1
445 5.905824058938799 4.290832341736276 1
446 5.161879502663267 5.161879502663266 1
447 4.290832341736276 5.905824058938799 1
448 3.314130648099636 6.504347626576937 1
449 2.255824058937759 6.942712568956598 1
450 1.141971594794011 7.210124886346559 1
451 5.13597937109643 0.8134592182094719 -1
452 4.945493884736448 1.606888370750263 -1
453 4.633233925781059 2.360750598646431 -1
454 4.20688837075113 3.05648331192188 -1
455 3.676955262171274 3.676955262171274 -1
456 3.05648331192188 4.20688837075113 -1
457 2.360750598646431 4.633233925781059 -1
458 1.606888370750263 4.945493884736448 -1
459 0.8134592182094722 5.13597937109643 -1
460 5.827361209510967 0.9229633437373075 -1
461 5.611233446141074 1.823200266812082 -1
462 5.256938492711059 2.678543948463167 -1
463 4.773200266811907 3.467932988525386 -1
464 4.171930009000383 4.171930009000383 -1
465 3.467932988525386 4.773200266811907 -1
466 2.678543948463167 5.256938492711059 -1
467 1.823200266812082 5.611233446141074 -1
468 0.9229633437373078 5.827361209510967 -1
469 6.518743047932016 1.032467469266174 -1
470 6.276973007551968 2.039512162875938 -1
471 5.880643059646933 2.996337298282896 -1
472 5.339512162878017 3.879382665132767 -1
473 4.666904755834154 4.666904755834153 -1
474 3.879382665132767 5.339512162878017 -1
475 2.996337298282897 5.880643059646932 -1
476 2.039512162875938 6.276973007551968 -1
477 1.032467469266175 6.518743047932016 -1
478 7.210124886346559 1.141971594794011 -1
479 6.942712568956598 2.255824058937758 -1
480 6.504347626576938 3.314130648099635 -1
481 5.905824058938799 4.290832341736276 -1
482 5.161879502663267 5.161879502663266 -1
483 4.290832341736276 5.905824058938799 -1
484 3.314130648099636 6.504347626576937 -1
485 2.255824058937759 6.942712568956598 -1
486 1.141971594794011 7.210124886346559 -1
$EndNodes
$Elements
734
1 2 2 1 4 1 15 145
2 2 2 1 4 1 145 146
3 2 2 1 4 1 146 147
4 2 2 1 4 1 147 148
5 2 2 1 4 1 148 149
6 2 2 1 4 1 149 150
7 2 2 1 4 1 150 151
8 2 2 1 4 1 151 152
9 2 2 1 4 1 152 153
10 2 2 1 4 1 153 29
11 2 2 2 21 6 52 271
12 2 2 2 21 6 271 272
13 2 2 2 21 6 272 273
14 2 2 2 21 6 273 274
15 2 2 2 21 6 274 275
16 2 2 2 21 6 275 276
17 2 2 2 21 6 276 277
18 2 2 2 21 6 277 278
19 2 2 2 21 6 278 279
20 2 2 2 21 6 279 88
21 3 2 1 4 15 16 154 145
22 3 2 1 4 145 154 155 146
23 3 2 1 4 146 155 156 147
24 3 2 1 4 147 156 157 148
25 3 2 1 4 148 157 158 149
26 3 2 1 4 149 158 159 150
27 3 2 1 4 150 159 160 151
28 3 2 1 4 151 160 161 152
29 3 2 1 4 152 161 162 153
30 3 2 1 4 153 162 30 29
31 3 2 1 4 16 17 163 154
32 3 2 1 4 154 163 164 155
33 3 2 1 4 155 164 165 156
34 3 2 1 4 156 165 166 157
35 3 2 1 4 157 166 167 158
36 3 2 1 4 158 167 168 159
37 3 2 1 4 159 168 169 160
38 3 2 1 4 160 169 170 161
39 3 2 1 4 161 170 171 162
40 3 2 1 4 162 171 31 30
41 3 2 1 4 17 18 172 163
42 3 2 1 4 163 172 173 164
43 3 2 1 4 164 173 174 165
44 3 2 1 4 165 174 175 166
45 3 2 1 4 166 175 176 167
46 3 2 1 4 167 176 177 168
47 3 2 1 4 168 177 178 169
48 3 2 1 4 169 178 179 170
49 3 2 1 4 170 179 180 171
50 3 2 1 4 171 180 32 31
51 3 2 1 4 18 19 181 172
52 3 2 1 4 172 181 182 173
53 3 2 1 4 173 182 183 174
54 3 2 1 4 174 183 184 175
55 3 2 1 4 175 184 185 176
56 3 2 1 4 176 185 186 177
57 3 2 1 4 177 186 187 178
58 3 2 1 4 178 187 188 179
59 3 2 1 4 179 188 189 180
60 3 2 1 4 180 189 33 32
61 3 2 1 4 19 20 190 181
62 3 2 1 4 181 190 191 182
63 3 2 1 4 182 191 192 183
64 3 2 1 4 183 192 193 184
65 3 2 1 4 184 193 194 185
66 3 2 1 4 185 194 195 186
67 3 2 1 4 186 195 196 187
68 3 2 1 4 187 196 197 188
69 3 2 1 4 188 197 198 189
70 3 2 1 4 189 198 34 33
71 3 2 1 4 20 21 199 190
72 3 2 1 4 190 199 200 191
73 3 2 1 4 191 200 201 192
74 3 2 1 4 192 201 202 193
75 3 2 1 4 193 202 203 194
76 3 2 1 4 194 203 204 195
77 3 2 1 4 195 204 205 196
78 3 2 1 4 196 205 206 197
79 3 2 1 4 197 206 207 198
80 3 2 1 4 198 207 35 34
81 3 2 1 4 21 22 208 199
82 3 2 1 4 199 208 209 200
83 3 2 1 4 200 209 210 201
84 3 2 1 4 201 210 211 202
85 3 2 1 4 202 211 212 203
86 3 2 1 4 203 212 213 204
87 3 2 1 4 204 213 214 205
88 3 2 1 4 205 214 215 206
89 3 2 1 4 206 215 216 207
90 3 2 1 4 207 216 36 35
91 3 2 1 4 22 23 217 208
92 3 2 1 4 208 217 218 209
93 3 2 1 4 209 218 219 210
94 3 2 1 4 210 219 220 211
95 3 2 1 4 211 220 221 212
96 3 2 1 4 212 221 222 213
97 3 2 1 4 213 222 223 214
98 3 2 1 4 214 223 224 215
99 3 2 1 4 215 224 225 216
100 3 2 1 4 216 225 37 36
101 3 2 1 4 23 24 226 217
102 3 2 1 4 217 226 227 218
103 3 2 1 4 218 227 228 219
104 3 2 1 4 219 228 229 220
105 3 2 1 4 220 229 230 221
106 3 2 1 4 221 230 231 222
107 3 2 1 4 222 231 232 223
108 3 2 1 4 223 232 233 224
109 3 2 1 4 224 233 234 225
110 3 2 1 4 225 234 38 37
111 3 2 1 4 24 25 235 226
112 3 2 1 4 226 235 236 227
113 3 2 1 4 227 236 237 228
114 3 2 1 4 228 237 238 229
115 3 2 1 4 229 238 239 230
116 3 2 1 4 230 239 240 231
117 3 2 1 4 231 240 241 232
118 3 2 1 4 232 241 242 233
119 3 2 1 4 233 242 243 234
120 3 2 1 4 234 243 39 38
121 3 2 1 4 25 26 244 235
122 3 2 1 4 235 244 245 236
123 3 2 1 4 236 245 246 237
124 3 2 1 4 237 246 247 238
125 3 2 1 4 238 247 248 239
126 3 2 1 4 239 248 249 240
127 3 2 1 4 240 249 250 241
128 3 2 1 4 241 250 251 242
129 3 2 1 4 242 251 252 243
130 3 2 1 4 243 252 40 39
131 3 2 1 4 26 27 253 244
132 3 2 1 4 244 253 254 245
133 3 2 1 4 245 254 255 246
134 3 2 1 4 246 255 256 247
135 3 2 1 4 247 256 257 248
136 3 2 1 4 248 257 258 249
137 3 2 1 4 249 258 259 250
138 3 2 1 4 250 259 260 251
139 3 2 1 4 251 260 261 252
140 3 2 1 4 252 261 41 40
141 3 2 1 4 27 28 262 253
142 3 2 1 4 253 262 263 254
143 3 2 1 4 254 263 264 255
144 3 2 1 4 255 264 265 256
145 3 2 1 4 256 265 266 257
146 3 2 1 4 257 266 267 258
147 3 2 1 4 258 267 268 259
148 3 2 1 4 259 268 269 260
149 3 2 1 4 260 269 270 261
150 3 2 1 4 261 270 42 41
151 3 2 1 4 28 2 43 262
152 3 2 1 4 262 43 44 263
153 3 2 1 4 263 44 45 264
154 3 2 1 4 264 45 46 265
155 3 2 1 4 265 46 47 266
156 3 2 1 4 266 47 48 267
157 3 2 1 4 267 48 49 268
158 3 2 1 4 268 49 50 269
159 3 2 1 4 269 50 51 270
160 3 2 1 4 270 51 5 42
161 3 2 3 12 1 15 52 6
162 3 2 3 12 15 16 53 52
163 3 2 3 12 16 17 54 53
164 3 2 3 12 17 18 55 54
165 3 2 3 12 18 19 56 55
166 3 2 3 12 19 20 57 56
167 3 2 3 12 20 21 58 57
168 3 2 3 12 21 22 59 58
169 3 2 3 12 22 23 60 59
170 3 2 3 12 23 24 61 60
171 3 2 3 12 24 25 62 61
172 3 2 3 12 25 26 63 62
173 3 2 3 12 26 27 64 63
174 3 2 3 12 27 28 65 64
175 3 2 3 12 28 2 7 65
176 3 2 4 16 2 43 66 7
177 3 2 4 16 43 44 67 66
178 3 2 4 16 44 45 68 67
179 3 2 4 16 45 46 69 68
180 3 2 4 16 46 47 70 69
181 3 2 4 16 47 48 71 70
182 3 2 4 16 48 49 72 71
183 3 2 4 16 49 50 73 72
184 3 2 4 16 50 51 74 73
185 3 2 4 16 51 5 8 74
186 3 2 5 20 1 6 88 29
187 3 2 5 20 29 88 87 30
188 3 2 5 20 30 87 86 31
189 3 2 5 20 31 86 85 32
190 3 2 5 20 32 85 84 33
191 3 2 5 20 33 84 83 34
192 3 2 5 20 34 83 82 35
193 3 2 5 20 35 82 81 36
194 3 2 5 20 36 81 80 37
195 3 2 5 20 37 80 79 38
196 3 2 5 20 38 79 78 39
197 3 2 5 20 39 78 77 40
198 3 2 5 20 40 77 76 41
199 3 2 5 20 41 76 75 42
200 3 2 5 20 42 75 8 5
201 3 2 2 21 52 53 280 271
202 3 2 2 21 271 280 281 272
203 3 2 2 21 272 281 282 273
204 3 2 2 21 273 282 283 274
205 3 2 2 21 274 283 284 275
206 3 2 2 21 275 284 285 276
207 3 2 2 21 276 285 286 277
208 3 2 2 21 277 286 287 278
209 3 2 2 21 278 287 288 279
210 3 2 2 21 279 288 87 88
211 3 2 2 21 53 54 289 280
212 3 2 2 21 280 289 290 281
213 3 2 2 21 281 290 291 282
214 3 2 2 21 282 291 292 283
215 3 2 2 21 283 292 293 284
216 3 2 2 21 284 293 294 285
217 3 2 2 21 285 294 295 286
218 3 2 2 21 286 295 296 287
219 3 2 2 21 287 296 297 288
220 3 2 2 21 288 297 86 87
221 3 2 2 21 54 55 298 289
222 3 2 2 21 289 298 299 290
223 3 2 2 21 290 299 300 291
224 3 2 2 21 291 300 301 292
225 3 2 2 21 292 301 302 293
226 3 2 2 21 293 302 303 294
227 3 2 2 21 294 303 304 295
228 3 2 2 21 295 304 305 296
229 3 2 2 21 296 305 306 297
230 3 2 2 21 297 306 85 86
231 3 2 2 21 55 56 307 298
232 3 2 2 21 298 307 308 299
233 3 2 2 21 299 308 309 300
234 3 2 2 21 300 309 310 301
235 3 2 2 21 301 310 311 302
236 3 2 2 21 302 311 312 303
237 3 2 2 21 303 312 313 304
238 3 2 2 21 304 313 314 305
239 3 2 2 21 305 314 315 306
240 3 2 2 21 306 315 84 85
241 3 2 2 21 56 57 316 307
242 3 2 2 21 307 316 317 308
243 3 2 2 21 308 317 318 309
244 3 2 2 21 309 318 319 310
245 3 2 2 21 310 319 320 311
246 3 2 2 21 311 320 321 312
247 3 2 2 21 312 321 322 313
248 3 2 2 21 313 322 323 314
249 3 2 2 21 314 323 324 315
250 3 2 2 21 315 324 83 84
251 3 2 2 21 57 58 325 316
252 3 2 2 21 316 325 326 317
253 3 2 2 21 317 326 327 318
254 3 2 2 21 318 327 328 319
255 3 2 2 21 319 328 329 320
256 3 2 2 21 320 329 330 321
257 3 2 2 21 321 330 331 322
258 3 2 2 21 322 331 332 323
259 3 2 2 21 323 332 333 324
260 3 2 2 21 324 333 82 83
261 3 2 2 21 58 59 334 325
262 3 2 2 21 325 334 335 326
263 3 2 2 21 326 335 336 327
264 3 2 2 21 327 336 337 328
265 3 2 2 21 328 337 338 329
266 3 2 2 21 329 338 339 330
267 3 2 2 21 330 339 340 331
268 3 2 2 21 331 340 341 332
269 3 2 2 21 332 341 342 333
270 3 2 2 21 333 342 81 82
271 3 2 2 21 59 60 343 334
272 3 2 2 21 334 343 344 335
273 3 2 2 21 335 344 345 336
274 3 2 2 21 336 345 346 337
275 3 2 2 21 337 346 347 338
276 3 2 2 21 338 347 348 339
277 3 2 2 21 339 348 349 340
278 3 2 2 21 340 349 350 341
279 3 2 2 21 341 350 351 342
280 3 2 2 21 342 351 80 81
281 3 2 2 21 60 61 352 343
282 3 2 2 21 343 352 353 344
283 3 2 2 21 344 353 354 345
284 3 2 2 21 345 354 355 346
285 3 2 2 21 346 355 356 347
286 3 2 2 21 347 356 357 348
287 3 2 2 21 348 357 358 349
288 3 2 2 21 349 358 359 350
289 3 2 2 21 350 359 360 351
290 3 2 2 21 351 360 79 80
291 3 2 2 21 61 62 361 352
292 3 2 2 21 352 361 362 353
293 3 2 2 21 353 362 363 354
294 3 2 2 21 354 363 364 355
295 3 2 2 21 355 364 365 356
296 3 2 2 21 356 365 366 357
297 3 2 2 21 357 366 367 358
298 3 2 2 21 358 367 368 359
299 3 2 2 21 359 368 369 360
300 3 2 2 21 360 369 78 79
301 3 2 2 21 62 63 370 361
302 3 2 2 21 361 370 371 362
303 3 2 2 21 362 371 372 363
304 3 2 2 21 363 372 373 364
305 3 2 2 21 364 373 374 365
306 3 2 2 21 365 374 375 366
307 3 2 2 21 366 375 376 367
308 3 2 2 21 367 376 377 368
309 3 2 2 21 368 377 378 369
310 3 2 2 21 369 378 77 78
311 3 2 2 21 63 64 379 370
312 3 2 2 21 370 379 380 371
313 3 2 2 21 371 380 381 372
314 3 2 2 21 372 381 382 373
315 3 2 2 21 373 382 383 374
316 3 2 2 21 374 383 384 375
317 3 2 2 21 375 384 385 376
318 3 2 2 21 376 385 386 377
319 3 2 2 21 377 386 387 378
320 3 2 2 21 378 387 76 77
321 3 2 2 21 64 65 388 379
322 3 2 2 21 379 388 389 380
323 3 2 2 21 380 389 390 381
324 3 2 2 21 381 390 391 382
325 3 2 2 21 382 391 392 383
326 3 2 2 21 383 392 393 384
327 3 2 2 21 384 393 394 385
328 3 2 2 21 385 394 395 386
329 3 2 2 21 386 395 396 387
330 3 2 2 21 387 396 75 76
331 3 2 2 21 65 7 66 388
332 3 2 2 21 388 66 67 389
333 3 2 2 21 389 67 68 390
334 3 2 2 21 390 68 69 391
335 3 2 2 21 391 69 70 392
336 3 2 2 21 392 70 71 393
337 3 2 2 21 393 71 72 394
338 3 2 2 21 394 72 73 395
339 3 2 2 21 395 73 74 396
340 3 2 2 21 396 74 8 75
341 3 2 7 26 2 89 397 43
342 3 2 7 26 43 397 398 44
343 3 2 7 26 44 398 399 45
344 3 2 7 26 45 399 400 46
345 3 2 7 26 46 400 401 47
346 3 2 7 26 47 401 402 48
347 3 2 7 26 48 402 403 49
348 3 2 7 26 49 403 404 50
349 3 2 7 26 50 404 405 51
350 3 2 7 26 51 405 90 5
351 3 2 7 26 89 3 91 397
352 3 2 7 26 397 91 92 398
353 3 2 7 26 398 92 93 399
354 3 2 7 26 399 93 94 400
355 3 2 7 26 400 94 95 401
356 3 2 7 26 401 95 96 402
357 3 2 7 26 402 96 97 403
358 3 2 7 26 403 97 98 404
359 3 2 7 26 404 98 99 405
360 3 2 7 26 405 99 9 90
361 3 2 9 35 2 89 100 7
362 3 2 9 35 89 3 10 100
363 3 2 10 39 3 91 101 10
364 3 2 10 39 91 92 102 101
365 3 2 10 39 92 93 103 102
366 3 2 10 39 93 94 104 103
367 3 2 10 39 94 95 105 104
368 3 2 10 39 95 96 106 105
369 3 2 10 39 96 97 107 106
370 3 2 10 39 97 98 108 107
371 3 2 10 39 98 99 109 108
372 3 2 10 39 99 9 11 109
373 3 2 11 43 5 8 110 90
374 3 2 11 43 90 110 11 9
375 3 2 8 48 7 100 406 66
376 3 2 8 48 66 406 407 67
377 3 2 8 48 67 407 408 68
378 3 2 8 48 68 408 409 69
379 3 2 8 48 69 409 410 70
380 3 2 8 48 70 410 411 71
381 3 2 8 48 71 411 412 72
382 3 2 8 48 72 412 413 73
383 3 2 8 48 73 413 414 74
384 3 2 8 48 74 414 110 8
385 3 2 8 48 100 10 101 406
386 3 2 8 48 406 101 102 407
387 3 2 8 48 407 102 103 408
388 3 2 8 48 408 103 104 409
389 3 2 8 48 409 104 105 410
390 3 2 8 48 410 105 106 411
391 3 2 8 48 411 106 107 412
392 3 2 8 48 412 107 108 413
393 3 2 8 48 413 108 109 414
394 3 2 8 48 414 109 11 110
395 3 2 13 53 3 111 415 91
396 3 2 13 53 91 415 416 92
397 3 2 13 53 92 416 417 93
398 3 2 13 53 93 417 418 94
399 3 2 13 53 94 418 419 95
400 3 2 13 53 95 419 420 96
401 3 2 13 53 96 420 421 97
402 3 2 13 53 97 421 422 98
403 3 2 13 53 98 422 423 99
404 3 2 13 53 99 423 115 9
405 3 2 13 53 111 112 424 415
406 3 2 13 53 415 424 425 416
407 3 2 13 53 416 425 426 417
408 3 2 13 53 417 426 427 418
409 3 2 13 53 418 427 428 419
410 3 2 13 53 419 428 429 420
411 3 2 13 53 420 429 430 421
412 3 2 13 53 421 430 431 422
413 3 2 13 53 422 431 432 423
414 3 2 13 53 423 432 116 115
415 3 2 13 53 112 113 433 424
416 3 2 13 53 424 433 434 425
417 3 2 13 53 425 434 435 426
418 3 2 13 53 426 435 436 427
419 3 2 13 53 427 436 437 428
420 3 2 13 53 428 437 438 429
421 3 2 13 53 429 438 439 430
422 3 2 13 53 430 439 440 431
423 3 2 13 53 431 440 441 432
424 3 2 13 53 432 441 117 116
425 3 2 13 53 113 114 442 433
426 3 2 13 53 433 442 443 434
427 3 2 13 53 434 443 444 435
428 3 2 13 53 435 444 445 436
429 3 2 13 53 436 445 446 437
430 3 2 13 53 437 446 447 438
431 3 2 13 53 438 447 448 439
432 3 2 13 53 439 448 449 440
433 3 2 13 53 440 449 450 441
434 3 2 13 53 441 450 118 117
435 3 2 13 53 114 4 119 442
436 3 2 13 53 442 119 120 443
437 3 2 13 53 443 120 121 444
438 3 2 13 53 444 121 122 445
439 3 2 13 53 445 122 123 446
440 3 2 13 53 446 123 124 447
441 3 2 13 53 447 124 125 448
442 3 2 13 53 448 125 126 449
443 3 2 13 53 449 126 127 450
444 3 2 13 53 450 127 12 118
445 3 2 15 62 3 111 128 10
446 3 2 15 62 111 112 129 128
447 3 2 15 62 112 113 130 129
448 3 2 15 62 113 114 131 130
449 3 2 15 62 114 4 13 131
450 3 2 16 66 4 119 132 13
451 3 2 16 66 119 120 133 132
452 3 2 16 66 120 121 134 133
453 3 2 16 66 121 122 135 134
454 3 2 16 66 122 123 136 135
455 3 2 16 66 123 124 137 136
456 3 2 16 66 124 125 138 137
457 3 2 16 66 125 126 139 138
458 3 2 16 66 126 127 140 139
459 3 2 16 66 127 12 14 140
460 3 2 17 70 9 11 144 115
461 3 2 17 70 115 144 143 116
462 3 2 17 70 116 143 142 117
463 3 2 17 70 117 142 141 118
464 3 2 17 70 118 141 14 12
465 3 2 14 75 10 128 451 101
466 3 2 14 75 101 451 452 102
467 3 2 14 75 102 452 453 103
468 3 2 14 75 103 453 454 104
469 3 2 14 75 104 454 455 105
470 3 2 14 75 105 455 456 106
471 3 2 14 75 106 456 457 107
472 3 2 14 75 107 457 458 108
473 3 2 14 75 108 458 459 109
474 3 2 14 75 109 459 144 11
475 3 2 14 75 128 129 460 451
476 3 2 14 75 451 460 461 452
477 3 2 14 75 452 461 462 453
478 3 2 14 75 453 462 463 454
479 3 2 14 75 454 463 464 455
480 3 2 14 75 455 464 465 456
481 3 2 14 75 456 465 466 457
482 3 2 14 75 457 466 467 458
483 3 2 14 75 458 467 468 459
484 3 2 14 75 459 468 143 144
485 3 2 14 75 129 130 469 460
486 3 2 14 75 460 469 470 461
487 3 2 14 75 461 470 471 462
488 3 2 14 75 462 471 472 463
489 3 2 14 75 463 472 473 464
490 3 2 14 75 464 473 474 465
491 3 2 14 75 465 474 475 466
492 3 2 14 75 466 475 476 467
493 3 2 14 75 467 476 477 468
494 3 2 14 75 468 477 142 143
495 3 2 14 75 130 131 478 469
496 3 2 14 75 469 478 479 470
497 3 2 14 75 470 479 480 471
498 3 2 14 75 471 480 481 472
499 3 2 14 75 472 481 482 473
500 3 2 14 75 473 482 483 474
501 3 2 14 75 474 483 484 475
502 3 2 14 75 475 484 485 476
503 3 2 14 75 476 485 486 477
504 3 2 14 75 477 486 141 142
505 3 2 14 75 131 13 132 478
506 3 2 14 75 478 132 133 479
507 3 2 14 75 479 133 134 480
508 3 2 14 75 480 134 135 481
509 3 2 14 75 481 135 136 482
510 3 2 14 75 482 136 137 483
511 3 2 14 75 483 137 138 484
512 3 2 14 75 484 138 139 485
513 3 2 14 75 485 139 140 486
514 3 2 14 75 486 140 14 141
515 5 2 6 1 154 16 15 145 280 53 52 271
516 5 2 6 1 155 154 145 146 281 280 271 272
517 5 2 6 1 156 155 146 147 282 281 272 273
518 5 2 6 1 157 156 147 148 283 282 273 274
519 5 2 6 1 158 157 148 149 284 283 274 275
520 5 2 6 1 159 158 149 150 285 284 275 276
521 5 2 6 1 160 159 150 151 286 285 276 277
522 5 2 6 1 161 160 151 152 287 286 277 278
523 5 2 6 1 162 161 152 153 288 287 278 279
524 5 2 6 1 30 162 153 29 87 288 279 88
525 5 2 6 1 163 17 16 154 289 54 53 280
526 5 2 6 1 164 163 154 155 290 289 280 281
527 5 2 6 1 165 164 155 156 291 290 281 282
528 5 2 6 1 166 165 156 157 292 291 282 283
529 5 2 6 1 167 166 157 158 293 292 283 284
530 5 2 6 1 168 167 158 159 294 293 284 285
531 5 2 6 1 169 168 159 160 295 294 285 286
532 5 2 6 1 170 169 160 161 296 295 286 287
533 5 2 6 1 171 170 161 162 297 296 287 288
534 5 2 6 1 31 171 162 30 86 297 288 87
535 5 2 6 1 172 18 17 163 298 55 54 289
536 5 2 6 1 173 172 163 164 299 298 289 290
537 5 2 6 1 174 173 164 165 300 299 290 291
538 5 2 6 1 175 174 165 166 301 300 291 292
539 5 2 6 1 176 175 166 167 302 301 292 293
540 5 2 6 1 177 176 167 168 303 302 293 294
541 5 2 6 1 178 177 168 169 304 303 294 295
542 5 2 6 1 179 178 169 170 305 304 295 296
543 5 2 6 1 180 179 170 171 306 305 296 297
544 5 2 6 1 32 180 171 31 85 306 297 86
545 5 2 6 1 181 19 18 172 307 56 55 298
546 5 2 6 1 182 181 172 173 308 307 298 299
547 5 2 6 1 183 182 173 174 309 308 299 300
548 5 2 6 1 184 183 174 175 310 309 300 301
549 5 2 6 1 185 184 175 176 311 310 301 302
550 5 2 6 1 186 185 176 177 312 311 302 303
551 5 2 6 1 187 186 177 178 313 312 303 304
552 5 2 6 1 188 187 178 179 314 313 304 305
553 5 2 6 1 189 188 179 180 315 314 305 306
554 5 2 6 1 33 189 180 32 84 315 306 85
555 5 2 6 1 190 20 19 181 316 57 56 307
556 5 2 6 1 191 190 181 182 317 316 307 308
557 5 2 6 1 192 191 182 183 318 317 308 309
558 5 2 6 1 193 192 183 184 319 318 309 310
559 5 2 6 1 194 193 184 185 320 319 310 311
560 5 2 6 1 195 194 185 186 321 320 311 312
561 5 2 6 1 196 195 186 187 322 321 312 313
562 5 2 6 1 197 196 187 188 323 322 313 314
563 5 2 6 1 198 197 188 189 324 323 314 315
564 5 2 6 1 34 198 189 33 83 324 315 84
565 5 2 6 1 199 21 20 190 325 58 57 316
566 5 2 6 1 200 199 190 191 326 325 316 317
567 5 2 6 1 201 200 191 192 327 326 317 318
568 5 2 6 1 202 201 192 193 328 327 318 319
569 5 2 6 1 203 202 193 194 329 328 319 320
570 5 2 6 1 204 203 194 195 330 329 320 321
571 5 2 6 1 205 204 195 196 331 330 321 322
572 5 2 6 1 206 205 196 197 332 331 322 323
573 5 2 6 1 207 206 197 198 333 332 323 324
574 5 2 6 1 35 207 198 34 82 333 324 83
575 5 2 6 1 208 22 21 199 334 59 58 325
576 5 2 6 1 209 208 199 200 335 334 325 326
577 5 2 6 1 210 209 200 201 336 335 326 327
578 5 2 6 1 211 210 201 202 337 336 327 328
579 5 2 6 1 212 211 202 203 338 337 328 329
580 5 2 6 1 213 212 203 204 339 338 329 330
581 5 2 6 1 214 213 204 205 340 339 330 331
582 5 2 6 1 215 214 205 206 341 340 331 332
583 5 2 6 1 216 215 206 207 342 341 332 333
584 5 2 6 1 36 216 207 35 81 342 333 82
585 5 2 6 1 217 23 22 208 343 60 59 334
586 5 2 6 1 218 217 208 209 344 343 334 335
587 5 2 6 1 219 218 209 210 345 344 335 336
588 5 2 6 1 220 219 210 211 346 345 336 337
589 5 2 6 1 221 220 211 212 347 346 337 338
590 5 2 6 1 222 221 212 213 348 347 338 339
591 5 2 6 1 223 222 213 214 349 348 339 340
592 5 2 6 1 224 223 214 215 350 349 340 341
593 5 2 6 1 225 224 215 216 351 350 341 342
594 5 2 6 1 37 225 216 36 80 351 342 81
595 5 2 6 1 226 24 23 217 352 61 60 343
596 5 2 6 1 227 226 217 218 353 352 343 344
597 5 2 6 1 228 227 218 219 354 353 344 345
598 5 2 6 1 229 228 219 220 355 354 345 346
599 5 2 6 1 230 229 220 221 356 355 346 347
600 5 2 6 1 231 230 221 222 357 356 347 348
601 5 2 6 1 232 231 222 223 358 357 348 349
602 5 2 6 1 233 232 223 224 359 358 349 350
603 5 2 6 1 234 233 224 225 360 359 350 351
604 5 2 6 1 38 234 225 37 79 360 351 80
605 5 2 6 1 235 25 24 226 361 62 61 352
606 5 2 6 1 236 235 226 227 362 361 352 353
607 5 2 6 1 237 236 227 228 363 362 353 354
608 5 2 6 1 238 237 228 229 364 363 354 355
609 5 2 6 1 239 238 229 230 365 364 355 356
610 5 2 6 1 240 239 230 231 366 365 356 357
611 5 2 6 1 241 240 231 232 367 366 357 358
612 5 2 6 1 242 241 232 233 368 367 358 359
613 5 2 6 1 243 242 233 234 369 368 359 360
614 5 2 6 1 39 243 234 38 78 369 360 79
615 5 2 6 1 244 26 25 235 370 63 62 361
616 5 2 6 1 245 244 235 236 371 370 361 362
617 5 2 6 1 246 245 236 237 372 371 362 363
618 5 2 6 1 247 246 237 238 373 372 363 364
619 5 2 6 1 248 247 238 239 374 373 364 365
620 5 2 6 1 249 248 239 240 375 374 365 366
621 5 2 6 1 250 249 240 241 376 375 366 367
622 5 2 6 1 251 250 241 242 377 376 367 368
623 5 2 6 1 252 251 242 243 378 377 368 369
624 5 2 6 1 40 252 243 39 77 378 369 78
625 5 2 6 1 253 27 26 244 379 64 63 370
626 5 2 6 1 254 253 244 245 380 379 370 371
627 5 2 6 1 255 254 245 246 381 380 371 372
628 5 2 6 1 256 255 246 247 382 381 372 373
629 5 2 6 1 257 256 247 248 383 382 373 374
630 5 2 6 1 258 257 248 249 384 383 374 375
631 5 2 6 1 259 258 249 250 385 384 375 376
632 5 2 6 1 260 259 250 251 386 385 376 377
633 5 2 6 1 261 260 251 252 387 386 377 378
634 5 2 6 1 41 261 252 40 76 387 378 77
635 5 2 6 1 262 28 27 253 388 65 64 379
636 5 2 6 1 263 262 253 254 389 388 379 380
637 5 2 6 1 264 263 254 255 390 389 380 381
638 5 2 6 1 265 264 255 256 391 390 381 382
639 5 2 6 1 266 265 256 257 392 391 382 383
640 5 2 6 1 267 266 257 258 393 392 383 384
641 5 2 6 1 268 267 258 259 394 393 384 385
642 5 2 6 1 269 268 259 260 395 394 385 386
643 5 2 6 1 270 269 260 261 396 395 386 387
644 5 2 6 1 42 270 261 41 75 396 387 76
645 5 2 6 1 43 2 28 262 66 7 65 388
646 5 2 6 1 44 43 262 263 67 66 388 389
647 5 2 6 1 45 44 263 264 68 67 389 390
648 5 2 6 1 46 45 264 265 69 68 390 391
649 5 2 6 1 47 46 265 266 70 69 391 392
650 5 2 6 1 48 47 266 267 71 70 392 393
651 5 2 6 1 49 48 267 268 72 71 393 394
652 5 2 6 1 50 49 268 269 73 72 394 395
653 5 2 6 1 51 50 269 270 74 73 395 396
654 5 2 6 1 5 51 270 42 8 74 396 75
655 5 2 12 2 397 89 2 43 406 100 7 66
656 5 2 12 2 398 397 43 44 407 406 66 67
657 5 2 12 2 399 398 44 45 408 407 67 68
658 5 2 12 2 400 399 45 46 409 408 68 69
659 5 2 12 2 401 400 46 47 410 409 69 70
660 5 2 12 2 402 401 47 48 411 410 70 71
661 5 2 12 2 403 402 48 49 412 411 71 72
662 5 2 12 2 404 403 49 50 413 412 72 73
663 5 2 12 2 405 404 50 51 414 413 73 74
664 5 2 12 2 90 405 51 5 110 414 74 8
665 5 2 12 2 91 3 89 397 101 10 100 406
666 5 2 12 2 92 91 397 398 102 101 406 407
667 5 2 12 2 93 92 398 399 103 102 407 408
668 5 2 12 2 94 93 399 400 104 103 408 409
669 5 2 12 2 95 94 400 401 105 104 409 410
670 5 2 12 2 96 95 401 402 106 105 410 411
671 5 2 12 2 97 96 402 403 107 106 411 412
672 5 2 12 2 98 97 403 404 108 107 412 413
673 5 2 12 2 99 98 404 405 109 108 413 414
674 5 2 12 2 9 99 405 90 11 109 414 110
675 5 2 18 3 415 111 3 91 451 128 10 101
676 5 2 18 3 416 415 91 92 452 451 101 102
677 5 2 18 3 417 416 92 93 453 452 102 103
678 5 2 18 3 418 417 93 94 454 453 103 104
679 5 2 18 3 419 418 94 95 455 454 104 105
680 5 2 18 3 420 419 95 96 456 455 105 106
681 5 2 18 3 421 420 96 97 457 456 106 107
682 5 2 18 3 422 421 97 98 458 457 107 108
683 5 2 18 3 423 422 98 99 459 458 108 109
684 5 2 18 3 115 423 99 9 144 459 109 11
685 5 2 18 3 424 112 111 415 460 129 128 451
686 5 2 18 3 425 424 415 416 461 460 451 452
687 5 2 18 3 426 425 416 417 462 461 452 453
688 5 2 18 3 427 426 417 418 463 462 453 454
689 5 2 18 3 428 427 418 419 464 463 454 455
690 5 2 18 3 429 428 419 420 465 464 455 456
691 5 2 18 3 430 429 420 421 466 465 456 457
692 5 2 18 3 431 430 421 422 467 466 457 458
693 5 2 18 3 432 431 422 423 468 467 458 459
694 5 2 18 3 116 432 423 115 143 468 459 144
695 5 2 18 3 433 113 112 424 469 130 129 460
696 5 2 18 3 434 433 424 425 470 469 460 461
697 5 2 18 3 435 434 425 426 471 470 461 462
698 5 2 18 3 436 435 426 427 472 471 462 463
699 5 2 18 3 437 436 427 428 473 472 463 464
700 5 2 18 3 438 437 428 429 474 473 464 465
701 5 2 18 3 439 438 429 430 475 474 465 466
702 5 2 18 3 440 439 430 431 476 475 466 467
703 5 2 18 3 441 440 431 432 477 476 467 468
704 5 2 18 3 117 441 432 116 142 477 468 143
705 5 2 18 3 442 114 113 433 478 131 130 469
706 5 2 18 3 443 442 433 434 479 478 469 470
707 5 2 18 3 444 443 434 435 480 479 470 471
708 5 2 18 3 445 444 435 436 481 480 471 472
709 5 2 18 3 446 445 436 437 482 481 472 473
710 5 2 18 3 447 446 437 438 483 482 473 474
711 5 2 18 3 448 447 438 439 484 483 474 475
712 5 2 18 3 449 448 439 440 485 484 475 476
713 5 2 18 3 450 449 440 441 486 485 476 477
714 5 2 18 3 118 450 441 117 141 486 477 142
715 5 2 18 3 119 4 114 442 132 13 131 478
716 5 2 18 3 120 119 442 443 133 132 478 479
717 5 2 18 3 121 120 443 444 134 133 479 480
718 5 2 18 3 122 121 444 445 135 134 480 481
719 5 2 18 3 123 122 445 446 136 135 481 482
720 5 2 18 3 124 123 446 447 137 136 482 483
721 5 2 18 3 125 124 447 448 138 137 483 484
722 5 2 18 3 126 125 448 449 139 138 484 485
723 5 2 18 3 127 126 449 450 140 139 485 486
724 5 2 18 3 12 127 450 118 14 140 486 141
725 6 2 6 1 15 1 145 52 6 271
726 6 2 6 1 145 1 146 271 6 272
727 6 2 6 1 146 1 147 272 6 273
728 6 2 6 1 147 1 148 273 6 274
729 6 2 6 1 148 1 149 274 6 275
730 6 2 6 1 149 1 150 275 6 276
731 6 2 6 1 150 1 151 276 6 277
732 6 2 6 1 151 1 152 277 6 278
733 6 2 6 1 152 1 153 278 6 279
734 6 2 6 1 153 1 29 279 6 88
$EndElements
