-4.000000000000000083e-02 0.000000000000000000e+00
-3.500000000000000333e-02 0.000000000000000000e+00
-2.999999999999999889e-02 0.000000000000000000e+00
-2.500000000000000139e-02 0.000000000000000000e+00
-2.000000000000000042e-02 0.000000000000000000e+00
-1.499999999999999944e-02 0.000000000000000000e+00
-1.000000000000000194e-02 0.000000000000000000e+00
-4.999999999999997502e-03 0.000000000000000000e+00
0.000000000000000000e+00 0.000000000000000000e+00
4.999999999999997502e-03 0.000000000000000000e+00
1.000000000000000194e-02 0.000000000000000000e+00
1.499999999999999944e-02 0.000000000000000000e+00
1.999999999999999695e-02 0.000000000000000000e+00
2.500000000000000139e-02 0.000000000000000000e+00
3.000000000000000583e-02 1.000000000000000000e+00
3.499999999999999639e-02 1.000000000000000000e+00
4.000000000000000083e-02 0.000000000000000000e+00
