finish
/clear

/filname,nineElement
/prep7
init

height = 3
width = 3
dx = 1
tol = 0.1

rectng,0,1,0,3
rectng,1,2,0,1
rectng,1,2,1,2
rectng,1,2,2,3
rectng,2,3,0,3
asel,all
aglue,all

asel,all
cm,probe,area

lsel,s,loc,x,-tol,tol
cm,left,line

lsel,s,loc,x,width-tol,width+tol
cm,right,line

lsel,s,loc,y,-tol,tol
cm,bot,line

lsel,s,loc,y,height-tol,height+tol
cm,top,line

lsel,all
lesize,all,dx

setelems,'quadr',''
asel,all
amesh,all

setelems,'2d-line',''
cmsel,s,bot
cmsel,a,top
cmsel,a,right
cmsel,a,left
lmesh,all

cmsel,s,probe
esla,s
welems,'probe'

cmsel,s,left
esll,s
welems,'left'

cmsel,s,right
esll,s
welems,'right'

cmsel,s,top
esll,s
welems,'top'

cmsel,s,bot
esll,s
welems,'bot'

asel,s,loc,x,1,2
asel,r,loc,y,1,2
cm,center,area
esla,s
wsavelem,'center'

allsel
wnodes
!mkmesh
mkhdf5
