[Info]
Version 1
Dimension 3
NumNodes 72
Num3DElements 25
Num2DElements 45
Num1DElements 0
NumNodeBC 0
NumSaveNodes 0
NumSaveElements 0
Num 2d-line      : 0
Num 2d-line,quad : 0
Num 3d-line      : 0
Num 3d-line,quad : 0
Num triangle     : 0
Num triangle,quad: 0
Num quadr        : 45
Num quadr,quad   : 0
Num tetra        : 0
Num tetra,quad   : 0
Num brick        : 25
Num brick,quad   : 0
Num pyramid      : 0
Num pyramid,quad : 0
Num wedge        : 0
Num wedge,quad   : 0

[Nodes]
#NodeNr x-coord y-coord z-coord
       1  1.2000000000000e+01  4.8000000000000e+00  0.0000000000000e+00
       2  1.2000000000000e+01  7.2000000000000e+00  0.0000000000000e+00
       3  1.1500000000000e+01  7.2000000000000e+00  0.0000000000000e+00
       4  1.1500000000000e+01  4.8000000000000e+00  0.0000000000000e+00
       5  0.0000000000000e+00  7.2000000000000e+00  0.0000000000000e+00
       6  5.0000000000000e-01  7.2000000000000e+00  0.0000000000000e+00
       7  0.0000000000000e+00  4.8000000000000e+00  0.0000000000000e+00
       8  5.0000000000000e-01  4.8000000000000e+00  0.0000000000000e+00
       9  4.8000000000000e+00  0.0000000000000e+00  0.0000000000000e+00
      10  7.2000000000000e+00  0.0000000000000e+00  0.0000000000000e+00
      11  7.2000000000000e+00  5.0000000000000e-01  0.0000000000000e+00
      12  4.8000000000000e+00  5.0000000000000e-01  0.0000000000000e+00
      13  7.2000000000000e+00  1.2000000000000e+01  0.0000000000000e+00
      14  4.8000000000000e+00  1.2000000000000e+01  0.0000000000000e+00
      15  4.8000000000000e+00  1.1500000000000e+01  0.0000000000000e+00
      16  7.2000000000000e+00  1.1500000000000e+01  0.0000000000000e+00
      17  0.0000000000000e+00  0.0000000000000e+00  0.0000000000000e+00
      18  5.0000000000000e-01  0.0000000000000e+00  0.0000000000000e+00
      19  5.0000000000000e-01  5.0000000000000e-01  0.0000000000000e+00
      20  0.0000000000000e+00  5.0000000000000e-01  0.0000000000000e+00
      21  1.2000000000000e+01  0.0000000000000e+00  0.0000000000000e+00
      22  1.1500000000000e+01  0.0000000000000e+00  0.0000000000000e+00
      23  1.2000000000000e+01  5.0000000000000e-01  0.0000000000000e+00
      24  1.1500000000000e+01  5.0000000000000e-01  0.0000000000000e+00
      25  1.2000000000000e+01  1.2000000000000e+01  0.0000000000000e+00
      26  1.2000000000000e+01  1.1500000000000e+01  0.0000000000000e+00
      27  1.1500000000000e+01  1.2000000000000e+01  0.0000000000000e+00
      28  1.1500000000000e+01  1.1500000000000e+01  0.0000000000000e+00
      29  0.0000000000000e+00  1.2000000000000e+01  0.0000000000000e+00
      30  5.0000000000000e-01  1.2000000000000e+01  0.0000000000000e+00
      31  0.0000000000000e+00  1.1500000000000e+01  0.0000000000000e+00
      32  5.0000000000000e-01  1.1500000000000e+01  0.0000000000000e+00
      33  4.8000000000000e+00  4.8000000000000e+00  0.0000000000000e+00
      34  7.2000000000000e+00  4.8000000000000e+00  0.0000000000000e+00
      35  4.8000000000000e+00  7.2000000000000e+00  0.0000000000000e+00
      36  7.2000000000000e+00  7.2000000000000e+00  0.0000000000000e+00
      37  1.2000000000000e+01  4.8000000000000e+00  3.5000000000000e-01
      38  1.2000000000000e+01  7.2000000000000e+00  3.5000000000000e-01
      39  1.1500000000000e+01  7.2000000000000e+00  3.5000000000000e-01
      40  1.1500000000000e+01  4.8000000000000e+00  3.5000000000000e-01
      41  0.0000000000000e+00  7.2000000000000e+00  3.5000000000000e-01
      42  5.0000000000000e-01  7.2000000000000e+00  3.5000000000000e-01
      43  0.0000000000000e+00  4.8000000000000e+00  3.5000000000000e-01
      44  5.0000000000000e-01  4.8000000000000e+00  3.5000000000000e-01
      45  4.8000000000000e+00  0.0000000000000e+00  3.5000000000000e-01
      46  7.2000000000000e+00  0.0000000000000e+00  3.5000000000000e-01
      47  7.2000000000000e+00  5.0000000000000e-01  3.5000000000000e-01
      48  4.8000000000000e+00  5.0000000000000e-01  3.5000000000000e-01
      49  7.2000000000000e+00  1.2000000000000e+01  3.5000000000000e-01
      50  4.8000000000000e+00  1.2000000000000e+01  3.5000000000000e-01
      51  4.8000000000000e+00  1.1500000000000e+01  3.5000000000000e-01
      52  7.2000000000000e+00  1.1500000000000e+01  3.5000000000000e-01
      53  0.0000000000000e+00  0.0000000000000e+00  3.5000000000000e-01
      54  5.0000000000000e-01  0.0000000000000e+00  3.5000000000000e-01
      55  5.0000000000000e-01  5.0000000000000e-01  3.5000000000000e-01
      56  0.0000000000000e+00  5.0000000000000e-01  3.5000000000000e-01
      57  1.2000000000000e+01  0.0000000000000e+00  3.5000000000000e-01
      58  1.1500000000000e+01  0.0000000000000e+00  3.5000000000000e-01
      59  1.2000000000000e+01  5.0000000000000e-01  3.5000000000000e-01
      60  1.1500000000000e+01  5.0000000000000e-01  3.5000000000000e-01
      61  1.2000000000000e+01  1.2000000000000e+01  3.5000000000000e-01
      62  1.2000000000000e+01  1.1500000000000e+01  3.5000000000000e-01
      63  1.1500000000000e+01  1.2000000000000e+01  3.5000000000000e-01
      64  1.1500000000000e+01  1.1500000000000e+01  3.5000000000000e-01
      65  0.0000000000000e+00  1.2000000000000e+01  3.5000000000000e-01
      66  5.0000000000000e-01  1.2000000000000e+01  3.5000000000000e-01
      67  0.0000000000000e+00  1.1500000000000e+01  3.5000000000000e-01
      68  5.0000000000000e-01  1.1500000000000e+01  3.5000000000000e-01
      69  4.8000000000000e+00  4.8000000000000e+00  3.5000000000000e-01
      70  7.2000000000000e+00  4.8000000000000e+00  3.5000000000000e-01
      71  4.8000000000000e+00  7.2000000000000e+00  3.5000000000000e-01
      72  7.2000000000000e+00  7.2000000000000e+00  3.5000000000000e-01

[3D Elements]
#ElemNr  ElemType  NrOfNodes  Level
#Node1 Node2 ... NodeNrOfNodes
1 10 8 plate
1 2 3 4 37 38 39 40
2 10 8 plate
6 5 7 8 42 41 43 44
3 10 8 plate
9 10 11 12 45 46 47 48
4 10 8 plate
13 14 15 16 49 50 51 52
5 10 8 plate
17 18 19 20 53 54 55 56
6 10 8 plate
22 21 23 24 58 57 59 60
7 10 8 plate
26 25 27 28 62 61 63 64
8 10 8 plate
30 29 31 32 66 65 67 68
9 10 8 plate
23 1 4 24 59 37 40 60
10 10 8 plate
8 7 20 19 44 43 56 55
11 10 8 plate
2 26 28 3 38 62 64 39
12 10 8 plate
32 31 5 6 68 67 41 42
13 10 8 plate
18 9 12 19 54 45 48 55
14 10 8 plate
14 30 32 15 50 66 68 51
15 10 8 plate
10 22 24 11 46 58 60 47
16 10 8 plate
27 13 16 28 63 49 52 64
17 10 8 plate
33 8 19 12 69 44 55 48
18 10 8 plate
34 33 12 11 70 69 48 47
19 10 8 plate
4 34 11 24 40 70 47 60
20 10 8 plate
35 6 8 33 71 42 44 69
21 10 8 plate
36 35 33 34 72 71 69 70
22 10 8 plate
3 36 34 4 39 72 70 40
23 10 8 plate
15 32 6 35 51 68 42 71
24 10 8 plate
16 15 35 36 52 51 71 72
25 10 8 plate
28 16 36 3 64 52 72 39

[2D Elements]
#ElemNr  ElemType  NrOfNodes  Level
#Node1 Node2 ... NodeNrOfNodes
26 6 4 side
2 38 37 1
27 6 4 side
7 43 41 5
28 6 4 side
10 46 45 9
29 6 4 side
14 50 49 13
30 6 4 side
18 54 53 17
31 6 4 side
53 56 20 17
32 6 4 side
21 57 58 22
33 6 4 side
23 59 57 21
34 6 4 side
25 61 62 26
35 6 4 side
27 63 61 25
36 6 4 side
29 65 66 30
37 6 4 side
31 67 65 29
38 6 4 side
1 37 59 23
39 6 4 side
20 56 43 7
40 6 4 side
26 62 38 2
41 6 4 side
5 41 67 31
42 6 4 side
9 45 54 18
43 6 4 side
30 66 50 14
44 6 4 side
22 58 46 10
45 6 4 side
13 49 63 27
46 6 4 top
39 40 37 38
47 6 4 top
43 44 42 41
48 6 4 top
47 48 45 46
49 6 4 top
51 52 49 50
50 6 4 top
55 56 53 54
51 6 4 top
59 60 58 57
52 6 4 top
63 64 62 61
53 6 4 top
67 68 66 65
54 6 4 top
40 60 59 37
55 6 4 top
56 55 44 43
56 6 4 top
64 39 38 62
57 6 4 top
41 42 68 67
58 6 4 top
48 55 54 45
59 6 4 top
68 51 50 66
60 6 4 top
60 47 46 58
61 6 4 top
52 64 63 49
62 6 4 top
55 48 69 44
63 6 4 top
48 47 70 69
64 6 4 top
47 60 40 70
65 6 4 top
44 69 71 42
66 6 4 top
69 70 72 71
67 6 4 top
70 40 39 72
68 6 4 top
42 71 51 68
69 6 4 top
71 72 52 51
70 6 4 top
72 39 64 52

[1D Elements]
#ElemNr  ElemType  NrOfNodes  Level
#Node1 Node2 ... NodeNrOfNodes

[Node BC]
#NodeNr Level

[Save Nodes]
#NodeNr Level

[Save Elements]
#ElemNr Level

