[Info]
Version 1
Dimension 2
NumNodes 15
Num3DElements 0
Num2DElements 6
Num1DElements 0
NumNodeBC 3
NumSaveNodes 0
NumSaveElements 0
Num 2d-line      : 0
Num 2d-line,quad : 0
Num 3d-line      : 0
Num 3d-line,quad : 0
Num triangle     : 0
Num triangle,quad: 0
Num quadr        : 6
Num quadr,quad   : 0
Num tetra        : 0
Num tetra,quad   : 0
Num brick        : 0
Num brick,quad   : 0
Num pyramid      : 0
Num pyramid,quad : 0
Num wedge        : 0
Num wedge,quad   : 0

[Nodes]
#NodeNr x-coord y-coord z-coord
       1  0.0000000000000e+00 -5.9761430466720e-03  0.0000000000000e+00
       2  2.0000000000000e-03 -5.9761430466720e-03  0.0000000000000e+00
       3  2.0000000000000e-03  0.0000000000000e+00  0.0000000000000e+00
       4  0.0000000000000e+00  0.0000000000000e+00  0.0000000000000e+00
       5  2.0000000000000e-03  5.9761430466720e-03  0.0000000000000e+00
       6  0.0000000000000e+00  5.9761430466720e-03  0.0000000000000e+00
       7  1.0000000000000e-02 -5.9761430466720e-03  0.0000000000000e+00
       8  2.1952286093340e-02 -5.9761430466720e-03  0.0000000000000e+00
       9  1.5976143046670e-02 -5.9761430466720e-03  0.0000000000000e+00
      10  2.1952286093340e-02  0.0000000000000e+00  0.0000000000000e+00
      11  1.0000000000000e-02  0.0000000000000e+00  0.0000000000000e+00
      12  1.5976143046670e-02  0.0000000000000e+00  0.0000000000000e+00
      13  2.1952286093340e-02  5.9761430466720e-03  0.0000000000000e+00
      14  1.0000000000000e-02  5.9761430466720e-03  0.0000000000000e+00
      15  1.5976143046670e-02  5.9761430466720e-03  0.0000000000000e+00

[3D Elements]
#ElemNr  ElemType  NrOfNodes  Level
#Node1 Node2 ... NodeNrOfNodes

[2D Elements]
#ElemNr  ElemType  NrOfNodes  Level
#Node1 Node2 ... NodeNrOfNodes
3 6 4 mass
7 9 12 11
4 6 4 mass
9 8 10 12
5 6 4 mass
11 12 15 14
6 6 4 mass
12 10 13 15
1 6 4 fix
1 2 3 4
2 6 4 fix
4 3 5 6

[1D Elements]
#ElemNr  ElemType  NrOfNodes  Level
#Node1 Node2 ... NodeNrOfNodes

[Node BC]
#NodeNr Level
       3 stiffPoint
      11 stiffPoint
      11 hist

[Save Nodes]
#NodeNr Level

[Save Elements]
#ElemNr Level

