$MeshFormat
2.2 0 8
$EndMeshFormat
$PhysicalNames
3
2 1 "lower"
2 2 "upper"
3 3 "elec3d"
$EndPhysicalNames
$Nodes
39
1 -1 -1 -1
2 1 -1 -1
3 1 1 -1
4 -1 1 -1
5 1 -1 1
6 1 1 1
7 -1 1 1
8 -1 -1 1
9 -2.625677453238495e-12 -1 -1
10 1 -2.625677453238495e-12 -1
11 2.625677453238495e-12 1 -1
12 -1 2.625677453238495e-12 -1
13 1 -2.625677453238495e-12 1
14 2.625677453238495e-12 1 1
15 -1 2.625677453238495e-12 1
16 -2.625677453238495e-12 -1 1
17 1 -1 -2.625677453238495e-12
18 1 1 -2.625677453238495e-12
19 -1 1 -2.625677453238495e-12
20 -1 -1 -2.625677453238495e-12
21 0 0 -1
22 0.5 -0.5 -1
23 0.5 0.5 -1
24 -0.5 0.5 -1
25 -0.5 -0.5 -1
26 1 -2.625677453238495e-12 -2.625677453238495e-12
27 2.625677453238495e-12 1 -2.625677453238495e-12
28 -1 2.625677453238495e-12 -2.625677453238495e-12
29 -2.625677453238495e-12 -1 -2.625677453238495e-12
30 0 0 1
31 0.5 -0.5 1
32 0.5 0.5 1
33 -0.5 0.5 1
34 -0.5 -0.5 1
35 0 0 0
36 0.5 -0.5 0
37 0.5 0.5 0
38 -0.5 0.5 0
39 -0.5 -0.5 0
$EndNodes
$Elements
6
1 10 2 2 19 3 4 7 6 11 19 14 18 27
2 10 2 1 27 1 2 5 8 9 17 16 20 29
3 13 2 3 1 21 2 3 30 5 6 22 23 35 10 17 18 31 32 13 36 37 26
4 13 2 3 1 21 4 1 30 7 8 24 25 35 12 19 20 33 34 15 38 39 28
5 13 2 3 1 1 2 21 8 5 30 9 25 20 22 17 35 16 34 31 29 39 36
6 13 2 3 1 3 4 21 6 7 30 11 23 18 24 19 35 14 32 33 27 37 38
$EndElements
