[Info]
Version 1
Dimension 3
NumNodes 125
Num3DElements 64
Num2DElements 0
Num1DElements 0
NumNodeBC 95
NumSaveNodes 0
NumSaveElements 8
Num 2d-line      : 0
Num 2d-line,quad : 0
Num 3d-line      : 0
Num 3d-line,quad : 0
Num triangle     : 0
Num triangle,quad: 0
Num quadr        : 0
Num quadr,quad   : 0
Num tetra        : 0
Num tetra,quad   : 0
Num brick        : 64
Num brick,quad   : 0
Num pyramid      : 0
Num pyramid,quad : 0
Num wedge        : 0
Num wedge,quad   : 0

[Nodes]
#NodeNr x-coord y-coord z-coord
1  0.0  0.0  0.0
2  0.25  0.0  0.0
3  0.5  0.0  0.0
4  0.75  0.0  0.0
5  1.0  0.0  0.0
6  0.0  0.25  0.0
7  0.25  0.25  0.0
8  0.5  0.25  0.0
9  0.75  0.25  0.0
10  1.0  0.25  0.0
11  0.0  0.5  0.0
12  0.25  0.5  0.0
13  0.5  0.5  0.0
14  0.75  0.5  0.0
15  1.0  0.5  0.0
16  0.0  0.75  0.0
17  0.25  0.75  0.0
18  0.5  0.75  0.0
19  0.75  0.75  0.0
20  1.0  0.75  0.0
21  0.0  1.0  0.0
22  0.25  1.0  0.0
23  0.5  1.0  0.0
24  0.75  1.0  0.0
25  1.0  1.0  0.0
26  0.0  0.0  0.25
27  0.25  0.0  0.25
28  0.5  0.0  0.25
29  0.75  0.0  0.25
30  1.0  0.0  0.25
31  0.0  0.25  0.25
32  0.25  0.25  0.25
33  0.5  0.25  0.25
34  0.75  0.25  0.25
35  1.0  0.25  0.25
36  0.0  0.5  0.25
37  0.25  0.5  0.25
38  0.5  0.5  0.25
39  0.75  0.5  0.25
40  1.0  0.5  0.25
41  0.0  0.75  0.25
42  0.25  0.75  0.25
43  0.5  0.75  0.25
44  0.75  0.75  0.25
45  1.0  0.75  0.25
46  0.0  1.0  0.25
47  0.25  1.0  0.25
48  0.5  1.0  0.25
49  0.75  1.0  0.25
50  1.0  1.0  0.25
51  0.0  0.0  0.5
52  0.25  0.0  0.5
53  0.5  0.0  0.5
54  0.75  0.0  0.5
55  1.0  0.0  0.5
56  0.0  0.25  0.5
57  0.25  0.25  0.5
58  0.5  0.25  0.5
59  0.75  0.25  0.5
60  1.0  0.25  0.5
61  0.0  0.5  0.5
62  0.25  0.5  0.5
63  0.5  0.5  0.5
64  0.75  0.5  0.5
65  1.0  0.5  0.5
66  0.0  0.75  0.5
67  0.25  0.75  0.5
68  0.5  0.75  0.5
69  0.75  0.75  0.5
70  1.0  0.75  0.5
71  0.0  1.0  0.5
72  0.25  1.0  0.5
73  0.5  1.0  0.5
74  0.75  1.0  0.5
75  1.0  1.0  0.5
76  0.0  0.0  0.75
77  0.25  0.0  0.75
78  0.5  0.0  0.75
79  0.75  0.0  0.75
80  1.0  0.0  0.75
81  0.0  0.25  0.75
82  0.25  0.25  0.75
83  0.5  0.25  0.75
84  0.75  0.25  0.75
85  1.0  0.25  0.75
86  0.0  0.5  0.75
87  0.25  0.5  0.75
88  0.5  0.5  0.75
89  0.75  0.5  0.75
90  1.0  0.5  0.75
91  0.0  0.75  0.75
92  0.25  0.75  0.75
93  0.5  0.75  0.75
94  0.75  0.75  0.75
95  1.0  0.75  0.75
96  0.0  1.0  0.75
97  0.25  1.0  0.75
98  0.5  1.0  0.75
99  0.75  1.0  0.75
100  1.0  1.0  0.75
101  0.0  0.0  1.0
102  0.25  0.0  1.0
103  0.5  0.0  1.0
104  0.75  0.0  1.0
105  1.0  0.0  1.0
106  0.0  0.25  1.0
107  0.25  0.25  1.0
108  0.5  0.25  1.0
109  0.75  0.25  1.0
110  1.0  0.25  1.0
111  0.0  0.5  1.0
112  0.25  0.5  1.0
113  0.5  0.5  1.0
114  0.75  0.5  1.0
115  1.0  0.5  1.0
116  0.0  0.75  1.0
117  0.25  0.75  1.0
118  0.5  0.75  1.0
119  0.75  0.75  1.0
120  1.0  0.75  1.0
121  0.0  1.0  1.0
122  0.25  1.0  1.0
123  0.5  1.0  1.0
124  0.75  1.0  1.0
125  1.0  1.0  1.0

[1D Elements]
#ElemNr  ElemType  NrOfNodes  Level
#Node1 Node2 ... NodeNrOfNodes

[2D Elements]
#ElemNr  ElemType  NrOfNodes  Level
#Node1 Node2 ... NodeNrOfNodes

[3D Elements]
#ElemNr  ElemType  NrOfNodes  Level
#Node1 Node2 ... NodeNrOfNodes
1 10 8 boundary
6 7 32 31 1 2 27 26
2 10 8 boundary
7 8 33 32 2 3 28 27
3 10 8 boundary
8 9 34 33 3 4 29 28
4 10 8 boundary
9 10 35 34 4 5 30 29
5 10 8 boundary
11 12 37 36 6 7 32 31
6 10 8 boundary
12 13 38 37 7 8 33 32
7 10 8 boundary
13 14 39 38 8 9 34 33
8 10 8 boundary
14 15 40 39 9 10 35 34
9 10 8 boundary
16 17 42 41 11 12 37 36
10 10 8 boundary
17 18 43 42 12 13 38 37
11 10 8 boundary
18 19 44 43 13 14 39 38
12 10 8 boundary
19 20 45 44 14 15 40 39
13 10 8 boundary
21 22 47 46 16 17 42 41
14 10 8 boundary
22 23 48 47 17 18 43 42
15 10 8 boundary
23 24 49 48 18 19 44 43
16 10 8 boundary
24 25 50 49 19 20 45 44
17 10 8 boundary
31 32 57 56 26 27 52 51
18 10 8 boundary
32 33 58 57 27 28 53 52
19 10 8 boundary
33 34 59 58 28 29 54 53
20 10 8 boundary
34 35 60 59 29 30 55 54
21 10 8 boundary
36 37 62 61 31 32 57 56
22 10 8 design
37 38 63 62 32 33 58 57
23 10 8 design
38 39 64 63 33 34 59 58
24 10 8 boundary
39 40 65 64 34 35 60 59
25 10 8 boundary
41 42 67 66 36 37 62 61
26 10 8 design
42 43 68 67 37 38 63 62
27 10 8 design
43 44 69 68 38 39 64 63
28 10 8 boundary
44 45 70 69 39 40 65 64
29 10 8 boundary
46 47 72 71 41 42 67 66
30 10 8 boundary
47 48 73 72 42 43 68 67
31 10 8 boundary
48 49 74 73 43 44 69 68
32 10 8 boundary
49 50 75 74 44 45 70 69
33 10 8 boundary
56 57 82 81 51 52 77 76
34 10 8 boundary
57 58 83 82 52 53 78 77
35 10 8 boundary
58 59 84 83 53 54 79 78
36 10 8 boundary
59 60 85 84 54 55 80 79
37 10 8 boundary
61 62 87 86 56 57 82 81
38 10 8 design
62 63 88 87 57 58 83 82
39 10 8 design
63 64 89 88 58 59 84 83
40 10 8 boundary
64 65 90 89 59 60 85 84
41 10 8 boundary
66 67 92 91 61 62 87 86
42 10 8 design
67 68 93 92 62 63 88 87
43 10 8 design
68 69 94 93 63 64 89 88
44 10 8 boundary
69 70 95 94 64 65 90 89
45 10 8 boundary
71 72 97 96 66 67 92 91
46 10 8 boundary
72 73 98 97 67 68 93 92
47 10 8 boundary
73 74 99 98 68 69 94 93
48 10 8 boundary
74 75 100 99 69 70 95 94
49 10 8 boundary
81 82 107 106 76 77 102 101
50 10 8 boundary
82 83 108 107 77 78 103 102
51 10 8 boundary
83 84 109 108 78 79 104 103
52 10 8 boundary
84 85 110 109 79 80 105 104
53 10 8 boundary
86 87 112 111 81 82 107 106
54 10 8 boundary
87 88 113 112 82 83 108 107
55 10 8 boundary
88 89 114 113 83 84 109 108
56 10 8 boundary
89 90 115 114 84 85 110 109
57 10 8 boundary
91 92 117 116 86 87 112 111
58 10 8 boundary
92 93 118 117 87 88 113 112
59 10 8 boundary
93 94 119 118 88 89 114 113
60 10 8 boundary
94 95 120 119 89 90 115 114
61 10 8 boundary
96 97 122 121 91 92 117 116
62 10 8 boundary
97 98 123 122 92 93 118 117
63 10 8 boundary
98 99 124 123 93 94 119 118
64 10 8 boundary
99 100 125 124 94 95 120 119

[Node BC]
#NodeNr Level
1 left
6 left
11 left
16 left
21 left
26 left
31 left
36 left
41 left
46 left
51 left
56 left
61 left
66 left
71 left
76 left
81 left
86 left
91 left
96 left
5 right
10 right
15 right
20 right
25 right
30 right
35 right
40 right
45 right
50 right
55 right
60 right
65 right
70 right
75 right
80 right
85 right
90 right
95 right
100 right
105 right
110 right
115 right
120 right
125 right
1 bottom
2 bottom
3 bottom
4 bottom
5 bottom
26 bottom
27 bottom
28 bottom
29 bottom
30 bottom
51 bottom
52 bottom
53 bottom
54 bottom
55 bottom
76 bottom
77 bottom
78 bottom
79 bottom
80 bottom
101 bottom
102 bottom
103 bottom
104 bottom
105 bottom
21 top
22 top
23 top
24 top
25 top
46 top
47 top
48 top
49 top
50 top
71 top
72 top
73 top
74 top
75 top
96 top
97 top
98 top
99 top
100 top
121 top
122 top
123 top
124 top
125 top

[Save Nodes]
#NodeNr Level

[Save Elements]
#ElemNr Level
21 inlet
25 inlet
24 outlet
28 outlet
37 inlet
41 inlet
40 outlet
44 outlet
